Internal ID,FilteredConsolidated
100,"Relapsed/Refractory Multiple Myeloma, , Relapsed / Refractory Multiple Myeloma"
1000,", Metastatic Triple-Negative Breast Cancer"
10000,
10001,
10002,
10003,
10004,
10005,
10006,
10007,
10008,
10009,
1001,", Metastatic Triple-Negative Breast Cancer"
10010,
10011,
10012,
10013,
10014,
10015,
10016,
10017,
10018,
10019,
1002,", Breast Cancer"
10020,
10021,
10022,
10023,
10024,
10025,
10026,
10028,
10029,
1003,", Metastatic HER2+ Breast Cancer"
10030,
10031,
10032,
10033,
10034,
10035,", Breast Cancer"
10036,
10037,
10038,
10039,
10040,"Non Small Cell Lung Cancer, "
10041,
10042,
10043,
10044,
10045,"Multiple Myeloma, "
10046,
10047,
10048,"Multiple Myeloma, "
10049,
1005,", Metastatic HER2+ Breast Cancer"
10050,"Multiple Myeloma, "
10052,
10053,
10054,
10057,
10059,
1006,", Breast Cancer"
10060,
10061,
10062,
10063,
10064,
10065,
10066,
10067,
10068,
10069,
1007,", Breast Cancer"
10070,
10072,
10073,
10074,
10075,
10076,
10077,
10078,
1008,", Breast Cancer"
1009,", Breast Cancer"
101,
1010,", Breast Cancer"
1011,", Breast Cancer"
1013,", Metastatic Triple-Negative Breast Cancer"
1014,", Breast Cancer"
1015,", Metastatic Triple-Negative Breast Cancer"
1016,", Breast Cancer"
1017,", Breast Cancer"
1018,", Breast Cancer"
1019,", Metastatic HER2+ Breast Cancer"
102,"Solid Tumor, "
1020,", Breast Cancer"
1022,", Breast Cancer"
1023,", Breast Cancer"
1024,", Breast Cancer"
1025,", Breast Cancer"
1027,", Breast Cancer"
1028,", Breast Cancer"
1029,", Breast Cancer"
103,
1030,", Breast Cancer"
1031,", Breast Cancer"
1032,", Breast Cancer"
1033,", Breast Cancer"
1035,", Breast Cancer"
1036,", Metastatic HER2+ Breast Cancer"
1037,", Breast Cancer"
1038,", Metastatic HER2+ Breast Cancer"
1039,"Solid Tumor, , Breast Cancer"
104,
1040,", Metastatic HER2+ Breast Cancer"
1041,", Metastatic HER2+ Breast Cancer"
1043,", Metastatic HER2+ Breast Cancer"
1044,", Breast Cancer"
1046,", Metastatic HER2+ Breast Cancer"
1047,", Breast Cancer"
1048,", Metastatic HER2+ Breast Cancer"
1049,"Solid Tumor, , Metastatic HER2+ Breast Cancer"
105,
1050,", Breast Cancer"
10500,"Solid Tumor, "
10501,"Solid Tumor, "
10502,"Solid Tumor, "
10504,
10505,"Lymphoma, "
10506,
10507,"Solid Tumor, "
10508,"Solid Tumor, "
10509,"Lymphoma, "
1051,", Breast Cancer"
10510,"Lymphoma, "
10511,"Lymphoma, "
10512,"Lymphoma, "
10513,
10514,
10515,
10516,"Solid Tumor, "
10517,"Solid Tumor, "
10518,"Lymphoma, "
10519,"Lymphoma, "
1052,", Breast Cancer"
10520,"Lymphoma, "
10521,
10523,"Solid Tumor, "
10524,"Solid Tumor, "
10525,"Solid Tumor, "
10526,"Solid Tumor, "
10527,"Solid Tumor, "
10528,
10529,
1053,", Breast Cancer"
10530,"Lymphoma, "
10531,"Lymphoma, , Hodgkin Lymphoma"
10532,"Acute Myeloid Leukemia, Lymphoma, "
10533,"Solid Tumor, "
10535,"Solid Tumor, "
10536,"Solid Tumor, "
10537,"Solid Tumor, "
10538,"Solid Tumor, "
10539,"Solid Tumor, "
1054,", Breast Cancer"
10540,"Solid Tumor, "
10541,"Solid Tumor, "
10542,"Solid Tumor, "
10543,"Solid Tumor, "
10545,
10546,
10547,
10548,
10549,
1055,", Breast Cancer"
10550,
10551,
10553,
10554,
10555,
10556,
10557,
10558,
10559,
1056,", Breast Cancer"
1057,", Breast Cancer"
1059,", Breast Cancer"
106,
1060,", Breast Cancer"
1061,", Breast Cancer"
1062,", Breast Cancer"
1063,", Breast Cancer"
1064,", Breast Cancer"
1065,", Breast Cancer"
1066,", Breast Cancer"
1067,", Breast Cancer"
1068,", Breast Cancer"
1069,", Breast Cancer"
107,"Solid Tumor, "
1070,", Breast Cancer"
1071,", Breast Cancer"
1072,", Metastatic Triple-Negative Breast Cancer"
1073,", Breast Cancer"
1074,", Breast Cancer"
1075,", Breast Cancer"
1076,", Breast Cancer"
1077,"Solid Tumor, , Breast Cancer"
1078,", Breast Cancer"
1079,", Breast Cancer"
108,
1080,", Breast Cancer"
1082,", Breast Cancer"
1084,", Breast Cancer"
1085,", Breast Cancer"
1086,", Breast Cancer"
1087,", Breast Cancer"
1088,", Breast Cancer"
1089,", Breast Cancer"
109,"Solid Tumor, "
1090,", Breast Cancer"
1091,", Breast Cancer"
1092,", Breast Cancer"
1093,", Breast Cancer"
1094,", Breast Cancer"
1095,", Breast Cancer"
1096,", Breast Cancer"
1097,", Breast Cancer"
1098,", Breast Cancer"
1099,", Breast Cancer"
11000,
11001,
11002,
11003,
11004,
11005,
11006,
11007,
11008,
11009,
11010,
11011,
11012,
11013,
11014,
11015,
11016,
11017,
11018,
11019,
11020,
11021,
11022,
11023,
11024,
11025,
11026,
11027,
11028,
11029,
11030,
11031,
11032,
11033,
11034,
11035,
11036,
11037,
11038,
11039,", Breast Cancer"
11040,
11041,
11042,
11500,
11501,
11502,
11503,"Gastroenterology Stromal Tumor, "
11504,
11505,
11506,
11507,
11508,"Gastroenterology Stromal Tumor, "
11509,
11510,
11511,
11512,
11513,
11514,
11515,
11516,
11517,
11518,
11519,
11520,
11521,
11522,
11523,
11524,
11525,
11526,
11527,
11528,
11529,
11530,
11531,
11532,"Gastroenterology Stromal Tumor, "
11533,"Gastroenterology Stromal Tumor, "
11534,"Gastroenterology Stromal Tumor, "
11535,"Gastroenterology Stromal Tumor, "
11536,"Gastroenterology Stromal Tumor, "
11537,"Gastroenterology Stromal Tumor, "
11538,"Gastroenterology Stromal Tumor, "
11539,"Fourth-Line Gastrointestinal Stromal Tumor, "
11540,"Gastroenterology Stromal Tumor, "
11541,
11542,"Solid Tumor, "
11543,
11544,
11545,
11546,
11547,", Ovarian Cancer"
11548,
11549,
11550,
11552,
11553,
11554,
11555,
11556,
11557,
11558,
11559,
11560,
11561,
11562,
11564,
11565,
12000,"Acute Myeloid Leukemia, "
12001,
12002,
12003,
12004,
12005,
12006,
12007,
12008,
12009,
12010,
12011,
12012,
12013,
12014,
12015,
12016,", Breast Cancer"
12017,", Breast Cancer"
12018,
12019,", Breast Cancer"
12020,", Prostate Cancer"
12021,
12022,
12023,
12024,
12025,
12026,
12027,
12028,"Solid Tumor, "
12029,", Breast Cancer"
12030,
12031,
12032,", Breast Cancer"
12034,
12035,
12036,
12037,
12038,", Non-Metastatic Castration Resistant Prostate Cancer"
12039,", Prostate Cancer"
12040,
12041,
12044,
12045,"Colon Cancer, "
12046,
12047,
12048,
12049,"Hepatocellular Carcinoma of Liver, "
12050,"Solid Tumor, "
12051,
12052,
12053,", Breast Cancer"
12054,
12055,
12056,", Breast Cancer"
12057,
12058,
12059,
12060,
12061,
12062,
12063,", Breast Cancer"
12065,", Ovarian Cancer"
12066,", Breast Cancer"
12068,", Hodgkin Lymphoma"
12069,", Breast Cancer"
12070,
12071,
12072,", Breast Cancer"
12073,", Breast Cancer"
12074,
12075,
12076,", Ovarian Cancer"
12077,
12078,
12079,
12080,
12081,
12082,
12083,
12084,
12085,
12086,
12087,
12088,
12089,
12090,"Solid Tumor, "
12091,
12092,
12093,
12094,
12095,
12096,
12097,", Prostate Cancer"
12098,", Breast Cancer"
12099,
12100,", Prostate Cancer"
12101,
12102,
12103,
12104,"Multiple Myeloma, "
12105,", Prostate Cancer, Breast Cancer"
12106,
12107,
12108,", Breast Cancer"
12109,
12110,
12111,
12112,
12113,
12114,", Breast Cancer"
12115,", Breast Cancer"
12116,
12117,
12118,
12119,
12120,
12121,", Breast Cancer"
12122,
12123,
1500,
1501,"Solid Tumor, "
1502,
1503,
1504,", Breast Cancer"
1505,", Prostate Cancer"
1506,", Breast & Ovarian Cancer"
1507,", Prostate Cancer"
1508,
1510,
1511,
1512,
1513,
1514,
1515,
1516,"Solid Tumor, Prostate Cancer, "
1517,
1518,", Prostate Cancer"
1519,
1520,", Breast Cancer"
1521,", Prostate Cancer"
1522,
1523,", Ovarian Cancer"
1524,
1525,
1526,", Breast Cancer"
1527,"Colon Cancer, "
1528,
1529,
1531,
1532,", Breast Cancer"
1533,", Breast Cancer"
1534,", Breast Cancer"
1535,
1536,
1537,", Breast Cancer"
1538,", Prostate Cancer"
1539,", Prostate Cancer"
1540,", Breast Cancer"
1541,
1542,
1543,
1544,", Breast Cancer"
1545,
1546,", Breast Cancer"
1547,", Breast Cancer"
1548,
1549,", Breast Cancer"
1550,
1551,", Colorectal Cancer"
1552,", Urothelial Cancer"
1553,", Breast Cancer"
1554,
1555,", Colorectal Cancer"
1556,", Breast Cancer"
1557,
1558,", Cervical Cancer"
1559,
1560,", Breast Cancer"
1561,", Ovarian Cancer"
1562,
1563,
1565,", Breast Cancer"
1566,
1567,
1568,
1569,", Breast Cancer"
1570,", Breast Cancer"
1571,", Colorectal Cancer"
1572,
1573,", Colorectal Cancer"
1574,
1575,", Breast & Ovarian Cancer"
1576,", Prostate Cancer"
1577,", Prostate Cancer"
1578,", Metastatic Prostate Cancer"
1579,
1580,
1581,
1582,", Breast & Ovarian Cancer"
1584,", Ovarian Cancer"
1585,", Ovarian Cancer"
1586,", Ovarian Cancer"
1588,", Ovarian Cancer"
1589,
1590,", Metastatic Prostate Cancer"
1591,", Prostate Cancer"
1592,
1593,
1594,", Breast & Ovarian Cancer"
1595,
2000,
2001,
2002,
2003,
2004,
2005,"Non Small Cell Lung Cancer, "
2006,
2007,
2008,
2009,
2010,
2011,
2012,
2013,
2014,
2015,", Prostate Cancer"
2016,
2017,", Breast Cancer"
2018,
2019,
2020,
2021,
2022,
2023,
2024,
2025,", Cervical Cancer"
2027,
2028,
2029,
2030,
2032,
2033,
2034,
2037,", Breast Cancer"
2039,
2040,
2041,
2042,
2043,", Breast Cancer"
2044,
2045,
2046,
2047,", Breast Cancer"
2048,"Non Small Cell Lung Cancer, "
2049,
2050,", Breast Cancer"
2051,
2052,
2053,
2054,
2055,"Solid Tumor, "
2057,
2058,
2059,
2060,
2061,
2062,
2063,", Prostate Cancer"
2064,
2065,
2066,
2067,
2068,
2069,"Stage III Non Small Cell Lung Cancer, "
2070,
2071,
2072,
2073,", Breast & Colorectal Cancer"
2074,
2075,
2076,"Non Small Cell Lung Cancer, "
2077,
2078,", Breast Cancer"
2079,
2080,
2081,"Solid Tumor, "
2082,
2083,
2084,
2085,
2500,
2501,
2502,
2503,
2504,
2505,
2506,
2507,
2508,
2509,
2510,
2511,
2512,
2513,
2514,
2515,
2516,
2517,
2518,
2519,
2520,
2521,
2522,
2523,
2524,
2525,", Breast Cancer"
2526,", Breast Cancer"
2527,", Metastatic HER2+ Breast Cancer"
2528,
2529,
2530,
2531,"Non Small Cell Lung Cancer, "
2532,
2533,
2534,
2535,
2536,
2537,
2538,
2539,
2540,
2541,
2542,
2543,
2544,
2545,
2546,
2547,
2548,
2549,
2550,
2551,
2552,
2553,
2554,
2555,
2556,
2557,
2558,
2559,
2560,
2561,
2562,
2563,
2564,
2565,
2566,
2568,
2569,
2570,
3000,"Solid Tumor, Prostate Cancer, "
3001,
3002,", Ovarian Cancer"
3003,"Solid Tumor, "
3004,
3005,"Solid Tumor, "
3006,", Colorectal Cancer"
3007,", Prostate Cancer"
3008,
3010,", Colorectal Cancer"
3011,"Non Small Cell Lung Cancer, "
3012,
3013,
3014,", Ovarian Cancer"
3015,
3016,"Solid Tumor, "
3017,", Ovarian & Colorectal Cancer"
3018,
3020,
3021,
3022,
3023,
3024,
3025,"Relapsed/Refractory Acute Myeloid Leukemia, "
3026,"Lymphoma, "
3027,
3028,", Non-Hodgkin Lymphoma"
3029,", Metastatic Castration Resistant Prostate Cancer"
3030,"Lymphoma, "
3031,
3032,"Solid Tumor, "
3033,", Breast Cancer"
3034,", Non-Hodgkin Lymphoma"
3035,
3036,
3037,"Stage IV Non Small Cell Lung Cancer, "
3038,"Solid Tumor, "
3039,"Solid Tumor, "
3040,
3041,"Solid Tumor, "
3043,
3044,
3045,
3046,"Non Small Cell Lung Cancer, "
3047,
3048,
3049,
3050,"Stage III Non Small Cell Lung Cancer, "
3051,"Non Small Cell Lung Cancer, "
3052,
3053,
3054,"Solid Tumor, "
3055,
3056,
3058,
3059,
3060,"MSI-H Solid Tumor, "
3061,
3062,
3063,"Solid Tumor, "
3064,
3065,"Solid Tumor, "
3066,
3067,
3068,
3069,
3070,
3071,"Solid Tumor, Metastatic Castration Resistant Prostate Cancer, "
3073,
3074,"Non Small Cell Lung Cancer, "
3075,", Metastatic Urothelial Carcinoma"
3076,
3077,
3078,
3079,"Hepatocellular Carcinoma of Liver, "
3080,"Non Small Cell Lung Cancer, "
3081,"First-Line Gastric Cancer, "
3082,
3083,
3084,"Non Small Cell Lung Cancer, "
3085,"Solid Tumor, "
3086,", Breast Cancer"
3087,
3088,", Breast Cancer"
3089,
3090,"Solid Tumor, "
3091,
3092,
3093,", Breast Cancer"
3094,
3095,"Non Small Cell Lung Cancer, "
3096,"Solid Tumor, "
3097,"Solid Tumor, "
3098,"Solid Tumor, "
3099,"Solid Tumor, "
3100,"Non Small Cell Lung Cancer, "
3101,"Solid Tumor, "
3102,
3103,
3104,"Solid Tumor, "
3105,"Solid Tumor, , Non-Hodgkin Lymphoma"
3106,"Non Small Cell Lung Cancer, "
3107,
3108,
3109,
3110,
3111,"Solid Tumor, "
3112,
3113,"Solid Tumor, "
3114,
3115,
3116,
3117,", Neoadjuvant Breast Cancer"
3118,"Non Small Cell Lung Cancer, "
3119,"Non Small Cell Lung Cancer, "
3120,"Non Small Cell Lung Cancer, "
3121,
3122,
3123,"Gastric Cancer, "
3124,
3125,
3127,
3128,
3130,"Non Small Cell Lung Cancer, "
3131,
3134,"Solid Tumor, "
3135,", Breast Cancer"
3136,
3137,
3138,", Colorectal Cancer"
3139,"Solid Tumor, "
3140,
3141,"Solid Tumor, "
3142,
3143,
3144,
3500,", Metastatic Castration Resistant Prostate Cancer"
3501,"Cholangio Carcinoma, "
3502,
3503,
3504,"Solid Tumor, "
3505,"Solid Tumor, "
3506,
3507,
3508,"Solid Tumor, "
3509,"Solid Tumor, "
3510,"Non Small Cell Lung Cancer, Solid Tumor, "
3511,"Non Small Cell Lung Cancer, Solid Tumor, , Colorectal Cancer"
3512,"Solid Tumor, "
3513,"Solid Tumor, Prostate Cancer, "
3514,"Solid Tumor, "
3515,
3516,", Colorectal Cancer"
3517,
3518,"First-Line Non Small Cell Lung Cancer, "
3519,
3520,"Solid Tumor, "
3522,
3523,"Solid Tumor, "
3524,
3525,
3526,", Breast Cancer"
3527,", Prostate Cancer"
3528,", Breast Cancer"
3529,
3530,
3531,"Hepatocellular Carcinoma of Liver, "
3532,
3533,
3534,", Breast Cancer"
3535,"Solid Tumor, "
3536,
3537,
3538,
3540,
3541,
3542,
3543,", Breast Cancer"
3544,
3545,
3546,
3547,
3548,", Colorectal Cancer"
3549,"Non Small Cell Lung Cancer, , Ovarian Cancer"
3550,"Solid Tumor, "
3551,", Breast Cancer"
3552,"Solid Tumor, Neuroendocrine Prostate Cancer, "
3553,
3555,"Lymphoma, Solid Tumor, "
3556,"Multiple Myeloma, "
3557,
3558,
3559,
3560,", Breast Cancer"
3561,", Breast Cancer"
3562,
3563,", Breast Cancer"
3564,
3565,", Breast Cancer"
3566,
3567,
3568,
3569,", Breast Cancer"
3570,", Breast Cancer"
3571,
3572,
3573,
3574,
3575,
3576,
3577,", Non-Metastatic Prostate Cancer"
3578,
3579,
3580,"Classical Hodgkin Lymphoma, "
3581,
3582,
3583,"Solid Tumor, Prostate Cancer, "
3584,"Non Small Cell Lung Cancer, "
3585,", Colorectal Cancer"
3586,"Solid Tumor, "
3587,"Solid Tumor, "
3588,
3589,"Solid Tumor, "
3590,"Solid Tumor, "
3591,
3592,"Solid Tumor, "
3593,"Solid Tumor, "
3594,"Medullary Thyroid Cancer, "
3595,
3596,
3597,
3598,
3599,
3600,
3601,"Acute Myeloid Leukemia, "
3602,
3603,"Solid Tumor, "
3604,", Breast & Ovarian Cancer"
3605,"Solid Tumor, "
3606,
3607,"Solid Tumor, "
3609,"Solid Tumor, "
3610,
3611,"Solid Tumor, "
3612,
3613,", Colorectal Cancer"
3614,
3615,
3616,
3617,
3618,"Solid Tumor, Castration Resistant Prostate Cancer, "
3619,
3620,
3621,
3622,
3623,
3624,
3625,
3626,
3627,
3628,", Prostate Cancer"
3629,", Prostate Cancer"
3630,
3631,
3632,
3633,", Prostate Cancer"
3634,
3635,
3637,", Colorectal Cancer"
3638,"Solid Tumor, "
3639,
3640,"Solid Tumor, "
3641,"Solid Tumor, , Myelodysplastic Syndromes"
3642,
3643,
4000,", Metastatic HER2+ Colorectal Cancer"
4001,", Colorectal Cancer"
4002,", Colorectal Cancer"
4003,"Colon Cancer, "
4004,"Cholangio Carcinoma, Colon Cancer, "
4005,", Colorectal Cancer"
4006,
4007,
4008,
4009,
4010,"Colon Cancer, "
4011,"Cholangio Carcinoma, Colon Cancer, "
4012,", Colorectal Cancer"
4013,"Cholangio Carcinoma, Colon Cancer, "
4014,
4015,", Colorectal Cancer"
4016,", Colorectal Cancer"
4017,", Colorectal Cancer"
4018,", Colorectal Cancer"
4019,"Solid Tumor, , Colorectal Cancer"
4020,
4021,", Colorectal Cancer"
4022,", Colorectal Cancer"
4023,", Colorectal Cancer"
4024,", Colorectal Cancer"
4025,", Colorectal Cancer"
4026,
4027,", Colorectal Cancer"
4028,", Colorectal Cancer"
4029,", Colorectal Cancer"
4030,
4031,", Colorectal Cancer"
4032,", Colorectal Cancer"
4034,", Colorectal Cancer"
4035,
4036,", Colorectal Cancer"
4038,", Colorectal Cancer"
4039,", Colorectal Cancer"
4040,", Colorectal Cancer"
4041,", Colorectal Cancer"
4042,
4043,", Colorectal Cancer"
4044,"Solid Tumor, , Colorectal Cancer"
4045,
4046,", Colorectal Cancer"
4047,", Colorectal Cancer"
4048,", Colorectal Cancer"
4049,"Colon Cancer, "
4050,", Colorectal Cancer"
4051,
4052,
4053,
4054,
4055,
4056,
4058,
4059,
4060,"Colon Cancer, "
4061,", Colorectal Cancer"
4062,", Colorectal Cancer"
4063,"Colon Cancer, "
4064,", Colorectal Cancer"
4065,"Colon Cancer, "
4066,", Colorectal Cancer"
4067,", Colorectal Cancer"
4068,"Colon Cancer, "
4069,"Colon Cancer, "
4070,", Colorectal Cancer"
4071,", Colorectal Cancer"
4072,
4073,
4074,
4075,"Colon Cancer, "
4076,"Colon Cancer, "
4077,", Colorectal Cancer"
4079,", Colorectal Cancer"
4080,", Colorectal Cancer"
4081,", Colorectal Cancer"
4082,", Colorectal Cancer"
4083,", Colorectal Cancer"
4084,", Colorectal Cancer"
4085,", Colorectal Cancer"
4086,", Colorectal Cancer"
4088,", Colorectal Cancer"
4089,", Colorectal Cancer"
4090,", Colorectal Cancer"
4092,
4093,", Colorectal Cancer"
4094,", Colorectal Cancer"
4095,", Colorectal Cancer"
4096,", Colorectal Cancer"
4097,", Colorectal Cancer"
4098,
4099,"Colon Cancer, , Colorectal Cancer"
4100,
4101,
4102,
4103,"Colon Cancer, "
4104,"Colon Cancer, "
4105,"Colon Cancer, "
4106,", Colorectal Cancer"
4107,
4108,", Colorectal Cancer"
4109,"Colon Cancer, "
4110,"Colon Cancer, "
4111,
4112,", Colorectal Cancer"
4113,
4500,"Gastric Cancer, "
4501,"Gastric Cancer, "
4502,"Gastric Cancer, "
4503,"Gastric Cancer, "
4504,", Pancreatic Ductal Adenocarcinoma"
4505,
4506,"First-Line Hepatocellular carcinoma, "
4507,"Second-Line Hepatocellular carcinoma, "
4508,"Hepatocellular Carcinoma of Liver, "
4509,"Gastric Cancer, "
4510,"Gastric Cancer, "
4511,"Esophageal Squamous Cell Carcinoma, Gastric Cancer, "
4512,"Gastric Cancer, "
4513,"Gastroesophageal Junction Cancer, Gastric Cancer, "
4514,"Gastric Cancer, "
4515,
4516,", Pancreatic Ductal Adenocarcinoma"
4518,"Hepatocellular Carcinoma of Liver, "
4519,"Hepatocellular Carcinoma of Liver, "
4520,
4521,"Gastric Cancer, "
4522,"Esophageal Squamous Cell Carcinoma, Gastric Cancer, "
4523,"Gastric Cancer, "
4524,"Gastric Cancer, "
4525,"Gastric Cancer, "
4526,"Gastric Cancer, "
4527,"Gastric Cancer, "
4528,"Gastric Cancer, "
4529,"Gastric Cancer, "
4530,"Gastric Cancer, "
4531,"Gastric Cancer, Esophageal Squamous Cell Carcinoma, "
4532,
4533,"Gastric Cancer, "
4534,"Gastric Cancer, "
4535,"Gastric Cancer, "
4536,"Gastric Cancer, "
4537,"Gastric Cancer, "
4538,"Gastric Cancer, "
4539,
4540,"Gastric Cancer, , Pancreatic Ductal Adenocarcinoma"
4541,"Gastric Cancer, "
4543,
4544,"Gastric Cancer, "
4545,"Gastric Cancer, "
4546,"Gastric Cancer, "
4547,"Gastric Cancer, "
4548,"Gastric Cancer, "
4549,"Gastric Cancer, "
4550,"Gastric Cancer, "
4551,"Gastric Cancer, "
4553,"Multiple Myeloma, Gastric Cancer, "
4554,"Gastric Cancer, "
4556,"Gastric Cancer, "
4557,"Gastric Cancer, "
4558,"Gastric Cancer, "
4559,"Gastric Cancer, "
4560,"Gastric Cancer, "
4561,"Gastric Cancer, "
4562,"Gastric Cancer, "
4563,"Gastric Cancer, "
4564,"Esophageal Squamous Cell Carcinoma, Gastric Cancer, "
4565,"Esophageal Squamous Cell Carcinoma, Gastric Cancer, "
4566,"First-Line Gastric Cancer, "
4567,"Gastric Cancer, "
4568,"Gastric Cancer, "
4569,"Gastric Cancer, "
4570,"Gastric Cancer, "
4571,"Gastric Cancer, "
4572,"Gastroesophageal Junction Cancer, "
4574,"Hepatocellular Carcinoma of Liver, "
4575,"Hepatocellular Carcinoma of Liver, "
4576,
4577,"Hepatocellular Carcinoma of Liver, "
4578,"Hepatocellular Carcinoma of Liver, "
4579,
4580,"Hepatocellular Carcinoma of Liver, "
4581,"Hepatocellular Carcinoma of Liver, "
4582,
4583,"Cholangio Carcinoma, "
4584,"Hepatocellular Carcinoma of Liver, "
4585,"First-Line Hepatocellular carcinoma, "
4586,"Hepatocellular Carcinoma of Liver, "
4587,"Hepatocellular Carcinoma of Liver, "
4588,
4589,
4590,"Hepatocellular Carcinoma of Liver, "
4591,"Cholangio Carcinoma, "
4592,"First-Line Hepatocellular carcinoma, "
4593,
4594,"Hepatocellular Carcinoma of Liver, "
4595,"Hepatocellular Carcinoma of Liver, "
4596,"Hepatocellular Carcinoma of Liver, "
4597,
4598,
4599,"Hepatocellular Carcinoma of Liver, "
4600,"Hepatocellular Carcinoma of Liver, "
4601,"Hepatocellular Carcinoma of Liver, "
4602,", Colorectal Cancer"
4603,
4604,
4605,
4606,
4607,
4608,
4609,
4610,
4611,
4612,
4613,
4614,
4615,
4617,
4618,
4619,
4620,
4621,
4622,
4623,
4624,
4625,
4626,
4628,
4629,
4630,
4631,", Pancreatic Ductal Adenocarcinoma"
4632,
4633,", Pancreatic Ductal Adenocarcinoma"
4634,
4635,
4636,
4637,"Solid Tumor, "
4638,", Pancreatic Ductal Adenocarcinoma"
4639,
4640,
4641,
4642,
4643,", Colorectal Cancer"
4644,"Hepatocellular Carcinoma of Liver, "
4645,
500,", Breast Cancer"
5000,", Muscle-Invasive Urothelial Carcinoma"
5001,
5002,
5003,
5004,
5005,
5006,
5007,
5008,
5009,
501,", Breast Cancer"
5010,
5011,", Metastatic Urothelial Carcinoma"
5012,", Muscle-Invasive Urothelial Carcinoma"
5013,", Urothelial Cancer"
5014,", Locally Advanced or Metastatic Urothelial Cancer"
5015,", Locally Advanced or Metastatic Urothelial Cancer"
5017,", Metastatic Urothelial Carcinoma"
5018,
5019,", Locally Advanced Urothelial Cancer"
502,", Breast Cancer"
5020,", Urothelial Cancer"
5021,
5022,", Urothelial Cancer"
5023,
5024,
5025,
5026,", Urothelial Cancer"
5027,", Metastatic Urothelial Carcinoma"
5028,", Muscle-Invasive Urothelial Carcinoma"
5029,", Metastatic Urothelial Carcinoma"
503,", Breast Cancer"
5030,", Muscle-Invasive Urothelial Carcinoma"
5031,", Urothelial Cancer"
5032,", Locally Advanced or Metastatic Urothelial Cancer"
5033,", Metastatic Urothelial Carcinoma"
5034,
5035,
5036,
5037,", Metastatic Urothelial Carcinoma"
5038,", Metastatic Urothelial Carcinoma"
5039,", Metastatic Urothelial Carcinoma"
504,", Breast Cancer"
5040,", Metastatic Urothelial Carcinoma"
5041,", Urothelial Cancer"
5042,", Urothelial Cancer"
5043,", Muscle-Invasive Urothelial Carcinoma"
5044,", Locally Advanced or Metastatic Urothelial Cancer"
5045,", Urothelial Cancer"
5046,", Urothelial Cancer"
5047,", Locally Advanced Urothelial Cancer"
5048,", Metastatic Urothelial Carcinoma"
5049,", Muscle-Invasive Urothelial Carcinoma"
505,", Neoadjuvant Breast Cancer"
5050,", Metastatic Urothelial Carcinoma"
5051,
5052,
5053,
5055,
5056,
5057,
5058,
5059,
506,", Breast Cancer"
5060,
5061,
5062,
5063,
5064,
5065,
5066,
5067,
5068,
5069,
507,", Breast Cancer"
5070,
5071,
5072,
5073,
5074,
5075,
5076,
5077,
5078,
5079,
508,", Breast Cancer"
5080,
5081,
5082,
5083,
5084,
5085,", Urothelial Cancer"
5086,", Metastatic Urothelial Carcinoma"
5087,
5088,
5089,
509,", Breast Cancer"
510,", Breast Cancer"
511,", Breast Cancer"
512,", Breast Cancer"
513,", Breast Cancer"
514,", Breast Cancer"
515,", Neoadjuvant Breast Cancer"
516,", Breast Cancer"
517,", Neoadjuvant Breast Cancer"
518,", Breast Cancer"
519,", Breast Cancer"
520,", Breast Cancer"
521,", Breast Cancer"
522,", Breast Cancer"
523,", Breast Cancer"
524,", Breast Cancer"
525,", Breast Cancer"
526,", Breast Cancer"
527,", Breast Cancer"
528,", Breast Cancer"
529,", Breast Cancer"
530,", Breast Cancer"
531,", Breast Cancer"
532,", Breast Cancer"
533,", Breast Cancer"
534,", Breast Cancer"
535,", Breast Cancer"
536,", Breast Cancer"
537,", Breast Cancer"
538,", Breast Cancer"
539,", Breast Cancer"
540,", Breast Cancer"
541,", Breast Cancer"
542,", Breast Cancer"
545,", Breast Cancer"
546,", Breast Cancer"
548,", Breast Cancer"
549,", Breast Cancer"
550,", Breast Cancer"
5500,", Metastatic Castration Resistant Prostate Cancer"
5501,", Biochemically Recurrent Prostate Cancer"
5502,", Prostate Cancer"
5503,", Prostate Cancer"
5504,", Prostate Cancer"
5505,", Advanced Prostate Cancer"
5506,", Metastatic Prostate Cancer"
5507,", Metastatic Castration Resistant Prostate Cancer"
5508,", Metastatic Castration Resistant Prostate Cancer"
5509,", Prostate Cancer"
5510,", Prostate Cancer"
5511,", Prostate Cancer"
5512,
5513,", Prostate Cancer"
5514,", Non-Metastatic Castration Resistant Prostate Cancer"
5515,", Non-Metastatic Castration Resistant Prostate Cancer"
5516,", Non-Metastatic Castration Resistant Prostate Cancer"
5517,", Metastatic Castration Resistant Prostate Cancer"
5518,", Metastatic Castration Resistant Prostate Cancer"
552,", Breast Cancer"
5520,", Metastatic Castration Resistant Prostate Cancer"
5521,", Non-Metastatic Castration Resistant Prostate Cancer"
5522,", Prostate Cancer"
5523,", Metastatic Prostate Cancer"
5524,", Prostate Cancer"
5525,", Metastatic Castration Resistant Prostate Cancer"
5526,", Metastatic Castration Resistant Prostate Cancer"
5527,", Metastatic Castration Resistant Prostate Cancer"
5528,", Prostate Cancer"
5529,", Metastatic Prostate Cancer"
553,", Breast Cancer"
5530,", Prostate Cancer"
5531,", Castration Resistant Prostate Cancer"
5532,", Metastatic Prostate Cancer"
5533,", Metastatic Castration Resistant Prostate Cancer"
5534,", Advanced Prostate Cancer"
5535,", Metastatic Prostate Cancer"
5536,", Prostate Cancer"
5537,", Metastatic Prostate Cancer"
5538,", Metastatic Castration Resistant Prostate Cancer"
5539,", Metastatic Castration Resistant Prostate Cancer"
554,", Breast Cancer"
5540,", Castration Resistant Prostate Cancer"
5541,", Advanced Prostate Cancer, Non-Metastatic Castration Resistant Prostate Cancer"
5542,", Metastatic Castration Resistant Prostate Cancer"
5543,", Metastatic Castration Resistant Prostate Cancer"
5544,", Metastatic Castration Resistant Prostate Cancer"
5545,", Metastatic Castration Resistant Prostate Cancer"
5546,", Castration Resistant Prostate Cancer"
5547,", Metastatic Prostate Cancer"
5548,", Metastatic Castration Resistant Prostate Cancer"
5549,", Metastatic Castration Resistant Prostate Cancer"
555,", Breast Cancer"
5550,", Metastatic Castration Resistant Prostate Cancer"
5551,", Metastatic Castration Resistant Prostate Cancer"
5552,", Metastatic Castration Resistant Prostate Cancer"
5553,", Prostate Cancer"
5554,", Metastatic Castration Resistant Prostate Cancer"
5555,", Prostate Cancer"
5556,", Biochemically Recurrent Prostate Cancer"
5557,", Metastatic Castration Resistant Prostate Cancer"
5558,", Metastatic Castration Resistant Prostate Cancer"
5559,", Metastatic Castration Resistant Prostate Cancer"
556,", Breast Cancer"
5560,", Metastatic Castration Resistant Prostate Cancer"
5561,", Non-Metastatic Castration Resistant Prostate Cancer"
5562,", Prostate Cancer"
5563,", Castration Resistant Prostate Cancer"
5564,", Metastatic Castration Resistant Prostate Cancer"
5565,", Metastatic Castration Resistant Prostate Cancer"
5566,", Metastatic Castration Resistant Prostate Cancer"
5567,"Solid Tumor, Advanced Prostate Cancer, "
5568,", Metastatic Prostate Cancer"
5569,", Metastatic Castration Resistant Prostate Cancer"
557,", Breast Cancer"
5570,", Metastatic Castration Resistant Prostate Cancer"
5571,", Metastatic Castration Resistant Prostate Cancer"
5572,", Metastatic Castration Resistant Prostate Cancer"
5573,", Metastatic Prostate Cancer"
5574,", Prostate Cancer"
5575,", Metastatic Castration Resistant Prostate Cancer"
5576,", Metastatic Castration Resistant Prostate Cancer"
5577,", Metastatic Castration Resistant Prostate Cancer"
5578,", Metastatic Castration Resistant Prostate Cancer"
5579,", Prostate Cancer"
558,", Breast Cancer"
5580,", Prostate Cancer"
5582,", Prostate Cancer"
5583,", Non-Metastatic Castration Resistant Prostate Cancer"
5584,", Prostate Cancer"
5585,
560,", Breast Cancer"
5602,", Advanced Prostate Cancer"
561,", Neoadjuvant Breast Cancer"
562,", Breast Cancer"
563,", Breast Cancer"
564,", Breast Cancer"
565,", Breast Cancer"
566,", Breast Cancer"
567,", Breast Cancer"
568,", Breast Cancer"
569,", Breast Cancer"
570,", Breast Cancer"
571,", Metastatic Triple-Negative Breast Cancer"
572,", Breast Cancer"
573,", Breast Cancer"
574,", Breast Cancer"
575,", Breast Cancer"
576,", Breast Cancer"
577,", Breast Cancer"
578,", Neoadjuvant Breast Cancer"
579,", Breast Cancer"
580,", Neoadjuvant Breast Cancer"
581,", Neoadjuvant Breast Cancer"
582,", Neoadjuvant Breast Cancer"
583,", Neoadjuvant Breast Cancer"
584,", Breast Cancer"
585,", Breast Cancer"
586,", Breast Cancer"
587,", Neoadjuvant Breast Cancer"
588,", Breast Cancer"
589,", Breast Cancer"
590,", Neoadjuvant Breast Cancer"
591,", Breast Cancer"
592,", Neoadjuvant Breast Cancer"
593,", Breast Cancer"
594,", Neoadjuvant Breast Cancer"
595,", Neoadjuvant Breast Cancer"
6000,", Ovarian Cancer"
6001,", Ovarian Cancer"
6002,", Ovarian Cancer"
6003,", Ovarian Cancer"
6004,", Ovarian Cancer"
6005,", Ovarian Cancer"
6006,", Cervical Cancer"
6007,", Cervical Cancer"
6009,", Ovarian Cancer"
6010,", Ovarian Cancer"
6011,", Ovarian Cancer"
6012,", Ovarian Cancer"
6013,", Ovarian Cancer"
6014,", Ovarian Cancer"
6015,", Ovarian Cancer"
6016,", Ovarian Cancer"
6017,", Ovarian Cancer"
6018,", Ovarian Cancer"
6019,", Cervical Cancer"
6021,", Cervical Cancer"
6022,
6023,", Ovarian Cancer"
6025,", Ovarian Cancer"
6027,", Cervical Cancer"
6028,", Cervical Cancer"
6029,
6030,
6031,", Cervical Cancer"
6032,", Cervical Cancer"
6033,
6034,", Cervical Cancer"
6035,", Cervical Cancer"
6036,", Cervical Cancer"
6037,", Cervical Cancer"
6038,", Ovarian Cancer"
6039,", Ovarian Cancer"
6040,", Ovarian Cancer"
6041,", Ovarian Cancer"
6042,", Ovarian Cancer"
6043,", Ovarian Cancer"
6044,", Ovarian Cancer"
6045,", Ovarian Cancer"
6046,", Ovarian Cancer"
6047,"Solid Tumor, "
6048,", Ovarian Cancer"
6049,", Ovarian Cancer"
6050,
6051,", Ovarian Cancer"
6052,", Ovarian Cancer"
6053,", Ovarian Cancer"
6054,
6055,", Ovarian Cancer"
6056,", Ovarian Cancer"
6057,", Ovarian Cancer"
6058,", Ovarian Cancer"
6059,", Ovarian Cancer"
6060,", Ovarian Cancer"
6061,", Ovarian Cancer"
6062,
6063,", Ovarian Cancer"
6064,", Ovarian Cancer"
6066,", Ovarian Cancer"
6067,", Ovarian Cancer"
6068,", Ovarian Cancer"
6069,
6070,", Ovarian Cancer"
6071,", Ovarian Cancer"
6072,", Ovarian Cancer"
6073,", Ovarian Cancer"
6074,
6075,", Ovarian Cancer"
6076,
6077,", Ovarian Cancer"
6078,", Ovarian Cancer"
6079,", Ovarian Cancer"
6080,", Ovarian Cancer"
6081,
6082,
6083,
6084,
6085,
6086,
6087,
6088,
6089,
6090,
6091,
6092,
6093,
6500,
6501,
6502,
6503,
6504,", Urothelial Cancer"
6505,
6506,
6507,
6508,
6509,
6511,
6512,
6513,"Medullary Thyroid Cancer, "
6514,
6515,
6516,
6517,
6518,
6519,
6521,
6522,
6523,
6524,
6526,"Medullary Thyroid Cancer, "
6527,"Medullary Thyroid Cancer, "
6529,
6530,
6531,
6532,
6533,
6534,
6535,
6536,
6537,
6538,
6539,
6540,
6541,
6542,
6543,
6544,"Solid Tumor, "
6545,
6546,
6548,
6549,
6551,
6552,
6553,
6554,
6556,
6557,
6558,
6559,
6560,
6561,
6562,
6563,
6564,
6565,
6566,
6567,
6568,
6569,
6573,
6574,
6575,
6576,
6577,
6578,
6579,
6580,
6582,
6583,
6584,
6585,
6586,"Classical Hodgkin Lymphoma, "
6587,
6588,
7000,", Prostate Cancer"
7001,", Breast Cancer"
7002,
7004,
7005,
7006,
7007,
7008,
7009,
7010,", Colorectal Cancer"
7011,
7013,
7014,
7015,", Breast Cancer"
7016,", Breast Cancer"
7017,
7018,
7019,
7020,
7021,
7022,
7023,
7024,", Cervical Cancer"
7025,
7026,
7027,", Breast Cancer"
7028,", Breast Cancer"
7029,
7030,
7031,", Prostate Cancer"
7032,"Colon Cancer, "
7033,", Breast Cancer"
7035,
7037,"Solid Tumor, "
7038,
7039,
7040,
7041,
7042,
7043,"Stage III Non Small Cell Lung Cancer, "
7044,
7046,"Stage III Non Small Cell Lung Cancer, "
7047,
7048,", Colorectal Cancer"
7049,
7050,
7051,", Breast Cancer"
7052,
7053,
7054,"Non Small Cell Lung Cancer, "
7055,
7056,", Breast Cancer"
7057,
7059,
7060,
7061,
7062,
7063,", Breast Cancer"
7064,
7065,
7066,"Gastric Cancer, "
7067,"Colon Cancer, "
7068,
7070,"Non Small Cell Lung Cancer, "
7071,
7072,
7073,
7074,
7075,
7076,", Colorectal Cancer"
7077,
7078,
7079,
7080,
7081,", Hodgkin Lymphoma"
7082,
7083,
7084,"Non Small Cell Lung Cancer, "
7085,
7500,
7501,"Acute Myeloid Leukemia, "
7502,
7503,
7505,
7506,"Acute Myeloid Leukemia, , Myelodysplastic Syndromes"
7507,"Acute Myeloid Leukemia, , Myelodysplastic Syndromes & Acute Myeloid Leukemia"
7508,"Relapsed/Refractory Acute Myeloid Leukemia, , Acute Myeloid Leukemia"
7509,"Acute Myeloid Leukemia, , Myelodysplastic Syndromes & Acute Myeloid Leukemia"
7510,"Acute Myeloid Leukemia, "
7511,"Acute Myeloid Leukemia, "
7512,
7513,"Cholangio Carcinoma, Acute Myeloid Leukemia, "
7514,"Relapsed/Refractory Acute Myeloid Leukemia, , Acute Myeloid Leukemia"
7515,"Acute Myeloid Leukemia, "
7516,"Acute Myeloid Leukemia, , Myelodysplastic Syndromes & Acute Myeloid Leukemia"
7517,
7518,", Myelodysplastic Syndromes"
7519,"Acute Myeloid Leukemia, , Myelodysplastic Syndromes & Acute Myeloid Leukemia"
7520,"Acute Myeloid Leukemia, "
7521,"Relapsed/Refractory Acute Myeloid Leukemia, , Acute Myeloid Leukemia"
7522,"Acute Myeloid Leukemia, "
7523,
7524,
7525,"Acute Myeloid Leukemia, "
7526,"Acute Myeloid Leukemia, , Myelodysplastic Syndromes & Acute Myeloid Leukemia"
7527,"Acute Myeloid Leukemia, , Myelodysplastic Syndromes & Acute Myeloid Leukemia"
7528,"Acute Myeloid Leukemia, "
7529,"Acute Myeloid Leukemia, "
7530,"Acute Myeloid Leukemia, "
7531,"Acute Myeloid Leukemia, "
7532,"Acute Myeloid Leukemia, "
7533,"Acute Myeloid Leukemia, "
7534,"Acute Myeloid Leukemia, "
7535,"Acute Myeloid Leukemia, "
7536,"Relapsed/Refractory Acute Myeloid Leukemia, , Acute Myeloid Leukemia"
7537,"Acute Myeloid Leukemia, "
7538,"Acute Myeloid Leukemia, "
7539,"Acute Myeloid Leukemia, "
7540,"Acute Myeloid Leukemia, "
7541,
7542,
7543,
7544,
7545,
7546,
7547,"Acute Myeloid Leukemia, Multiple Myeloma, "
7548,
7549,
7550,
7551,
7552,"Acute Myeloid Leukemia, , Myelodysplastic Syndromes & Acute Myeloid Leukemia"
7553,"Acute Myeloid Leukemia, , Myelodysplastic Syndromes & Acute Myeloid Leukemia"
7554,", Myelodysplastic Syndromes"
7555,", Myelodysplastic Syndromes"
7556,", Myelodysplastic Syndromes"
7557,", Myelodysplastic Syndromes"
7558,
7559,
7560,
8000,"Lymphoma, "
8001,"Lymphoma, "
8002,"Lymphoma, "
8003,"Lymphoma, "
8004,"Lymphoma, "
8005,"Relapsed/Refractory Classical Hodgkin Lymphoma, , Relapsed / Refractory Classic Hodgkin Lymphoma"
8006,"Lymphoma, "
8007,"Lymphoma, "
8008,"Lymphoma, , Non-Hodgkin Lymphoma"
8009,"Lymphoma, , Non-Hodgkin Lymphoma"
8011,"Lymphoma, "
8012,"Lymphoma, "
8013,"Relapsed/Refractory Classical Hodgkin Lymphoma, , Relapsed / Refractory Classic Hodgkin Lymphoma"
8014,"Lymphoma, , Hodgkin Lymphoma"
8015,"Lymphoma, "
8016,"Lymphoma, "
8017,"Lymphoma, "
8018,"Lymphoma, , Peripheral T-Cell Lymphoma"
8019,"Lymphoma, "
8020,"Lymphoma, "
8021,"Lymphoma, "
8022,"Lymphoma, "
8023,"Lymphoma, "
8024,"Lymphoma, "
8025,"Lymphoma, "
8026,"Lymphoma, "
8027,"Lymphoma, "
8028,"Lymphoma, "
8029,"Lymphoma, , Hodgkin Lymphoma"
8030,"Lymphoma, , Hodgkin Lymphoma"
8031,"Classical Hodgkin Lymphoma, Lymphoma, "
8032,"Lymphoma, , Hodgkin Lymphoma"
8033,"Relapsed/Refractory Classical Hodgkin Lymphoma, , Relapsed / Refractory Classic Hodgkin Lymphoma"
8034,"Lymphoma, "
8035,"Lymphoma, "
8036,"Lymphoma, "
8037,"Lymphoma, "
8038,"Lymphoma, "
8039,"Lymphoma, "
8040,"Lymphoma, , Non-Hodgkin Lymphoma"
8041,"Lymphoma, "
8042,"Lymphoma, "
8043,"Lymphoma, "
8044,"Lymphoma, "
8045,"Lymphoma, "
8046,"Lymphoma, "
8047,"Lymphoma, "
8048,"Lymphoma, , Anaplastic Large Cell Lymphoma"
8049,"Lymphoma, , Peripheral T-Cell Lymphoma"
8050,"Relapsed/Refractory Natural Killer T cell lymphoma, "
8051,"Lymphoma, "
8052,"Lymphoma, "
8053,"Lymphoma, "
8054,"Lymphoma, "
8055,"Lymphoma, "
8056,"Lymphoma, "
8057,"Lymphoma, "
8058,"Lymphoma, "
8059,"Lymphoma, "
8060,"Lymphoma, "
8061,"Lymphoma, "
8062,"Lymphoma, "
8063,"Lymphoma, Classical Hodgkin Lymphoma, "
8064,"Lymphoma, "
8065,"Lymphoma, "
8500,"Relapsed/Refractory Multiple Myeloma, , Relapsed / Refractory Multiple Myeloma"
8501,"Multiple Myeloma, "
8502,"Relapsed/Refractory Multiple Myeloma, , Relapsed / Refractory Multiple Myeloma"
8503,"Relapsed/Refractory Multiple Myeloma, , Relapsed / Refractory Multiple Myeloma"
8504,"Relapsed/Refractory Multiple Myeloma, , Relapsed / Refractory Multiple Myeloma"
8505,"Relapsed/Refractory Multiple Myeloma, , Relapsed / Refractory Multiple Myeloma"
8506,"Multiple Myeloma, "
8507,"Multiple Myeloma, "
8508,"Multiple Myeloma, "
8509,"Relapsed/Refractory Multiple Myeloma, , Relapsed / Refractory Multiple Myeloma"
8510,"Relapsed/Refractory Multiple Myeloma, , Relapsed / Refractory Multiple Myeloma"
8511,"Relapsed/Refractory Multiple Myeloma, , Relapsed / Refractory Multiple Myeloma"
8512,"Multiple Myeloma, "
8513,"Multiple Myeloma, "
8514,"Multiple Myeloma, "
8515,"Multiple Myeloma, "
8516,
8517,
8518,"Multiple Myeloma, "
8519,"Relapsed/Refractory Multiple Myeloma, , Relapsed / Refractory Multiple Myeloma"
8520,"Multiple Myeloma, "
8521,"Multiple Myeloma, "
8522,"Multiple Myeloma, "
8523,"Multiple Myeloma, "
8524,"Multiple Myeloma, "
8525,"Multiple Myeloma, , Relapsed / Refractory Multiple Myeloma"
8526,"Relapsed/Refractory Multiple Myeloma, , Relapsed / Refractory Multiple Myeloma"
8527,"Multiple Myeloma, "
8528,"Multiple Myeloma, "
8529,"Multiple Myeloma, "
8530,"Relapsed/Refractory Multiple Myeloma, , Relapsed / Refractory Multiple Myeloma"
8531,"Relapsed/Refractory Multiple Myeloma, , Relapsed / Refractory Multiple Myeloma"
8532,"Multiple Myeloma, "
8533,"Multiple Myeloma, "
8534,"Multiple Myeloma, "
8535,"Multiple Myeloma, "
8536,"Relapsed/Refractory Multiple Myeloma, , Relapsed / Refractory Multiple Myeloma"
8537,"Relapsed/Refractory Multiple Myeloma, , Relapsed / Refractory Multiple Myeloma"
8538,"Multiple Myeloma, "
8539,"Multiple Myeloma, , Relapsed / Refractory Multiple Myeloma"
8540,"Multiple Myeloma, "
8541,"Relapsed/Refractory Multiple Myeloma, , Relapsed / Refractory Multiple Myeloma"
8542,"Multiple Myeloma, "
8543,"Multiple Myeloma, "
8544,"Multiple Myeloma, "
8545,
8546,
8547,"Relapsed/Refractory Multiple Myeloma, , Relapsed / Refractory Multiple Myeloma"
8548,
8549,
8550,
9000,
9001,
9002,
9003,
9004,
9005,"Non Small Cell Lung Cancer, "
9006,
9007,
9008,"Stage III Non Small Cell Lung Cancer, "
9009,"Non Small Cell Lung Cancer, "
9010,"Stage III Non Small Cell Lung Cancer, "
9011,"Non Small Cell Lung Cancer, "
9012,"Non Small Cell Lung Cancer, "
9013,
9014,"Non Small Cell Lung Cancer, "
9016,"Non Small Cell Lung Cancer, "
9017,
9018,
9019,
9020,
9022,"Non Small Cell Lung Cancer, "
9023,"Non Small Cell Lung Cancer, "
9024,
9025,"Non Small Cell Lung Cancer, "
9026,"Stage III Non Small Cell Lung Cancer, "
9027,"Non Small Cell Lung Cancer, "
9030,"Non Small Cell Lung Cancer, "
9031,"Non Small Cell Lung Cancer, "
9032,"Stage III Non Small Cell Lung Cancer, "
9033,"Stage III Non Small Cell Lung Cancer, "
9034,"Non Small Cell Lung Cancer, "
9035,"Non Small Cell Lung Cancer, "
9036,"Non Small Cell Lung Cancer, "
9037,"Non Small Cell Lung Cancer, "
9038,"Non Small Cell Lung Cancer, "
9039,"Non Small Cell Lung Cancer, "
9040,"Non Small Cell Lung Cancer, "
9041,"Non Small Cell Lung Cancer, "
9042,"Non Small Cell Lung Cancer, "
9043,"Stage III Non Small Cell Lung Cancer, "
9044,"Non Small Cell Lung Cancer, "
9045,"Stage III Non Small Cell Lung Cancer, "
9046,"Non Small Cell Lung Cancer, "
9047,"Non Small Cell Lung Cancer, "
9048,"Stage III Non Small Cell Lung Cancer, "
9049,"Stage III Non Small Cell Lung Cancer, "
9050,"Non Small Cell Lung Cancer, "
9051,"Non Small Cell Lung Cancer, "
9052,
9053,
9054,"Multiple Myeloma, "
9055,"Solid Tumor, "
9056,
9057,
9058,
9059,
9060,
9061,
9062,
9063,
9064,
9065,"Solid Tumor, "
9066,
9067,
9068,
9069,
9071,
9072,
9073,
9074,
9500,"First-Line Non Small Cell Lung Cancer, "
9501,"Stage IV Non Small Cell Lung Cancer, "
9502,"Stage IV Non Small Cell Lung Cancer, "
9503,"First-Line Non Small Cell Lung Cancer, "
9504,"Non Small Cell Lung Cancer, "
9505,"Non Small Cell Lung Cancer, "
9506,"Non Small Cell Lung Cancer, "
9507,"First-Line Non Small Cell Lung Cancer, "
9508,"First-Line Non Small Cell Lung Cancer, "
9509,"Non Small Cell Lung Cancer, "
9510,"Non Small Cell Lung Cancer, "
9511,"Non Small Cell Lung Cancer, "
9512,"Non Small Cell Lung Cancer, "
9513,"Non Small Cell Lung Cancer, "
9514,"Non Small Cell Lung Cancer, "
9515,"Non Small Cell Lung Cancer, "
9516,"Non Small Cell Lung Cancer, "
9517,"Non Small Cell Lung Cancer, "
9518,"Non Small Cell Lung Cancer, "
9519,"Non Small Cell Lung Cancer, "
9520,"Non Small Cell Lung Cancer, "
9521,"First-Line Non Small Cell Lung Cancer, "
9523,"Non Small Cell Lung Cancer, "
9524,"Non Small Cell Lung Cancer, "
9525,"First-Line Non Small Cell Lung Cancer, "
9526,
9527,"Non Small Cell Lung Cancer, "
9528,"Non Small Cell Lung Cancer, "
9529,"Non Small Cell Lung Cancer, "
9530,"Non Small Cell Lung Cancer, "
9531,
9532,
9533,"Non Small Cell Lung Cancer, "
9534,
9535,"Non Small Cell Lung Cancer, "
9536,"Non Small Cell Lung Cancer, "
9537,"Non Small Cell Lung Cancer, "
9538,
9539,"First-Line Non Small Cell Lung Cancer, "
9540,
9541,"Non Small Cell Lung Cancer, "
9542,"Non Small Cell Lung Cancer, "
9543,
9544,"Non Small Cell Lung Cancer, "
9545,"First-Line Non Small Cell Lung Cancer, "
9546,"Non Small Cell Lung Cancer, "
9547,"Non Small Cell Lung Cancer, "
9548,"Non Small Cell Lung Cancer, "
9549,"Non Small Cell Lung Cancer, "
9552,"Non Small Cell Lung Cancer, "
9553,"Non Small Cell Lung Cancer, "
9554,"First-Line Non Small Cell Lung Cancer, "
9556,"Non Small Cell Lung Cancer, "
9557,"Non Small Cell Lung Cancer, "
9558,"Second-Line Non Small Cell Lung Cancer, "
9560,"First-Line Non Small Cell Lung Cancer, "
9561,"Non Small Cell Lung Cancer, "
9562,"Stage IV Non Small Cell Lung Cancer, "
9563,"Stage IV Non Small Cell Lung Cancer, "
9564,"Non Small Cell Lung Cancer, "
9566,"Non Small Cell Lung Cancer, "
9567,"First-Line Non Small Cell Lung Cancer, "
9568,"First-Line Non Small Cell Lung Cancer, "
9569,"First-Line Non Small Cell Lung Cancer, "
9570,"Non Small Cell Lung Cancer, "
9571,"Non Small Cell Lung Cancer, "
9572,"Non Small Cell Lung Cancer, "
9573,"First-Line Non Small Cell Lung Cancer, "
9574,"Non Small Cell Lung Cancer, "
9575,"Non Small Cell Lung Cancer, "
9576,"Non Small Cell Lung Cancer, "
9577,"Non Small Cell Lung Cancer, "
9578,"Non Small Cell Lung Cancer, "
9579,"Non Small Cell Lung Cancer, "
9580,"Non Small Cell Lung Cancer, "
9581,"Non Small Cell Lung Cancer, "
9582,"Non Small Cell Lung Cancer, "
9583,"Non Small Cell Lung Cancer, "
9584,"Non Small Cell Lung Cancer, "
9585,"Non Small Cell Lung Cancer, "
9586,"Non Small Cell Lung Cancer, "
9587,"Non Small Cell Lung Cancer, "
9588,"Non Small Cell Lung Cancer, "
9589,"Non Small Cell Lung Cancer, "
9590,"Non Small Cell Lung Cancer, "
9591,"Non Small Cell Lung Cancer, "
9592,"Non Small Cell Lung Cancer, "
9593,"Non Small Cell Lung Cancer, "
9594,"First-Line Non Small Cell Lung Cancer, "
9595,"Non Small Cell Lung Cancer, "
9596,"Non Small Cell Lung Cancer, "
9597,"Non Small Cell Lung Cancer, "
9598,"Non Small Cell Lung Cancer, "
9599,"Non Small Cell Lung Cancer, "
9600,"Non Small Cell Lung Cancer, "
9601,"Non Small Cell Lung Cancer, "
9602,"Non Small Cell Lung Cancer, "
9603,"Non Small Cell Lung Cancer, "
9604,"Non Small Cell Lung Cancer, "
9605,"Non Small Cell Lung Cancer, "
9606,"Non Small Cell Lung Cancer, "
9607,"Non Small Cell Lung Cancer, "
9609,"Non Small Cell Lung Cancer, "
9610,"Non Small Cell Lung Cancer, "
9611,"Non Small Cell Lung Cancer, "
9613,"Non Small Cell Lung Cancer, "
9614,"First-Line Non Small Cell Lung Cancer, "
9615,"Non Small Cell Lung Cancer, "
9616,"Stage IV Non Small Cell Lung Cancer, "
9618,"Non Small Cell Lung Cancer, "
9619,"Non Small Cell Lung Cancer, "
9620,"Non Small Cell Lung Cancer, "
9621,"Non Small Cell Lung Cancer, "
9622,"Non Small Cell Lung Cancer, "
9623,"Stage IV Non Small Cell Lung Cancer, "
9624,"Non Small Cell Lung Cancer, "
LBA1,", Urothelial Cancer"
LBA10503,"Solid Tumor, "
LBA110,
LBA111,
LBA2,", Breast Cancer"
LBA3,"Multiple Myeloma, "
LBA4,", Colorectal Cancer"
LBA5,"Non Small Cell Lung Cancer, "
LBA6008,
TPS10079,
TPS10080,
TPS10081,
TPS10082,
TPS10084,
TPS10085,
TPS10086,
TPS10087,
TPS10088,
TPS10089,
TPS10090,
TPS10560,"Solid Tumor, "
TPS10561,"Solid Tumor, "
TPS1100,"Non Small Cell Lung Cancer, , Breast Cancer"
TPS1101,"Solid Tumor, , Breast Cancer"
TPS1102,", Breast Cancer"
TPS1103,", Metastatic HER2+ Breast Cancer"
TPS1104,", Breast Cancer"
TPS11043,
TPS1105,", Breast Cancer"
TPS1106,", Breast Cancer"
TPS1107,", Breast Cancer"
TPS1108,", Breast Cancer"
TPS1109,", Metastatic Triple-Negative Breast Cancer"
TPS1110,", Metastatic Triple-Negative Breast Cancer"
TPS1111,", Metastatic Triple-Negative Breast Cancer"
TPS1112,", Metastatic Triple-Negative Breast Cancer"
TPS1113,", Breast Cancer"
TPS1114,", Breast Cancer"
TPS1115,", Breast Cancer"
TPS11567,
TPS11568,"Gastroenterology Stromal Tumor, "
TPS11569,
TPS11570,
TPS11571,
TPS11572,
TPS11573,
TPS12124,", Breast Cancer"
TPS12125,", Colorectal Cancer"
TPS12126,
TPS12127,
TPS12128,", Breast Cancer"
TPS12129,
TPS12130,", Breast Cancer"
TPS1597,
TPS2086,
TPS2087,
TPS2088,
TPS2089,
TPS2572,", Breast Cancer"
TPS2573,
TPS2574,
TPS2575,
TPS2576,
TPS2577,
TPS2578,
TPS2579,
TPS2580,
TPS2581,
TPS3145,", Breast Cancer"
TPS3146,"Solid Tumor, "
TPS3147,"Solid Tumor, "
TPS3148,", Peripheral T-cell Lymphoma or Mycosis Fungoides"
TPS3149,
TPS3150,
TPS3151,"Solid Tumor, "
TPS3152,"Solid Tumor, "
TPS3154,
TPS3155,"Solid Tumor, "
TPS3156,"Solid Tumor, "
TPS3157,
TPS3158,
TPS3159,
TPS3160,"Solid Tumor, "
TPS3161,"Non Small Cell Lung Cancer, Hepatocellular Carcinoma of Liver, "
TPS3162,"Solid Tumor, "
TPS3163,
TPS3164,
TPS3165,"Solid Tumor, "
TPS3166,"Solid Tumor, "
TPS3167,"Solid Tumor, "
TPS3168,
TPS3170,", Locally Advanced Prostate Cancer, Advanced Metastatic Prostate Cancer"
TPS3171,
TPS3172,", Urothelial Cancer"
TPS3173,
TPS3645,"Solid Tumor, "
TPS3646,
TPS3647,"Solid Tumor, , Locally Advanced or Metastatic Solid Tumors"
TPS3648,"Solid Tumor, "
TPS3649,"Non Small Cell Lung Cancer, "
TPS3650,"Solid Tumor, "
TPS3651,"Solid Tumor, "
TPS3652,"Solid Tumor, , Advanced Solid Tumors"
TPS3653,
TPS3654,"Solid Tumor, "
TPS3655,
TPS3656,
TPS3657,"Solid Tumor, "
TPS3658,"Hepatocellular Carcinoma of Liver, Castration Resistant Prostate Cancer, "
TPS3659,"Solid Tumor, "
TPS3660,"Solid Tumor, "
TPS3661,"Solid Tumor, "
TPS3662,"Solid Tumor, "
TPS3663,"Solid Tumor, "
TPS3665,
TPS4114,"Solid Tumor, , Colorectal Cancer"
TPS4115,", Colorectal Cancer"
TPS4116,", Colorectal Cancer"
TPS4117,
TPS4118,", Colorectal Cancer"
TPS4119,", Colorectal Cancer"
TPS4120,", Colorectal Cancer"
TPS4121,"Colon Cancer, "
TPS4122,
TPS4123,
TPS4124,"Colon Cancer, "
TPS4646,"Gastric Cancer, "
TPS4647,"Gastric Cancer, "
TPS4648,"First-Line Gastric Cancer, "
TPS4649,"Gastroesophageal Junction Cancer, Gastric Cancer, "
TPS4650,"Esophageal Squamous Cell Carcinoma, Gastric Cancer, "
TPS4651,"Gastroesophageal Junction Cancer, Gastric Cancer, "
TPS4652,
TPS4653,
TPS4654,
TPS4655,"Cholangio Carcinoma, , Colorectal Cancer"
TPS4656,"Hepatocellular Carcinoma of Liver, , Colorectal Cancer"
TPS4657,
TPS4658,"Hepatocellular Carcinoma of Liver, "
TPS4659,"Cholangio Carcinoma, "
TPS4660,
TPS4661,", Metastatic Pancreatic Ductal Adenocarcinoma"
TPS4662,
TPS4663,
TPS4664,
TPS4665,
TPS4666,
TPS4667,
TPS4668,
TPS4669,
TPS4670,
TPS4671,", Metastatic Pancreatic Ductal Adenocarcinoma"
TPS4672,
TPS4673,
TPS5090,", Urothelial Cancer"
TPS5091,", Muscle-Invasive Urothelial Carcinoma"
TPS5092,", Locally Advanced or Metastatic Urothelial Cancer"
TPS5093,", Muscle-Invasive Urothelial Carcinoma"
TPS5094,
TPS5095,", Urothelial Cancer"
TPS5096,", Muscle-Invasive Urothelial Carcinoma"
TPS5097,", Muscle-Invasive Urothelial Carcinoma"
TPS5098,", Urothelial Cancer"
TPS5099,
TPS5100,
TPS5101,
TPS5102,
TPS5103,
TPS5586,", Oligometastatic Prostate Cancer"
TPS5587,", Castration Resistant Prostate Cancer"
TPS5588,", Metastatic Prostate Cancer"
TPS5589,", Metastatic Castration Resistant Prostate Cancer"
TPS5590,", Metastatic Castration Resistant Prostate Cancer"
TPS5591,", Metastatic Castration Resistant Prostate Cancer"
TPS5592,", Metastatic Castration Resistant Prostate Cancer"
TPS5593,", Non-Metastatic Castration Resistant Prostate Cancer"
TPS5594,", Metastatic Castration Resistant Prostate Cancer"
TPS5595,", Prostate Cancer"
TPS5596,", Metastatic Castration Resistant Prostate Cancer"
TPS5597,", Metastatic Castration Resistant Prostate Cancer"
TPS5598,", Metastatic Castration Resistant Prostate Cancer"
TPS5599,", Metastatic Castration Resistant Prostate Cancer"
TPS5600,", Metastatic Prostate Cancer"
TPS5601,", Prostate Cancer"
TPS596,", Metastatic Triple-Negative Breast Cancer"
TPS597,", Breast Cancer"
TPS598,", Breast Cancer"
TPS599,", Breast Cancer"
TPS600,", Breast Cancer"
TPS601,", Breast Cancer"
TPS602,", Breast Cancer"
TPS603,", Breast Cancer"
TPS604,", Neoadjuvant Breast Cancer"
TPS605,", Breast Cancer"
TPS6094,", Cervical Cancer"
TPS6095,", Cervical Cancer"
TPS6096,", Cervical Cancer"
TPS6097,", Ovarian Cancer"
TPS6098,", Ovarian Cancer"
TPS6099,"Solid Tumor, , Ovarian Cancer"
TPS6100,", Ovarian Cancer"
TPS6101,", Ovarian Cancer"
TPS6102,", Ovarian Cancer"
TPS6103,
TPS6104,", Ovarian Cancer"
TPS6105,
TPS6106,
TPS6107,
TPS6108,
TPS6109,
TPS6589,
TPS6590,
TPS6591,
TPS6592,
TPS6593,
TPS6594,
TPS6595,
TPS6596,
TPS6597,
TPS7086,"Solid Tumor, "
TPS7087,
TPS7088,", Breast Cancer"
TPS7561,
TPS7562,"Relapsed/Refractory Acute Myeloid Leukemia, , Myelodysplastic Syndromes & Acute Myeloid Leukemia"
TPS7563,"Relapsed/Refractory Acute Myeloid Leukemia, , Acute Myeloid Leukemia"
TPS7564,"Acute Myeloid Leukemia, "
TPS7565,"Acute Myeloid Leukemia, "
TPS7566,"Relapsed/Refractory Acute Myeloid Leukemia, , Acute Myeloid Leukemia"
TPS7567,"First-Line Acute Myeloid Leukemia, , Acute Myeloid Leukemia"
TPS7568,
TPS8066,"Lymphoma, "
TPS8067,"Classical Hodgkin Lymphoma, Lymphoma, "
TPS8068,"Lymphoma, , Hodgkin Lymphoma"
TPS8069,"Lymphoma, , Hodgkin Lymphoma & CD30-Expressing Peripheral T-cell Lymphoma"
TPS8070,"Lymphoma, "
TPS8071,"Lymphoma, "
TPS8072,"Lymphoma, "
TPS8073,"Lymphoma, "
TPS8074,"Lymphoma, "
TPS8075,"Lymphoma, "
TPS8551,"Relapsed/Refractory Multiple Myeloma, , Relapsed / Refractory Multiple Myeloma"
TPS8552,"Relapsed/Refractory Multiple Myeloma, , Relapsed / Refractory Multiple Myeloma"
TPS8553,"Multiple Myeloma, "
TPS8554,"Relapsed/Refractory Multiple Myeloma, , Relapsed / Refractory Multiple Myeloma"
TPS8555,"Relapsed/Refractory Multiple Myeloma, , Relapsed / Refractory Multiple Myeloma"
TPS8556,"Multiple Myeloma, "
TPS9075,"Non Small Cell Lung Cancer, "
TPS9076,"Non Small Cell Lung Cancer, "
TPS9077,"Non Small Cell Lung Cancer, "
TPS9078,
TPS9079,
TPS9080,
TPS9081,
TPS9082,
TPS9083,
TPS9084,
TPS9625,"Non Small Cell Lung Cancer, "
TPS9626,"Non Small Cell Lung Cancer, "
TPS9627,"First-Line Non Small Cell Lung Cancer, "
TPS9628,"Non Small Cell Lung Cancer, "
TPS9629,"Stage IV Non Small Cell Lung Cancer, "
TPS9630,"Non Small Cell Lung Cancer, "
TPS9631,"Non Small Cell Lung Cancer, "
TPS9632,"First-Line Non Small Cell Lung Cancer, "
TPS9633,"First-Line Non Small Cell Lung Cancer, "
TPS9635,"Non Small Cell Lung Cancer, "
TPS9636,"Stage IV Non Small Cell Lung Cancer, "
TPS9637,"Solid Tumor, Non Small Cell Lung Cancer, "
TPS9638,"Non Small Cell Lung Cancer, "
e12500,
e12502,
e12503,
e12505,
e12506,
e12508,
e12509,
e12510,
e12511,
e12512,
e12513,
e12514,
e12515,
e12516,
e12517,
e12518,
e12519,
e12520,
e12521,
e12523,
e12524,
e12525,
e12526,
e12527,
e12528,
e12529,
e12530,
e12531,
e12532,
e12533,
e12534,
e12535,
e12536,
e12537,
e12539,
e12540,
e12541,
e12542,
e12543,
e12544,
e12545,
e12546,
e12547,
e12548,
e12549,
e12550,
e12551,
e12552,
e12553,
e12554,
e12555,
e12556,
e12557,
e12558,
e12559,
e12561,
e12562,
e12563,
e12564,
e12565,
e12566,
e12567,
e12568,
e12569,
e12570,
e12571,
e12573,
e12574,
e12575,
e12576,
e12577,
e12579,
e12581,
e12582,
e12583,
e12584,
e12585,
e12586,
e12587,
e12588,
e12589,
e12590,
e12591,
e12592,
e12593,
e12594,
e12595,
e12596,
e12598,
e12599,
e12600,
e12602,
e12603,
e12604,
e12605,
e12606,
e12608,
e12609,
e12610,
e12612,
e12613,
e12614,
e12615,
e12616,
e12617,
e12618,
e12619,
e12620,
e12621,
e12622,
e12623,
e12624,
e12625,
e12626,
e12627,
e12630,
e12631,
e12632,
e12634,
e12635,
e12637,
e12638,
e12641,
e12642,
e12643,
e12644,
e12645,
e12646,
e12647,
e12648,
e12649,
e12650,
e12651,
e12652,
e12653,
e12654,
e12655,
e12656,
e12657,
e12658,
e13000,
e13001,
e13002,
e13003,
e13004,
e13005,
e13006,
e13007,"Solid Tumor, "
e13008,
e13009,
e13010,
e13011,
e13012,
e13013,
e13014,
e13015,
e13017,
e13018,
e13019,
e13020,
e13022,
e13023,
e13024,
e13025,
e13026,
e13027,
e13028,
e13029,
e13030,
e13031,
e13032,
e13033,
e13034,
e13035,
e13037,
e13038,
e13039,
e13040,
e13041,
e13044,
e13045,
e13046,
e13048,
e13052,
e13053,
e13054,
e13055,
e13056,
e13057,
e13058,
e13059,
e13061,
e13062,
e13063,
e13064,
e13065,
e13066,
e13067,
e13068,
e13070,
e13072,
e13073,
e13075,
e13076,
e13078,
e13079,
e13080,"Solid Tumor, "
e13081,
e13082,
e13083,
e13084,
e13085,
e13086,
e13087,
e13088,
e13089,
e13090,
e13091,
e13092,
e13093,
e13094,
e13095,
e13096,
e13097,
e13098,
e13099,
e13100,
e13102,
e13103,
e13104,
e13106,
e13107,
e13108,
e13109,
e13110,
e13500,
e13502,"Colon Cancer, "
e13503,
e13504,
e13505,
e13506,
e13507,
e13508,
e13509,
e13510,
e13511,
e13512,
e13513,
e13514,"Gastric Cancer, "
e13515,"Solid Tumor, "
e13516,
e13517,"Solid Tumor, "
e13518,
e13519,"Solid Tumor, "
e13520,
e13521,
e13522,
e13523,
e13524,
e13525,
e13526,
e13527,
e13528,
e13529,
e13530,
e13531,
e13532,
e13533,"Solid Tumor, "
e13534,
e13535,
e13536,
e13537,"Solid Tumor, "
e13538,
e13539,
e13540,
e13541,
e13542,"Non Small Cell Lung Cancer, "
e13544,
e13545,
e13546,
e13547,"Solid Tumor, "
e13548,
e13549,
e13550,
e13552,", Prostate Cancer"
e13553,
e13554,
e13555,
e13556,
e13557,
e13558,
e13559,", Prostate Cancer"
e13560,
e13561,
e13562,
e13563,
e13564,
e13565,
e13566,
e13567,
e13568,
e13569,
e13570,
e13571,
e13572,
e13573,
e13574,", Prostate Cancer"
e13575,
e13576,
e13578,
e13579,
e13580,
e13581,
e13582,
e13583,
e13584,
e13585,
e13586,
e13587,
e13588,
e13589,
e13590,"Solid Tumor, "
e13591,
e13592,", Metastatic Castration Resistant Prostate Cancer"
e13593,
e13594,
e13595,"Multiple Myeloma, "
e13596,
e13597,
e13598,
e13599,
e13600,
e13601,
e13602,
e13603,
e13604,
e13605,
e13606,", Prostate Cancer"
e13607,
e13608,
e13609,
e13610,
e13611,
e13612,
e13614,
e13615,
e13616,
e13617,
e13618,
e13619,
e13620,
e13621,
e13622,
e13623,
e13624,
e13625,
e13626,
e13627,
e13628,
e13629,
e13630,
e13631,
e13632,
e13633,
e13634,
e13635,
e13636,
e13637,"Non Small Cell Lung Cancer, "
e13638,"Solid Tumor, "
e13639,
e13640,", Prostate Cancer"
e13641,
e13642,"Solid Tumor, "
e13643,
e13644,
e13645,
e13646,"Solid Tumor, "
e13648,
e13649,
e13651,
e13652,"Acute Myeloid Leukemia, Non Small Cell Lung Cancer, "
e13653,", Prostate Cancer"
e13654,
e13655,"Solid Tumor, "
e13656,
e13657,
e13658,
e13659,
e13660,
e13661,
e13662,
e13663,
e13664,
e13665,"Non Small Cell Lung Cancer, "
e13666,
e13667,
e13668,
e13669,
e13670,
e13671,
e13672,
e13673,
e13674,
e13675,"Gastroenterology Stromal Tumor, "
e13676,
e13677,
e13678,
e13679,", Prostate Cancer"
e13680,
e13681,
e13682,
e13683,"Non Small Cell Lung Cancer, "
e13684,
e13685,
e13687,
e13688,"Hepatocellular Carcinoma of Liver, "
e13689,
e13690,
e14000,
e14001,
e14003,
e14004,
e14005,
e14006,", Prostate Cancer"
e14007,
e14008,
e14009,
e14010,
e14011,
e14012,
e14013,
e14015,
e14016,
e14018,
e14019,
e14020,
e14021,
e14022,
e14023,
e14024,
e14025,"Solid Tumor, "
e14026,
e14027,
e14028,
e14029,
e14030,"Multiple Myeloma, "
e14031,
e14032,
e14033,
e14034,
e14036,
e14037,
e14038,
e14039,
e14040,
e14042,
e14043,", Prostate Cancer"
e14044,
e14045,"Multiple Myeloma, "
e14046,"Non Small Cell Lung Cancer, "
e14047,
e14048,
e14049,
e14050,
e14051,
e14052,", Prostate Cancer"
e14054,", Prostate Cancer"
e14056,
e14057,"Hepatocellular Carcinoma of Liver, "
e14058,
e14059,
e14061,
e14062,
e14063,
e14064,
e14065,
e14067,
e14068,
e14069,
e14070,
e14071,
e14072,
e14073,
e14074,
e14075,
e14076,
e14077,
e14078,
e14079,
e14080,
e14081,
e14082,
e14083,
e14084,
e14085,
e14086,
e14087,
e14088,
e14089,
e14092,
e14093,
e14094,
e14095,
e14096,
e14097,
e14098,
e14099,
e14100,
e14101,
e14102,
e14103,
e14104,
e14105,
e14106,
e14107,
e14108,
e14109,
e14112,
e14113,
e14114,
e14115,
e14116,
e14117,
e14118,
e14119,
e14120,
e14121,
e14122,
e14123,
e14124,
e14125,
e14126,
e14127,
e14129,
e14130,
e14131,
e14132,
e14133,
e14134,
e14135,
e14138,
e14139,
e14141,
e14142,
e14143,
e14144,
e14145,
e14146,
e14147,
e14148,
e14149,
e14150,
e14151,
e14152,
e14153,
e14154,", Prostate Cancer"
e14155,
e14500,
e14501,
e14502,
e14503,
e14504,
e14505,"Non Small Cell Lung Cancer, "
e14506,"Solid Tumor, "
e14507,
e14508,"Non Small Cell Lung Cancer, "
e14509,
e14510,
e14511,"Non Small Cell Lung Cancer, "
e14513,
e14514,
e14515,
e14516,
e14518,
e14519,
e14520,
e14521,
e14522,
e14523,
e14524,
e14525,
e14526,
e14528,
e14529,
e14530,
e14532,
e14533,
e14534,
e14535,
e14536,
e14538,
e14539,
e14540,
e14541,
e14543,
e14544,
e14545,
e14546,
e14547,
e14548,
e14549,
e14550,
e14551,
e14552,
e14553,
e14554,
e15000,
e15001,"Solid Tumor, "
e15002,
e15004,
e15006,
e15007,"Lymphoma, "
e15008,
e15011,"Solid Tumor, "
e15012,
e15013,
e15014,
e15015,
e15016,
e15017,
e15018,
e15020,
e15021,
e15022,
e15023,"Solid Tumor, "
e15024,"Solid Tumor, "
e15026,
e15027,
e15028,
e15033,
e15035,
e15036,
e15037,", Prostate Cancer"
e15038,
e15039,"Solid Tumor, "
e15042,"Non Small Cell Lung Cancer, "
e15043,
e15044,
e15046,
e15047,"Non Small Cell Lung Cancer, "
e15049,"Non Small Cell Lung Cancer, "
e15051,"Gastric Cancer, "
e15052,
e15053,"Non Small Cell Lung Cancer, "
e15055,"Non Small Cell Lung Cancer, "
e15056,
e15057,
e15058,
e15059,"Non Small Cell Lung Cancer, "
e15060,
e15061,
e15062,
e15063,
e15064,
e15065,
e15066,
e15067,
e15068,"Solid Tumor, "
e15069,
e15071,
e15074,
e15075,
e15076,
e15079,
e15080,
e15081,"Solid Tumor, "
e15082,
e15083,"Solid Tumor, "
e15084,
e15086,
e15087,
e15089,"Non Small Cell Lung Cancer, "
e15090,
e15091,
e15093,
e15094,
e15095,
e15096,
e15097,
e15098,"Acute Myeloid Leukemia, "
e15099,
e15100,
e15101,
e15102,
e15103,
e15106,
e15108,
e15109,"Solid Tumor, "
e15110,
e15111,
e15112,"Non Small Cell Lung Cancer, "
e15113,"Non Small Cell Lung Cancer, "
e15114,
e15116,
e15117,
e15119,
e15120,
e15122,
e15124,
e15125,"Solid Tumor, "
e15126,
e15127,
e15128,
e15129,
e15130,
e15131,
e15132,
e15133,
e15135,"Non Small Cell Lung Cancer, "
e15136,"Non Small Cell Lung Cancer, "
e15137,"Non Small Cell Lung Cancer, "
e15140,"MSI-H Solid Tumor, dMMR Solid Tumor, "
e15141,
e15142,"Solid Tumor, "
e15143,
e15144,
e15145,
e15146,
e15147,"Solid Tumor, "
e15148,
e15149,
e15150,
e15151,
e15152,
e15153,
e15154,
e15155,
e15156,"Non Small Cell Lung Cancer, "
e15157,
e15158,
e15159,
e15160,"Solid Tumor, "
e15161,
e15162,
e15163,
e15164,
e15165,
e15166,
e15167,
e15168,"Non Small Cell Lung Cancer, "
e15169,"Solid Tumor, "
e15170,
e15171,"Non Small Cell Lung Cancer, "
e15172,
e15173,"Solid Tumor, "
e15174,
e15175,"Solid Tumor, "
e15176,
e15177,
e15179,
e15180,
e15181,
e15183,
e15184,
e15185,
e15186,
e15187,
e15189,
e15191,
e15192,"Non Small Cell Lung Cancer, "
e15193,
e15194,
e15195,
e15196,
e15197,
e15198,
e15199,
e15200,
e15201,
e15202,
e15203,
e15204,
e15205,
e15206,
e15209,
e15210,
e15211,
e15213,
e15216,
e15217,
e15218,
e15220,
e15222,"Solid Tumor, "
e15223,
e15225,
e15226,
e15227,
e15228,
e15229,
e15232,
e15234,
e15235,"Non Small Cell Lung Cancer, "
e15236,
e15237,
e15238,
e15239,
e15240,
e15241,
e15242,
e15243,
e15244,
e15245,
e15246,
e15249,"Solid Tumor, "
e15250,"Solid Tumor, "
e15252,
e15253,
e15254,
e15255,
e15257,
e15258,"Non Small Cell Lung Cancer, "
e15260,
e15261,
e15262,
e15263,
e15264,
e15265,"Esophageal Squamous Cell Carcinoma, "
e15267,
e15268,
e15269,
e15271,
e15272,
e15502,
e15503,
e15504,"Hepatocellular Carcinoma of Liver, "
e15505,
e15506,
e15507,
e15508,"Gastric Cancer, "
e15511,
e15513,
e15514,
e15515,
e15516,
e15517,
e15518,
e15519,
e15520,
e15522,
e15523,
e15524,
e15525,
e15526,
e15527,"Solid Tumor, "
e15528,
e15529,
e15530,"Non Small Cell Lung Cancer, "
e15531,
e15532,
e15533,
e15534,
e15535,"Non Small Cell Lung Cancer, "
e15536,
e15537,
e15539,
e15540,
e15541,
e15542,
e15543,
e15544,
e15545,
e15546,
e15548,
e15549,
e15550,"Non Small Cell Lung Cancer, "
e15553,", Prostate Cancer"
e15554,
e15555,
e15557,
e15558,
e15559,"Non Small Cell Lung Cancer, "
e15560,"Non Small Cell Lung Cancer, "
e15562,"Solid Tumor, "
e15563,
e15566,"Solid Tumor, "
e15567,
e15568,
e15569,
e15570,
e15571,
e15572,
e15574,"Solid Tumor, "
e15575,"Solid Tumor, "
e15576,"Solid Tumor, "
e15577,
e15579,
e15583,
e15584,
e15585,
e15586,
e15587,
e15588,
e15589,
e15590,
e15591,
e15592,
e15594,
e15596,
e15597,
e15598,"Hepatocellular Carcinoma of Liver, "
e15599,
e15600,"Solid Tumor, "
e15602,"Colon Cancer, Cholangio Carcinoma, "
e15605,
e15606,
e15607,
e15608,"Colon Cancer, "
e15609,
e15612,
e15614,
e15615,"Solid Tumor, Prostate Cancer, "
e15616,
e15617,
e15618,
e15619,
e15620,
e15621,
e15622,
e15623,
e15624,
e15626,
e15628,"Medullary Thyroid Cancer, "
e15629,", Prostate Cancer"
e15630,"Gastric Cancer, "
e15631,
e15632,
e15633,
e15635,
e15636,", Prostate Cancer"
e15637,
e15638,
e15639,"Solid Tumor, "
e15640,
e15641,
e15642,
e15643,
e15644,
e15645,"Solid Tumor, "
e15647,
e15648,
e15650,
e15651,
e15652,
e15654,
e15656,"Relapsed/Refractory Acute Myeloid Leukemia, "
e15658,
e15659,
e15661,
e15662,
e15663,", Prostate Cancer"
e15664,
e15666,
e15667,
e15668,
e15670,
e15671,
e15672,
e15673,
e15674,
e15675,
e15676,
e15677,
e16000,
e16001,
e16002,
e16003,
e16004,
e16005,
e16007,
e16008,
e16009,
e16010,
e16012,
e16013,
e16014,
e16015,
e16016,
e16017,
e16020,
e16021,
e16022,
e16024,
e16025,
e16026,
e16027,
e16028,
e16029,
e16030,
e16031,"Solid Tumor, "
e16032,
e16033,
e16034,
e16035,
e16036,
e16037,
e16038,
e16039,
e16040,
e16041,
e16042,
e16043,
e16045,
e16046,
e16048,
e16049,
e16050,
e16051,
e16052,
e16053,
e16054,
e16055,
e16056,
e16057,
e16059,
e16060,
e16061,
e16062,"Colon Cancer, "
e16063,
e16064,
e16065,"Colon Cancer, "
e16066,
e16067,"Colon Cancer, "
e16068,"Colon Cancer, "
e16069,
e16070,"Colon Cancer, "
e16072,
e16073,
e16074,
e16076,
e16078,
e16079,
e16080,
e16081,
e16083,
e16084,
e16085,"Colon Cancer, "
e16087,
e16088,
e16089,
e16090,
e16091,
e16092,
e16093,
e16095,
e16096,"Colon Cancer, "
e16097,
e16098,
e16099,
e16100,
e16101,
e16102,
e16103,
e16104,
e16105,
e16106,
e16107,
e16108,
e16109,"Colon Cancer, "
e16110,
e16111,
e16112,
e16113,
e16114,
e16115,
e16116,
e16118,"Colon Cancer, "
e16119,
e16120,
e16121,
e16122,
e16124,
e16126,"Solid Tumor, "
e16128,
e16129,
e16130,
e16131,
e16132,
e16133,
e16134,
e16135,
e16136,
e16138,
e16139,
e16140,
e16141,
e16142,
e16143,
e16144,
e16145,
e16146,
e16147,
e16500,
e16501,"Gastric Cancer, "
e16502,
e16503,
e16504,"Gastric Cancer, "
e16505,"Gastric Cancer, "
e16506,"Gastric Cancer, "
e16507,"Gastric Cancer, "
e16508,"Gastric Cancer, "
e16509,"Gastric Cancer, "
e16510,"Gastric Cancer, "
e16511,"Gastric Cancer, "
e16512,"Gastric Cancer, "
e16514,"Gastric Cancer, "
e16515,"Gastric Cancer, "
e16516,"Gastric Cancer, "
e16517,"Gastric Cancer, "
e16518,"Gastric Cancer, "
e16520,"Gastric Cancer, "
e16521,"Gastric Cancer, "
e16522,"Esophageal Squamous Cell Carcinoma, Gastric Cancer, "
e16523,"Gastric Cancer, "
e16524,"Esophageal Squamous Cell Carcinoma, Gastric Cancer, "
e16525,"Esophageal Squamous Cell Carcinoma, Gastric Cancer, "
e16526,"Gastric Cancer, "
e16527,"Gastric Cancer, "
e16528,"Gastric Cancer, "
e16529,"Gastric Cancer, "
e16530,"Gastric Cancer, "
e16531,"Gastric Cancer, "
e16532,"Solid Tumor, Gastric Cancer, "
e16533,"Gastric Cancer, "
e16534,"Gastric Cancer, "
e16535,"Gastric Cancer, "
e16537,"Gastric Cancer, "
e16538,"Gastric Cancer, "
e16539,"Gastroesophageal Junction Cancer, Gastric Cancer, "
e16540,"First-Line Gastric Cancer, "
e16541,"Gastric Cancer, "
e16542,"Gastric Cancer, "
e16543,"Gastric Cancer, "
e16544,"Gastric Cancer, "
e16545,"Gastric Cancer, "
e16546,"Esophageal Squamous Cell Carcinoma, Gastric Cancer, "
e16547,"Gastric Cancer, "
e16549,"Gastric Cancer, "
e16550,"Gastric Cancer, "
e16551,"Gastric Cancer, "
e16552,"Esophageal Squamous Cell Carcinoma, Gastric Cancer, "
e16553,"Gastric Cancer, "
e16554,"Esophageal Squamous Cell Carcinoma, Gastric Cancer, "
e16555,"Gastric Cancer, "
e16556,"Gastric Cancer, "
e16557,"Gastric Cancer, "
e16558,"Gastric Cancer, "
e16559,"Gastric Cancer, "
e16560,"Gastric Cancer, "
e16561,"Gastric Cancer, "
e16562,"Gastric Cancer, "
e16563,"Gastric Cancer, "
e16564,"Gastric Cancer, "
e16565,"Gastric Cancer, "
e16566,"Gastric Cancer, "
e16568,"Gastric Cancer, "
e16569,"Gastric Cancer, "
e16571,"Gastric Cancer, "
e16572,"Gastric Cancer, "
e16573,"Gastric Cancer, "
e16574,"Gastric Cancer, "
e16576,"Gastric Cancer, "
e16577,"Gastric Cancer, "
e16578,"Gastric Cancer, "
e16579,"Gastric Cancer, "
e16580,"Gastric Cancer, "
e16581,"Gastric Cancer, "
e16585,"Gastroesophageal Junction Cancer, Gastric Cancer, "
e16586,"Gastric Cancer, "
e16587,"Gastroesophageal Junction Cancer, Gastric Cancer, "
e16588,"Gastric Cancer, "
e16589,"Gastric Cancer, "
e16590,"Gastric Cancer, "
e16591,"Gastric Cancer, "
e16592,"Second-Line Hepatocellular carcinoma, "
e16593,"Hepatocellular Carcinoma of Liver, "
e16594,"Hepatocellular Carcinoma of Liver, "
e16596,"Hepatocellular Carcinoma of Liver, "
e16597,
e16598,
e16599,"Hepatocellular Carcinoma of Liver, "
e16600,
e16601,"Hepatocellular Carcinoma of Liver, "
e16602,"Hepatocellular Carcinoma of Liver, "
e16603,"Hepatocellular Carcinoma of Liver, "
e16604,"Hepatocellular Carcinoma of Liver, "
e16605,
e16606,"Hepatocellular Carcinoma of Liver, "
e16607,"Gall Bladder Cancer, "
e16608,"Hepatocellular Carcinoma of Liver, "
e16609,"Hepatocellular Carcinoma of Liver, "
e16610,"Hepatocellular Carcinoma of Liver, "
e16611,"Hepatocellular Carcinoma of Liver, "
e16612,"Hepatocellular Carcinoma of Liver, "
e16613,
e16614,"Hepatocellular Carcinoma of Liver, "
e16615,"Hepatocellular Carcinoma of Liver, "
e16617,"Hepatocellular Carcinoma of Liver, "
e16620,"Hepatocellular Carcinoma of Liver, "
e16621,"Hepatocellular Carcinoma of Liver, "
e16622,"Hepatocellular Carcinoma of Liver, "
e16623,"Hepatocellular Carcinoma of Liver, "
e16624,
e16626,"Hepatocellular Carcinoma of Liver, "
e16627,"Hepatocellular Carcinoma of Liver, "
e16628,
e16629,"Second-Line Hepatocellular carcinoma, "
e16630,"Hepatocellular Carcinoma of Liver, "
e16631,"Hepatocellular Carcinoma of Liver, "
e16632,"Hepatocellular Carcinoma of Liver, "
e16633,"Hepatocellular Carcinoma of Liver, "
e16634,"Hepatocellular Carcinoma of Liver, "
e16635,
e16637,"Hepatocellular Carcinoma of Liver, "
e16641,"Hepatocellular Carcinoma of Liver, "
e16642,"Hepatocellular Carcinoma of Liver, "
e16643,"Solid Tumor, "
e16644,"Hepatocellular Carcinoma of Liver, "
e16645,"Hepatocellular Carcinoma of Liver, "
e16647,
e16648,"Hepatocellular Carcinoma of Liver, "
e16649,"Hepatocellular Carcinoma of Liver, "
e16650,
e16651,
e16652,
e16653,"Hepatocellular Carcinoma of Liver, "
e16654,
e16656,"Solid Tumor, "
e16657,"Hepatocellular Carcinoma of Liver, "
e16658,"Hepatocellular Carcinoma of Liver, "
e16659,"Hepatocellular Carcinoma of Liver, "
e16660,"Hepatocellular Carcinoma of Liver, "
e16661,"Hepatocellular Carcinoma of Liver, "
e16662,"Cholangio Carcinoma, "
e16663,
e16664,"Solid Tumor, "
e16665,"Hepatocellular Carcinoma of Liver, "
e16667,"Hepatocellular Carcinoma of Liver, "
e16668,"Hepatocellular Carcinoma of Liver, "
e16669,"Hepatocellular Carcinoma of Liver, "
e16670,
e16671,
e16672,"Hepatocellular Carcinoma of Liver, "
e16673,
e16674,
e16675,"Hepatocellular Carcinoma of Liver, "
e16676,"Second-Line Hepatocellular carcinoma, "
e16677,"Hepatocellular Carcinoma of Liver, "
e16678,
e16679,
e16680,"Hepatocellular Carcinoma of Liver, "
e16682,"Gall Bladder Cancer, "
e16683,"Hepatocellular Carcinoma of Liver, "
e16684,
e16685,"Hepatocellular Carcinoma of Liver, "
e16686,"Cholangio Carcinoma, "
e16687,"Hepatocellular Carcinoma of Liver, "
e16689,"Hepatocellular Carcinoma of Liver, "
e16690,"Hepatocellular Carcinoma of Liver, "
e16691,
e16692,
e16693,
e16694,
e16695,
e16696,
e16697,
e16698,
e16699,
e16700,
e16701,
e16702,
e16703,"Medullary Thyroid Cancer, "
e16705,
e16706,
e16707,
e16708,
e16709,
e16710,
e16711,"Hepatocellular Carcinoma of Liver, "
e16712,
e16713,"Hepatocellular Carcinoma of Liver, "
e16714,
e16715,
e16716,
e16717,
e16718,
e16719,
e16720,
e16721,
e16723,
e16724,
e16725,
e16726,
e16727,
e16728,
e16729,
e16730,
e16731,
e16732,
e16733,
e16734,
e16735,
e16737,
e16738,
e16739,
e16740,
e16741,
e16743,
e16744,
e16745,
e16746,
e16747,
e16749,
e16750,
e16751,
e16752,
e16753,
e16754,
e16755,
e16756,
e16757,
e16758,
e16759,
e16760,
e16761,
e16762,
e16763,
e16764,
e16765,
e16766,
e16767,
e16768,
e16769,
e16770,
e16771,
e16773,
e16774,
e16776,"Systemic Mastocytosis, "
e16777,
e16778,
e16780,
e16781,
e16782,
e16783,
e16784,
e16785,
e16786,
e16787,
e16788,
e16789,
e16790,
e16791,
e16792,"First-Line Non Small Cell Lung Cancer, "
e16793,
e16794,
e16795,
e16796,
e16798,
e16799,
e16800,
e16801,
e16802,
e16803,
e16804,
e16805,
e16806,
e17000,
e17001,
e17002,
e17003,
e17004,
e17005,
e17006,
e17007,
e17008,
e17009,
e17010,
e17012,
e17013,
e17014,
e17015,
e17016,
e17017,
e17018,
e17019,
e17020,
e17021,
e17022,
e17023,
e17024,
e17025,
e17026,
e17027,
e17028,
e17029,
e17030,
e17031,
e17032,
e17033,
e17034,
e17035,
e17036,
e17037,
e17038,
e17039,
e17040,
e17041,
e17042,
e17043,
e17044,
e17045,
e17046,
e17047,
e17048,
e17049,
e17050,
e17051,
e17052,
e17053,
e17054,
e17055,
e17056,
e17057,
e17058,
e17059,
e17060,
e17061,
e17062,
e17063,
e17064,
e17065,
e17066,
e17067,
e17068,
e17069,
e17072,
e17073,
e17074,
e17075,
e17076,
e17077,
e17078,
e17079,
e17080,
e17081,
e17083,
e17084,
e17085,
e17086,
e17087,
e17088,
e17089,
e17090,
e17091,
e17092,
e17093,
e17094,
e17095,
e17097,
e17099,
e17100,
e17101,
e17103,
e17104,
e17105,
e17106,
e17107,
e17108,", Prostate Cancer"
e17109,
e17110,
e17111,", Prostate Cancer"
e17112,
e17113,
e17114,
e17115,
e17116,
e17500,", Prostate Cancer"
e17502,", Prostate Cancer"
e17503,", Prostate Cancer"
e17504,", Prostate Cancer"
e17505,", Prostate Cancer"
e17506,", Prostate Cancer"
e17507,", Metastatic Prostate Cancer"
e17508,", Prostate Cancer"
e17509,", Castration Resistant Prostate Cancer"
e17510,", Prostate Cancer"
e17511,", Castration Resistant Prostate Cancer"
e17512,", Advanced Prostate Cancer"
e17513,", Prostate Cancer"
e17514,", Prostate Cancer"
e17515,", Prostate Cancer"
e17516,", Prostate Cancer"
e17517,", Prostate Cancer"
e17518,", Prostate Cancer"
e17519,
e17520,", Prostate Cancer"
e17522,", Non-Metastatic Castration Resistant Prostate Cancer"
e17523,", Prostate Cancer"
e17524,", Prostate Cancer"
e17525,", Castration Resistant Prostate Cancer"
e17526,", Prostate Cancer"
e17527,", Prostate Cancer"
e17528,", Prostate Cancer"
e17529,", Prostate Cancer"
e17530,", Prostate Cancer"
e17531,", Prostate Cancer"
e17532,", Prostate Cancer"
e17533,", Prostate Cancer"
e17534,", Prostate Cancer"
e17535,", Prostate Cancer"
e17536,", Biochemically Recurrent Prostate Cancer"
e17537,", Prostate Cancer"
e17538,", Metastatic Castration Resistant Prostate Cancer"
e17539,", Metastatic Prostate Cancer"
e17540,", Metastatic Castration Resistant Prostate Cancer"
e17541,", Metastatic Castration Resistant Prostate Cancer"
e17542,", Metastatic Prostate Cancer"
e17543,", Metastatic Castration Resistant Prostate Cancer"
e17544,", Prostate Cancer"
e17545,", Metastatic Castration Resistant Prostate Cancer"
e17546,", Prostate Cancer"
e17547,", Castration Resistant Prostate Cancer"
e17548,", Metastatic Prostate Cancer"
e17550,", Metastatic Prostate Cancer"
e17552,", Metastatic Prostate Cancer"
e17553,", Prostate Cancer"
e17554,", Prostate Cancer"
e17555,", Prostate Cancer"
e17556,", Metastatic Castration Resistant Prostate Cancer"
e17557,", Locally Advanced Prostate Cancer"
e17558,", Metastatic Prostate Cancer"
e17561,", Prostate Cancer"
e17563,", Metastatic Castration Resistant Prostate Cancer"
e17564,", Metastatic Castration Resistant Prostate Cancer"
e17565,", Metastatic Castration Resistant Prostate Cancer"
e17567,", Prostate Cancer"
e17569,", Metastatic Castration Resistant Prostate Cancer"
e17571,", Metastatic Castration Resistant Prostate Cancer"
e17575,", Castration Resistant Prostate Cancer"
e17576,", Prostate Cancer"
e17578,", Metastatic Castration Resistant Prostate Cancer"
e17579,", Non-Metastatic Prostate Cancer"
e17580,", Prostate Cancer"
e17581,", Metastatic Castration Resistant Prostate Cancer"
e17582,", Metastatic Castration Resistant Prostate Cancer"
e17583,", Prostate Cancer"
e17584,", Metastatic Castration Resistant Prostate Cancer"
e17586,", Metastatic Castration Resistant Prostate Cancer"
e17587,", Castration Resistant Prostate Cancer"
e17588,", Castration Resistant Prostate Cancer"
e17589,", Metastatic Castration Resistant Prostate Cancer"
e17590,", Metastatic Castration Resistant Prostate Cancer"
e17591,", Metastatic Castration Resistant Prostate Cancer"
e17592,", Metastatic Castration Resistant Prostate Cancer"
e17593,", Metastatic Castration Resistant Prostate Cancer"
e17594,", Metastatic Prostate Cancer"
e17595,", Metastatic Castration Resistant Prostate Cancer"
e17596,", Metastatic Prostate Cancer"
e17597,", Advanced Prostate Cancer"
e17599,", Prostate Cancer"
e17600,", Oligometastatic Prostate Cancer"
e17601,", Prostate Cancer"
e17602,", Prostate Cancer"
e17604,", Prostate Cancer"
e17605,", Non-Metastatic Castration Resistant Prostate Cancer"
e17606,", Non-Metastatic Castration Resistant Prostate Cancer"
e17607,", Non-Metastatic Castration Resistant Prostate Cancer"
e17608,", Prostate Cancer"
e17609,", Prostate Cancer"
e17610,", Prostate Cancer"
e17612,", Prostate Cancer"
e17614,", Prostate Cancer"
e17615,", Prostate Cancer"
e17616,", Prostate Cancer"
e17617,", Prostate Cancer"
e18000,
e18001,
e18002,
e18003,
e18005,
e18006,
e18007,
e18009,
e18010,
e18011,
e18012,
e18014,
e18015,
e18016,
e18017,
e18018,
e18019,
e18020,
e18021,
e18022,
e18023,
e18024,
e18025,
e18027,
e18028,
e18029,
e18030,
e18031,
e18032,
e18033,
e18034,
e18035,
e18036,
e18037,
e18038,
e18040,
e18041,
e18042,
e18043,
e18044,
e18045,
e18046,
e18048,
e18049,
e18050,
e18052,
e18053,
e18054,
e18055,
e18056,
e18057,
e18058,
e18059,
e18060,
e18061,
e18062,
e18063,
e18065,
e18066,
e18067,
e18069,
e18070,
e18071,
e18072,
e18073,
e18074,
e18075,
e18076,
e18077,
e18078,
e18079,
e18080,
e18081,
e18082,
e18083,
e18084,
e18085,
e18086,
e18087,
e18088,
e18089,
e18090,
e18091,
e18092,
e18093,
e18094,
e18095,
e18096,
e18097,
e18098,
e18099,
e18100,
e18101,
e18102,
e18104,
e18105,
e18106,
e18108,
e18109,
e18110,
e18111,
e18501,
e18502,
e18503,
e18504,
e18505,
e18506,
e18507,
e18508,
e18509,
e18510,
e18512,
e18513,
e18514,
e18515,
e18516,
e18517,
e18518,"Medullary Thyroid Cancer, "
e18519,
e18520,
e18521,
e18522,
e18523,
e18524,
e18525,
e18526,
e18527,
e18528,
e18529,
e18530,
e18531,
e18532,"Solid Tumor, "
e18533,
e18534,
e18536,
e18537,
e18538,
e18539,
e18540,
e18541,
e18542,
e18544,
e18545,
e18547,
e18548,
e18549,
e18550,
e18551,
e18552,
e18553,
e18555,
e18556,
e18557,
e18558,
e18559,
e18560,
e18561,
e18562,
e18563,
e18564,
e18565,
e18566,
e18567,"Solid Tumor, "
e18568,
e18569,
e18570,
e18573,
e18574,
e18576,
e18577,
e18578,
e18579,
e19000,
e19001,
e19002,
e19003,
e19004,
e19005,
e19006,
e19007,
e19008,"Multiple Myeloma, "
e19009,
e19010,
e19011,
e19012,"Solid Tumor, "
e19013,", Prostate Cancer"
e19014,
e19015,
e19016,
e19017,
e19018,
e19019,
e19020,
e19021,
e19022,
e19023,
e19024,
e19025,
e19026,"Hepatocellular Carcinoma of Liver, "
e19027,
e19028,"Colon Cancer, "
e19029,
e19030,
e19032,
e19033,
e19034,
e19035,
e19036,
e19037,", Prostate Cancer"
e19038,
e19040,
e19041,
e19042,
e19043,
e19044,
e19045,
e19046,
e19047,
e19048,
e19049,
e19050,
e19051,
e19053,
e19054,
e19055,
e19056,
e19057,"Multiple Myeloma, "
e19058,
e19059,
e19060,
e19061,
e19062,
e19063,
e19064,
e19066,
e19067,
e19068,
e19069,
e19070,
e19071,
e19072,
e19073,
e19074,
e19075,
e19076,
e19077,", Prostate Cancer"
e19078,
e19081,
e19082,
e19083,
e19084,
e19085,
e19086,
e19087,
e19088,
e19089,
e19090,
e19091,
e19092,
e19093,
e19094,
e19095,
e19096,
e19097,
e19098,"Solid Tumor, "
e19099,", Prostate Cancer"
e19100,
e19101,
e19102,
e19103,
e19104,"Solid Tumor, "
e19105,
e19106,
e19107,
e19109,
e19110,
e19111,", Prostate Cancer"
e19112,
e19113,
e19114,
e19115,
e19116,
e19117,
e19118,"Solid Tumor, "
e19119,
e19120,
e19121,"Solid Tumor, "
e19123,
e19124,
e19126,
e19127,
e19128,
e19129,"Acute Myeloid Leukemia, "
e19131,", Metastatic Prostate Cancer"
e19132,
e19135,
e19136,"Multiple Myeloma, "
e19137,
e19138,", Metastatic Prostate Cancer"
e19139,
e19140,
e19141,
e19142,
e19144,
e19145,
e19146,
e19148,"Lymphoma, "
e19149,
e19150,
e19152,
e19153,
e19154,
e19155,
e19156,
e19157,
e19159,
e19160,
e19161,
e19163,
e19165,
e19166,
e19168,
e19169,
e19171,
e19172,"Acute Myeloid Leukemia, "
e19173,
e19174,
e19175,
e19176,
e19177,
e19178,
e19179,"Non Small Cell Lung Cancer, "
e19180,
e19181,"Non Small Cell Lung Cancer, "
e19182,
e19184,
e19185,
e19186,
e19187,
e19188,
e19189,
e19190,", Metastatic Prostate Cancer"
e19191,
e19192,
e19193,
e19194,
e19195,"Stage III Non Small Cell Lung Cancer, Stage IV Non Small Cell Lung Cancer, "
e19196,
e19197,
e19198,", Prostate Cancer"
e19199,
e19200,
e19201,"Lymphoma, "
e19202,
e19203,
e19204,
e19206,"Solid Tumor, "
e19207,
e19210,
e19211,
e19212,
e19213,", Prostate Cancer"
e19214,
e19215,
e19217,
e19218,
e19219,
e19220,
e19221,
e19222,
e19223,
e19224,
e19225,
e19226,
e19228,
e19229,
e19231,
e19232,
e19233,
e19234,
e19235,
e19236,
e19238,
e19239,
e19240,
e19241,
e19242,
e19243,
e19244,
e19246,
e19248,", Prostate Cancer"
e19249,
e19250,
e19251,
e19252,
e19253,
e19254,
e19255,", Prostate Cancer"
e19256,
e19257,
e19258,
e19259,
e19260,"Multiple Myeloma, "
e19261,", Prostate Cancer"
e19262,
e19265,
e19266,", Prostate Cancer"
e19267,
e19268,
e19270,"Non Small Cell Lung Cancer, "
e19272,
e19273,
e19274,"Gastric Cancer, "
e19276,"Non Small Cell Lung Cancer, "
e19277,
e19278,
e19279,
e19280,"Multiple Myeloma, "
e19283,
e19284,
e19285,
e19287,"Non Small Cell Lung Cancer, "
e19288,", Prostate Cancer"
e19289,
e19291,
e19293,"Non Small Cell Lung Cancer, "
e19294,
e19295,"Stage IV Non Small Cell Lung Cancer, "
e19296,
e19297,
e19299,
e19300,
e19301,
e19302,
e19303,"Solid Tumor, "
e19304,
e19305,
e19306,
e19307,
e19308,", Metastatic Prostate Cancer"
e19309,
e19310,
e19311,"Non Small Cell Lung Cancer, "
e19313,
e19314,
e19315,", Castration Resistant Advanced Prostate Cancer"
e19316,
e19317,
e19318,
e19319,", Metastatic Castration Resistant Prostate Cancer"
e19321,
e19322,", Metastatic Prostate Cancer"
e19323,
e19324,"Non Small Cell Lung Cancer, "
e19325,
e19326,
e19327,
e19328,
e19331,
e19332,"Multiple Myeloma, "
e19333,
e19334,
e19335,
e19336,"Acute Myeloid Leukemia, "
e19337,"Multiple Myeloma, "
e19339,
e19340,", Prostate Cancer"
e19341,
e19344,
e19345,"First-Line Non Small Cell Lung Cancer, "
e19346,"First-Line Non Small Cell Lung Cancer, "
e19347,
e19348,
e19349,
e19350,", Prostate Cancer"
e19351,
e19352,
e19353,
e19354,
e19355,
e19356,
e19357,
e19358,
e19359,
e19360,
e19361,
e19362,
e19364,"Non Small Cell Lung Cancer, "
e19365,
e19367,
e19368,
e19369,", Metastatic Prostate Cancer"
e19370,"Multiple Myeloma, "
e19371,
e19372,
e19373,
e19374,
e19375,
e19376,
e19379,
e19380,
e19381,
e19385,"Non Small Cell Lung Cancer, "
e19387,
e19388,
e19389,
e19390,
e19391,
e19392,
e19393,
e19394,
e19396,
e19397,
e19398,
e19399,
e19400,
e19401,"Non Small Cell Lung Cancer, "
e19402,
e19403,
e19404,"Non Small Cell Lung Cancer, "
e19405,
e19406,
e19407,
e19408,
e19409,
e19410,
e19500,"Acute Myeloid Leukemia, "
e19501,
e19502,"Acute Myeloid Leukemia, "
e19504,
e19505,"Acute Myeloid Leukemia, "
e19507,"Acute Myeloid Leukemia, "
e19509,"Relapsed/Refractory Acute Myeloid Leukemia, "
e19510,
e19511,
e19512,"Acute Myeloid Leukemia, "
e19513,"Acute Myeloid Leukemia, "
e19514,"Acute Myeloid Leukemia, "
e19515,"Acute Myeloid Leukemia, "
e19516,
e19517,"Acute Myeloid Leukemia, "
e19518,
e19519,"Lymphoma, "
e19520,
e19522,
e19523,
e19524,
e19525,
e19526,
e19527,
e19528,
e19530,
e19531,"Non Small Cell Lung Cancer, "
e19532,
e19533,
e19534,
e19535,
e19536,
e19537,
e19538,
e19539,
e19540,
e19542,"Acute Myeloid Leukemia, "
e19543,
e20000,"Lymphoma, "
e20001,"Lymphoma, "
e20002,"Lymphoma, "
e20003,"Lymphoma, "
e20004,"Lymphoma, "
e20009,"Lymphoma, "
e20011,"Lymphoma, "
e20012,"Lymphoma, "
e20013,"Classical Hodgkin Lymphoma, Lymphoma, "
e20015,"Lymphoma, "
e20016,"Lymphoma, "
e20017,"Lymphoma, "
e20018,"Lymphoma, "
e20019,"Lymphoma, "
e20020,"Lymphoma, "
e20021,"Lymphoma, "
e20022,"Lymphoma, "
e20024,"Lymphoma, "
e20025,"Lymphoma, "
e20026,"Lymphoma, "
e20027,"Lymphoma, "
e20028,"Lymphoma, "
e20029,"Lymphoma, "
e20030,"Lymphoma, "
e20031,"Lymphoma, "
e20033,"Lymphoma, "
e20034,"Lymphoma, "
e20035,"Lymphoma, "
e20036,"Lymphoma, "
e20037,"Lymphoma, "
e20038,"Lymphoma, "
e20039,"Lymphoma, "
e20040,"Lymphoma, "
e20041,"Lymphoma, Natural Killer T cell lymphoma, "
e20042,"Lymphoma, "
e20043,"Lymphoma, "
e20044,"Lymphoma, "
e20046,"Lymphoma, "
e20047,"Lymphoma, "
e20048,"Lymphoma, "
e20049,"Lymphoma, "
e20051,"Lymphoma, "
e20053,"Lymphoma, "
e20054,"Lymphoma, "
e20055,"Lymphoma, "
e20056,"Lymphoma, "
e20057,"Lymphoma, "
e20058,"Lymphoma, "
e20060,"Lymphoma, "
e20061,"Lymphoma, "
e20062,"Lymphoma, "
e20063,"Lymphoma, "
e20064,"Lymphoma, "
e20065,"Lymphoma, "
e20066,"Lymphoma, "
e20067,"Lymphoma, "
e20068,"Lymphoma, "
e20069,"Lymphoma, "
e20070,"Lymphoma, "
e20071,"Lymphoma, "
e20072,"Lymphoma, "
e20073,"Lymphoma, "
e20076,"Lymphoma, "
e20078,"Lymphoma, "
e20079,"Lymphoma, "
e20081,"Lymphoma, "
e20082,"Lymphoma, "
e20083,"Lymphoma, "
e20086,"Lymphoma, "
e20087,"Lymphoma, "
e20089,"Lymphoma, "
e20503,"Multiple Myeloma, "
e20504,"Multiple Myeloma, "
e20505,"Multiple Myeloma, "
e20506,"Multiple Myeloma, "
e20507,"Multiple Myeloma, "
e20508,"Relapsed/Refractory Multiple Myeloma, "
e20509,"Multiple Myeloma, "
e20510,"Multiple Myeloma, "
e20511,"Multiple Myeloma, "
e20512,"Multiple Myeloma, "
e20513,"Multiple Myeloma, "
e20514,"Multiple Myeloma, "
e20515,"Multiple Myeloma, "
e20516,"Multiple Myeloma, "
e20517,"Multiple Myeloma, "
e20518,"Multiple Myeloma, "
e20519,"Multiple Myeloma, "
e20520,"Multiple Myeloma, "
e20521,"Relapsed/Refractory Multiple Myeloma, "
e20522,"Multiple Myeloma, "
e20523,"Multiple Myeloma, "
e20524,"Multiple Myeloma, "
e20525,"Multiple Myeloma, "
e20526,"Multiple Myeloma, "
e20527,"Relapsed/Refractory Multiple Myeloma, "
e20528,"Relapsed/Refractory Multiple Myeloma, "
e20530,"Multiple Myeloma, "
e20531,"Relapsed/Refractory Multiple Myeloma, "
e20532,"Multiple Myeloma, "
e20534,"Multiple Myeloma, "
e20535,"Multiple Myeloma, "
e20536,"Multiple Myeloma, "
e20537,"Multiple Myeloma, "
e20539,"Multiple Myeloma, "
e20540,"Relapsed/Refractory Multiple Myeloma, "
e20542,"Multiple Myeloma, "
e20543,"Multiple Myeloma, "
e20544,"Multiple Myeloma, "
e20546,"Multiple Myeloma, "
e20547,"Relapsed/Refractory Multiple Myeloma, "
e20548,"Multiple Myeloma, "
e20549,"Multiple Myeloma, "
e20550,"Multiple Myeloma, "
e20551,"Multiple Myeloma, "
e20552,"Multiple Myeloma, "
e20553,"Multiple Myeloma, "
e20554,"Multiple Myeloma, "
e20556,"Multiple Myeloma, "
e20557,"Multiple Myeloma, "
e20558,"Multiple Myeloma, "
e20561,"Multiple Myeloma, "
e20562,"Relapsed/Refractory Multiple Myeloma, "
e20563,"Relapsed/Refractory Multiple Myeloma, "
e20565,"Multiple Myeloma, "
e20567,"Multiple Myeloma, "
e20568,
e20569,
e20570,"Relapsed/Refractory Multiple Myeloma, "
e21000,"Non Small Cell Lung Cancer, "
e21001,
e21002,"Non Small Cell Lung Cancer, "
e21003,
e21004,"Non Small Cell Lung Cancer, "
e21005,"Non Small Cell Lung Cancer, "
e21006,
e21007,
e21008,"Non Small Cell Lung Cancer, "
e21009,
e21010,
e21011,"Stage III Non Small Cell Lung Cancer, "
e21012,
e21013,"Non Small Cell Lung Cancer, "
e21014,"Non Small Cell Lung Cancer, "
e21015,
e21016,
e21017,
e21019,
e21020,
e21021,
e21022,
e21023,"Non Small Cell Lung Cancer, "
e21024,
e21025,
e21026,"Non Small Cell Lung Cancer, "
e21027,
e21028,
e21029,"Non Small Cell Lung Cancer, "
e21030,"Non Small Cell Lung Cancer, "
e21031,
e21032,
e21033,
e21035,"Non Small Cell Lung Cancer, "
e21036,
e21037,
e21038,
e21039,
e21040,"Non Small Cell Lung Cancer, "
e21041,
e21042,"Non Small Cell Lung Cancer, "
e21043,"Non Small Cell Lung Cancer, "
e21044,"Non Small Cell Lung Cancer, "
e21047,"Non Small Cell Lung Cancer, "
e21048,"Non Small Cell Lung Cancer, "
e21049,"Non Small Cell Lung Cancer, "
e21050,"Non Small Cell Lung Cancer, "
e21051,"Non Small Cell Lung Cancer, "
e21052,"Non Small Cell Lung Cancer, "
e21053,"Non Small Cell Lung Cancer, "
e21054,"Non Small Cell Lung Cancer, "
e21055,"Non Small Cell Lung Cancer, "
e21056,"Non Small Cell Lung Cancer, "
e21057,"Non Small Cell Lung Cancer, "
e21058,"Stage III Non Small Cell Lung Cancer, "
e21060,"Non Small Cell Lung Cancer, "
e21061,"Non Small Cell Lung Cancer, "
e21062,"Non Small Cell Lung Cancer, "
e21064,"Non Small Cell Lung Cancer, "
e21065,"Non Small Cell Lung Cancer, "
e21066,"Non Small Cell Lung Cancer, "
e21067,"Non Small Cell Lung Cancer, "
e21068,"Non Small Cell Lung Cancer, "
e21069,"Non Small Cell Lung Cancer, "
e21070,"Stage III Non Small Cell Lung Cancer, "
e21071,"Non Small Cell Lung Cancer, "
e21073,"Non Small Cell Lung Cancer, "
e21074,"Non Small Cell Lung Cancer, "
e21076,"Non Small Cell Lung Cancer, "
e21078,"Stage III Non Small Cell Lung Cancer, "
e21079,"Non Small Cell Lung Cancer, "
e21080,"Non Small Cell Lung Cancer, "
e21081,"Non Small Cell Lung Cancer, "
e21082,"Non Small Cell Lung Cancer, "
e21083,"Non Small Cell Lung Cancer, "
e21084,"Non Small Cell Lung Cancer, "
e21085,"Non Small Cell Lung Cancer, "
e21086,"Non Small Cell Lung Cancer, "
e21087,"Stage III Non Small Cell Lung Cancer, "
e21088,"Non Small Cell Lung Cancer, "
e21089,"Non Small Cell Lung Cancer, "
e21090,"Non Small Cell Lung Cancer, "
e21092,"Non Small Cell Lung Cancer, "
e21093,
e21094,
e21095,
e21096,
e21097,
e21098,
e21099,
e21101,
e21102,
e21103,
e21104,
e21107,
e21108,
e21109,
e21110,
e21111,
e21114,
e21115,
e21116,
e21117,
e21501,"Non Small Cell Lung Cancer, "
e21502,
e21503,
e21504,"Non Small Cell Lung Cancer, "
e21505,"Non Small Cell Lung Cancer, "
e21506,"Non Small Cell Lung Cancer, "
e21507,"Non Small Cell Lung Cancer, "
e21508,"Non Small Cell Lung Cancer, "
e21509,"Non Small Cell Lung Cancer, "
e21510,
e21511,
e21512,"Non Small Cell Lung Cancer, "
e21513,
e21514,"Non Small Cell Lung Cancer, "
e21515,"Non Small Cell Lung Cancer, "
e21516,
e21517,
e21518,
e21519,"First-Line Non Small Cell Lung Cancer, "
e21521,
e21522,"Non Small Cell Lung Cancer, "
e21523,
e21524,"Non Small Cell Lung Cancer, "
e21525,"Non Small Cell Lung Cancer, "
e21526,
e21527,"Non Small Cell Lung Cancer, "
e21528,"Non Small Cell Lung Cancer, "
e21529,
e21530,
e21531,"Non Small Cell Lung Cancer, "
e21534,
e21535,
e21536,"Non Small Cell Lung Cancer, "
e21537,"Non Small Cell Lung Cancer, "
e21538,"Non Small Cell Lung Cancer, "
e21539,"Second-Line Non Small Cell Lung Cancer, "
e21540,"Non Small Cell Lung Cancer, "
e21541,"Second-Line Non Small Cell Lung Cancer, "
e21542,"Non Small Cell Lung Cancer, "
e21543,
e21544,
e21546,"Second-Line Non Small Cell Lung Cancer, "
e21547,"Non Small Cell Lung Cancer, "
e21548,"Non Small Cell Lung Cancer, "
e21551,"Non Small Cell Lung Cancer, "
e21552,"Non Small Cell Lung Cancer, "
e21553,"Non Small Cell Lung Cancer, "
e21555,"Second-Line Non Small Cell Lung Cancer, "
e21556,"Non Small Cell Lung Cancer, "
e21557,"Non Small Cell Lung Cancer, "
e21558,"Non Small Cell Lung Cancer, "
e21560,"Non Small Cell Lung Cancer, "
e21562,"Non Small Cell Lung Cancer, "
e21563,"Non Small Cell Lung Cancer, "
e21564,"Non Small Cell Lung Cancer, "
e21566,"Non Small Cell Lung Cancer, "
e21567,"Non Small Cell Lung Cancer, "
e21568,"Non Small Cell Lung Cancer, "
e21569,"Non Small Cell Lung Cancer, "
e21570,"Non Small Cell Lung Cancer, "
e21571,"Non Small Cell Lung Cancer, "
e21572,"Non Small Cell Lung Cancer, "
e21573,"Non Small Cell Lung Cancer, "
e21574,"Non Small Cell Lung Cancer, "
e21575,"Non Small Cell Lung Cancer, "
e21576,"Non Small Cell Lung Cancer, "
e21577,"Non Small Cell Lung Cancer, "
e21578,"Non Small Cell Lung Cancer, "
e21579,"Non Small Cell Lung Cancer, "
e21580,"Non Small Cell Lung Cancer, "
e21581,"Non Small Cell Lung Cancer, "
e21582,"Non Small Cell Lung Cancer, "
e21583,"Non Small Cell Lung Cancer, "
e21584,"Non Small Cell Lung Cancer, "
e21585,"Non Small Cell Lung Cancer, "
e21586,"Non Small Cell Lung Cancer, "
e21587,"First-Line Non Small Cell Lung Cancer, "
e21589,"Non Small Cell Lung Cancer, "
e21590,"Non Small Cell Lung Cancer, "
e21591,"Non Small Cell Lung Cancer, "
e21592,"Non Small Cell Lung Cancer, "
e21593,"Non Small Cell Lung Cancer, "
e21594,"Non Small Cell Lung Cancer, "
e21595,"Non Small Cell Lung Cancer, "
e21596,"Second-Line Non Small Cell Lung Cancer, "
e21597,"Non Small Cell Lung Cancer, "
e21598,"Non Small Cell Lung Cancer, "
e21600,"Non Small Cell Lung Cancer, "
e21601,"Non Small Cell Lung Cancer, "
e21602,"Non Small Cell Lung Cancer, "
e21603,"Non Small Cell Lung Cancer, "
e21604,"Non Small Cell Lung Cancer, "
e21605,"Non Small Cell Lung Cancer, "
e21607,"Stage IV Non Small Cell Lung Cancer, "
e21608,"Non Small Cell Lung Cancer, "
e21609,"Non Small Cell Lung Cancer, "
e21611,"First-Line Non Small Cell Lung Cancer, "
e21612,"Non Small Cell Lung Cancer, "
e21614,"Non Small Cell Lung Cancer, "
e21615,"Non Small Cell Lung Cancer, "
e21616,"Non Small Cell Lung Cancer, "
e21617,"Non Small Cell Lung Cancer, "
e21618,"Non Small Cell Lung Cancer, "
e21620,"Second-Line Non Small Cell Lung Cancer, "
e21621,"Non Small Cell Lung Cancer, "
e21622,"Non Small Cell Lung Cancer, "
e21623,"First-Line Non Small Cell Lung Cancer, "
e21624,"Non Small Cell Lung Cancer, "
e21625,"Non Small Cell Lung Cancer, "
e21627,"Non Small Cell Lung Cancer, "
e21628,"Non Small Cell Lung Cancer, "
e21630,"Non Small Cell Lung Cancer, "
e21631,"Non Small Cell Lung Cancer, "
e21633,"Non Small Cell Lung Cancer, "
e21634,"Non Small Cell Lung Cancer, "
e21635,"Non Small Cell Lung Cancer, "
e21636,"Non Small Cell Lung Cancer, "
e21637,"Non Small Cell Lung Cancer, "
e21639,"Non Small Cell Lung Cancer, "
e21641,"First-Line Non Small Cell Lung Cancer, "
e21644,"Non Small Cell Lung Cancer, "
e21645,"Non Small Cell Lung Cancer, "
e21646,"Non Small Cell Lung Cancer, "
e21647,"Non Small Cell Lung Cancer, "
e21649,"Non Small Cell Lung Cancer, "
e21650,"Non Small Cell Lung Cancer, "
e21651,"Non Small Cell Lung Cancer, "
e21652,"Non Small Cell Lung Cancer, "
e21653,"Non Small Cell Lung Cancer, "
e21655,"Non Small Cell Lung Cancer, "
e21656,"Non Small Cell Lung Cancer, "
e21657,"Non Small Cell Lung Cancer, "
e21658,"Non Small Cell Lung Cancer, "
e21659,"Non Small Cell Lung Cancer, "
e21660,"Non Small Cell Lung Cancer, "
e21661,"Non Small Cell Lung Cancer, "
e21662,"Non Small Cell Lung Cancer, "
e21663,"Non Small Cell Lung Cancer, Solid Tumor, "
e21664,"Non Small Cell Lung Cancer, "
e21665,"Non Small Cell Lung Cancer, "
e21666,"Non Small Cell Lung Cancer, "
e21667,"Non Small Cell Lung Cancer, "
e21668,"Non Small Cell Lung Cancer, "
e21669,"Non Small Cell Lung Cancer, "
e21670,"Non Small Cell Lung Cancer, "
e21671,"Non Small Cell Lung Cancer, "
e21674,"Stage IV Non Small Cell Lung Cancer, "
e21675,"Non Small Cell Lung Cancer, "
e21677,"Non Small Cell Lung Cancer, "
e21679,"Non Small Cell Lung Cancer, "
e21680,"Non Small Cell Lung Cancer, "
e21682,"Non Small Cell Lung Cancer, "
e21683,"Non Small Cell Lung Cancer, "
e21684,"Non Small Cell Lung Cancer, "
e21685,"Lymphoma, Non Small Cell Lung Cancer, "
e21687,"Non Small Cell Lung Cancer, "
e21689,"Non Small Cell Lung Cancer, "
e21690,"Non Small Cell Lung Cancer, "
e21691,"Non Small Cell Lung Cancer, "
e21692,"Non Small Cell Lung Cancer, "
e21693,"Non Small Cell Lung Cancer, "
e21694,"Non Small Cell Lung Cancer, "
e21695,"Non Small Cell Lung Cancer, "
e21698,"Non Small Cell Lung Cancer, "
e21700,"Non Small Cell Lung Cancer, "
e21701,"Non Small Cell Lung Cancer, "
e21702,"Non Small Cell Lung Cancer, "
e21703,"First-Line Non Small Cell Lung Cancer, "
e21704,"Non Small Cell Lung Cancer, "
e21705,"Non Small Cell Lung Cancer, "
e21708,"Non Small Cell Lung Cancer, "
e21709,"Non Small Cell Lung Cancer, "
e21712,"Non Small Cell Lung Cancer, "
e21714,"Non Small Cell Lung Cancer, "
e21715,"Non Small Cell Lung Cancer, "
e21716,"Non Small Cell Lung Cancer, "
e21717,"Non Small Cell Lung Cancer, "
e21719,"Non Small Cell Lung Cancer, "
e21720,"Non Small Cell Lung Cancer, "
e21721,"Non Small Cell Lung Cancer, "
e21723,"Non Small Cell Lung Cancer, "
e21724,"Non Small Cell Lung Cancer, "
e21725,"Non Small Cell Lung Cancer, Lymphoma, "
e21726,"Non Small Cell Lung Cancer, "
e21727,"First-Line Non Small Cell Lung Cancer, "
e21728,"Non Small Cell Lung Cancer, "
e21729,"Non Small Cell Lung Cancer, "
e21731,"First-Line Non Small Cell Lung Cancer, "
e21732,"Non Small Cell Lung Cancer, "
e21733,"Non Small Cell Lung Cancer, "
e21734,"Non Small Cell Lung Cancer, "
e21736,"Non Small Cell Lung Cancer, "
e21737,"Non Small Cell Lung Cancer, "
e21738,"Non Small Cell Lung Cancer, "
e21740,"Non Small Cell Lung Cancer, "
e21741,"Non Small Cell Lung Cancer, "
e21742,"Non Small Cell Lung Cancer, "
e21743,"Non Small Cell Lung Cancer, "
e21744,"Stage IV Non Small Cell Lung Cancer, "
e21745,"Non Small Cell Lung Cancer, "
e22000,"Multiple Myeloma, "
e22001,
e22002,"Non Small Cell Lung Cancer, "
e22003,
e22005,
e22007,
e22008,
e22009,
e22010,
e22011,
e22012,
e22013,
e22014,
e22015,
e22016,
e22017,
e22018,
e22019,
e22020,"Multiple Myeloma, "
e22021,
e22022,
e22023,
e22024,
e22025,
e22026,
e22027,
e22028,
e22029,
e22030,
e22031,
e22032,
e22034,"Non Small Cell Lung Cancer, "
e22036,
e22039,
e22040,
e22041,
e22043,
e22044,"Multiple Myeloma, "
e22045,
e22046,
e22049,
e22050,"Solid Tumor, "
e22052,
e22054,
e22055,
e22059,
e22061,
e22062,
e22063,
e22064,
e22065,
e22066,
e22068,
e22070,
e22071,
e22072,
e22073,
e22075,
e22076,
e22077,
e22078,
e22079,
e22080,
e22081,
e22082,
e22083,
e22084,
e22085,
e22086,
e22087,
e22088,
e22089,
e22090,
e22091,
e22093,
e22094,
e22095,
e22096,
e22097,
e22098,
e22099,
e22100,
e22101,
e22102,
e22103,
e22104,
e22105,
e22106,
e22107,
e22108,
e22109,
e22501,"Lymphoma, "
e22502,"Acute Myeloid Leukemia, Lymphoma, "
e22503,"Lymphoma, "
e22504,"Lymphoma, "
e22507,"Lymphoma, "
e22508,"Acute Myeloid Leukemia, Lymphoma, "
e22509,"Solid Tumor, "
e22511,"Solid Tumor, "
e22512,"Solid Tumor, "
e22513,"Solid Tumor, "
e22514,"Solid Tumor, "
e22515,"Solid Tumor, "
e22516,"Solid Tumor, "
e22517,"Solid Tumor, "
e22518,"Solid Tumor, "
e22519,"Solid Tumor, "
e22521,"Solid Tumor, "
e22522,
e22523,
e22524,"Lymphoma, "
e22525,
e22526,
e22527,
e22528,
e22531,
e22532,
e22533,
e22534,
e22535,
e23000,
e23500,
e23501,
e23502,
e23503,
e23505,
e23507,
e23508,
e23509,
e23511,
e23512,
e23513,
e23514,"Gastroenterology Stromal Tumor, "
e23515,"Gastroenterology Stromal Tumor, "
e23516,"Gastroenterology Stromal Tumor, "
e23518,"Gastroenterology Stromal Tumor, "
e23519,"Gastroenterology Stromal Tumor, "
e23522,"Gastroenterology Stromal Tumor, "
e23524,"Gastroenterology Stromal Tumor, "
e23525,"PDGFRA exon 18 mutant Gastroenterology Stromal Tumor, "
e23526,"Gastroenterology Stromal Tumor, "
e23527,
e23528,
e23529,
e23530,
e23531,
e23532,
e23534,
e23536,
e23537,
e23538,
e23539,
e23540,
e23542,
e23543,
e23544,
e23545,
e23546,
e23547,
e23548,
e23549,
e23551,"Solid Tumor, "
e23552,
e23553,
e23554,
e23555,
e23556,
e23557,
e23558,
e23559,
e23560,
e23561,
e23562,
e23563,
e23564,
e23565,
e23566,
e23569,
e23570,
e23571,
e23572,
e23573,
e23574,
e23575,
e23576,
e23577,
e23579,
e23580,
e23581,
e24000,"Acute Myeloid Leukemia, "
e24002,"Acute Myeloid Leukemia, "
e24003,
e24005,"Solid Tumor, "
e24006,", Prostate Cancer"
e24007,
e24008,
e24009,
e24010,
e24011,
e24014,
e24016,
e24018,
e24019,
e24020,
e24021,
e24022,
e24023,
e24024,
e24027,
e24028,
e24030,"Acute Myeloid Leukemia, "
e24032,
e24033,
e24034,
e24035,
e24036,
e24037,
e24038,
e24040,
e24042,
e24043,
e24044,
e24046,
e24047,
e24048,
e24049,
e24050,
e24051,
e24052,
e24053,
e24054,
e24055,
e24056,
e24057,
e24059,
e24060,
e24061,", Prostate Cancer"
e24062,
e24064,
e24065,
e24066,
e24068,
e24069,
e24071,
e24072,
e24073,
e24074,
e24075,"Esophageal Squamous Cell Carcinoma, "
e24076,
e24078,
e24079,
e24080,
e24081,
e24082,
e24083,", Castration Resistant Prostate Cancer"
e24084,
e24085,
e24086,
e24087,
e24088,
e24089,
e24090,
e24091,
e24092,
e24093,
e24094,
e24095,
e24097,
e24098,
e24100,
e24101,
e24102,
e24103,
e24105,
e24106,
e24107,
e24108,
e24110,
e24111,
e24112,
e24113,
e24114,"Solid Tumor, "
e24115,
e24116,
e24117,
e24118,
e24121,
e24122,
e24123,
e24124,
e24125,
e24126,
e24127,
e24128,
e24129,
e24130,
e24131,
e24132,
e24133,
e24134,
e24135,
e24137,
e24138,
e24139,
e24140,
e24141,
e24142,
e24143,
e24144,", Prostate Cancer"
e24145,
e24146,
e24147,
e24148,
e24149,
e24150,
e24151,
e24152,
e24153,
e24154,
e24155,", Prostate Cancer"
e24156,
e24157,
e24160,
e24161,
e24162,
e24163,
e24164,
e24165,
e24166,
e24167,
e24168,
e24169,
e24170,
e24171,
e24172,
e24173,
e24174,", Castration Sensitive Prostate Cancer"
e24175,
e24176,", Localized Prostate Cancer"
e24177,
e24178,
e24179,
e24180,
e24181,", Prostate Cancer"
e24182,
e24183,
e24184,"Hepatocellular Carcinoma of Liver, "
e24185,"Non Small Cell Lung Cancer, "
e24186,
e24187,
e24188,
e24189,
e24190,
e24191,
e24192,"Lymphoma, "
e24193,
e24194,
e24195,
e24197,
e24198,
e24200,
e24201,
