﻿ID,NC_Disease,NC_Drug,NC_Firm,NC_Trial,NC_TA,NC_DrugClass,Priority
1,0,0,0,0,0,0,Not Relevant
2,0,0,0,0,1,0,Ignore
3,0,0,0,1,0,0,Not Relevant
4,0,0,0,1,1,0,Low
5,0,0,1,0,0,0,Not Relevant
6,0,0,1,0,1,0,Ignore
7,0,0,1,1,0,0,Not Relevant
8,0,0,1,1,1,0,Low
9,0,1,0,0,0,0,Not Relevant
10,0,1,0,0,1,0,Ignore
11,0,1,0,1,0,0,Not Relevant
12,0,1,0,1,1,0,Low
13,0,1,1,0,0,0,Not Relevant
14,0,1,1,0,1,0,Ignore
15,0,1,1,1,0,0,Not Relevant
16,0,1,1,1,1,0,Low
17,1,0,0,0,0,0,Low
18,1,0,0,0,1,0,Low
19,1,0,0,1,0,0,Low
20,1,0,0,1,1,0,Low
21,1,0,1,0,0,0,Low
22,1,0,1,0,1,0,Low
23,1,0,1,1,0,0,Medium
24,1,0,1,1,1,0,Medium
25,1,1,0,0,0,0,Low
26,1,1,0,0,1,0,Low
27,1,1,0,1,0,0,Medium
28,1,1,0,1,1,0,Medium
29,1,1,1,0,0,0,Medium
30,1,1,1,0,1,0,Medium
31,1,1,1,1,0,0,Medium
32,1,1,1,1,1,0,Medium
33,0,0,0,0,0,1,Not Relevant
34,0,0,0,0,1,1,Ignore
35,0,0,0,1,0,1,Not Relevant
36,0,0,0,1,1,1,Low
37,0,0,1,0,0,1,Not Relevant
38,0,0,1,0,1,1,Ignore
39,0,0,1,1,0,1,Not Relevant
40,0,0,1,1,1,1,Low
41,0,1,0,0,0,1,Not Relevant
42,0,1,0,0,1,1,Ignore
43,0,1,0,1,0,1,Not Relevant
44,0,1,0,1,1,1,Low
45,0,1,1,0,0,1,Not Relevant
46,0,1,1,0,1,1,Ignore
47,0,1,1,1,0,1,Not Relevant
48,0,1,1,1,1,1,Low
49,1,0,0,0,0,1,Low
50,1,0,0,0,1,1,Low
51,1,0,0,1,0,1,Medium
52,1,0,0,1,1,1,Medium
53,1,0,1,0,0,1,Medium
54,1,0,1,0,1,1,Medium
55,1,0,1,1,0,1,Medium
56,1,0,1,1,1,1,Medium
57,1,1,0,0,0,1,Medium
58,1,1,0,0,1,1,Medium
59,1,1,0,1,0,1,Medium
60,1,1,0,1,1,1,Medium
61,1,1,1,0,0,1,Medium
62,1,1,1,0,1,1,Medium
63,1,1,1,1,0,1,High
64,1,1,1,1,1,1,High