Internal ID,FilteredPatient Subgroup
7,"First Line, Advanced"
13,"Metastatic, MSI-H"
19,Advanced
21,Relapsed/Refractory
75,Metastatic
76,Metastatic
77,Metastatic
79,Metastatic
80,Metastatic
81,Metastatic
83,"Metastatic, Advanced"
84,Metastatic
85,Metastatic
88,Metastatic
109,Advanced
119,"IDH1-Mutant, Relapsed/Refractory"
122,Advanced
124,Advanced
126,Advanced
127,Metastatic
128,Advanced
130,Metastatic
134,Metastatic
137,Advanced
140,Advanced
145,Metastatic
146,Metastatic
147,"Metastatic, First Line"
149,Stage III
150,Stage III
151,Metastatic
160,Advanced
165,"First Line, Advanced"
166,"Advanced, Second Line"
167,Advanced
170,"First Line, Advanced"
174,Advanced
176,Advanced
177,Advanced
178,Advanced
179,Metastatic
181,Metastatic
183,Metastatic
187,Advanced
188,Advanced
190,Metastatic
191,Metastatic
192,Metastatic
200,Advanced
210,Metastatic
212,"First Line, Metastatic"
214,Metastatic
215,"Metastatic, Second Line"
225,Advanced
229,IDH1-Mutant
238,Relapsed/Refractory
241,Relapsed/Refractory
242,Relapsed/Refractory
246,Relapsed/Refractory
250,Relapsed/Refractory
252,Relapsed/Refractory
254,Relapsed/Refractory
257,Relapsed/Refractory
258,Relapsed/Refractory
265,First Line
266,First Line
268,First Line
269,"Advanced, Second Line"
275,"Metastatic, First Line, Advanced"
276,"First Line, Metastatic"
277,Metastatic
279,"First Line, Metastatic"
280,Metastatic
281,Metastatic
283,Metastatic
284,"Metastatic, First Line"
285,"Metastatic, First Line"
287,Stage III
288,Stage III
289,Stage III
293,Metastatic
295,Advanced
296,Metastatic
297,Metastatic
299,Relapsed/Refractory
300,Relapsed/Refractory
301,Stage III
314,"Advanced, Relapsed/Refractory"
321,Metastatic
324,Metastatic
331,"First Line, Metastatic, Advanced"
332,Advanced
347,Advanced
349,Advanced
351,Advanced
354,Advanced
355,Advanced
359,Metastatic
365,Advanced
366,First Line
373,Advanced
375,Metastatic
377,Advanced
379,Advanced
381,Advanced
383,Metastatic
386,Metastatic
388,Advanced
389,Advanced
391,Metastatic
394,Advanced
416,Metastatic
417,"Metastatic, Advanced"
418,Metastatic
420,"Metastatic, Second Line"
421,Metastatic
422,"Metastatic, Advanced"
424,Metastatic
425,Metastatic
427,Metastatic
428,Metastatic
429,"Metastatic, Advanced"
431,Advanced
447,Advanced
478,Metastatic
479,Advanced
482,Relapsed/Refractory
486,Advanced
487,Metastatic
492,Advanced
493,Metastatic
495,Advanced
496,Advanced
497,Metastatic
499,Advanced
500,Advanced
501,Advanced
503,Advanced
505,First Line
509,Stage III
516,Metastatic
517,Metastatic
518,"Metastatic, First Line"
520,Advanced
521,"Metastatic, MSI-H"
522,Advanced
526,Advanced
529,Advanced
530,"Advanced, Metastatic, Second Line"
537,Advanced
541,"First Line, Metastatic"
542,Metastatic
543,Metastatic
544,Advanced
547,Stage III
551,Metastatic
565,Metastatic
566,Advanced
567,Metastatic
575,Stage III
579,Advanced
581,Advanced
588,Metastatic
589,Metastatic
595,"First Line, Metastatic"
596,Advanced
599,"Second Line, Metastatic"
600,Metastatic
604,Second Line
619,Relapsed/Refractory
621,Relapsed/Refractory
631,Relapsed/Refractory
632,Relapsed/Refractory
636,Relapsed/Refractory
639,Relapsed/Refractory
640,Relapsed/Refractory
644,Relapsed/Refractory
645,Relapsed/Refractory
647,Relapsed/Refractory
648,Relapsed/Refractory
649,Relapsed/Refractory
660,Relapsed/Refractory
663,"First Line, Stage III"
665,Stage III
669,Relapsed/Refractory
674,"Second Line, Relapsed/Refractory"
678,Metastatic
679,Metastatic
680,Metastatic
682,"Metastatic, Advanced"
683,Metastatic
684,Metastatic
685,Metastatic
687,Metastatic
688,"Metastatic, Advanced"
690,"Metastatic, First Line"
691,Metastatic
694,Advanced
697,Stage III
701,Advanced
703,Advanced
706,Advanced
709,Relapsed/Refractory
717,Relapsed/Refractory
718,Advanced
724,Advanced
725,Advanced
726,Advanced
728,Advanced
729,Advanced
730,Advanced
732,Advanced
733,Advanced
734,Advanced
736,Advanced
737,Advanced
738,Advanced
740,"Metastatic, Advanced"
742,Metastatic
744,Advanced
749,Advanced
753,Metastatic
754,"First Line, Advanced"
756,Advanced
757,Advanced
765,Metastatic
766,Advanced
777,Advanced
808,Metastatic
814,Metastatic
817,"Metastatic, Advanced"
842,"First Line, Metastatic"
852,Metastatic
853,Metastatic
854,"Metastatic, Stage III"
855,Metastatic
856,Metastatic
857,Metastatic
858,Metastatic
859,Metastatic
860,Metastatic
861,Metastatic
862,Metastatic
863,Metastatic
864,Metastatic
865,Metastatic
866,Metastatic
867,Metastatic
868,Metastatic
869,Metastatic
870,Metastatic
871,Metastatic
872,Metastatic
873,Metastatic
874,Metastatic
875,Metastatic
876,Metastatic
877,"Metastatic, Advanced"
878,"Metastatic, Advanced"
879,"Metastatic, Advanced"
880,"Metastatic, First Line"
881,Metastatic
882,"Metastatic, First Line"
883,Metastatic
884,"Metastatic, Advanced, Second Line"
885,Metastatic
886,Metastatic
887,Metastatic
888,Metastatic
889,Metastatic
890,Metastatic
891,"Metastatic, Advanced"
892,"Metastatic, Advanced"
893,Metastatic
894,"Metastatic, Advanced"
895,Metastatic
896,Metastatic
897,"Metastatic, Advanced"
898,Metastatic
899,"Metastatic, Advanced"
900,"Metastatic, Advanced"
901,Metastatic
902,Metastatic
903,Metastatic
904,Metastatic
905,Metastatic
906,Metastatic
907,Metastatic
908,Metastatic
909,Metastatic
910,"Metastatic, Advanced"
911,Metastatic
912,"Metastatic, Advanced"
913,Metastatic
914,"Metastatic, Advanced"
915,Metastatic
916,"Metastatic, Advanced"
917,Metastatic
918,"Metastatic, Advanced"
919,Metastatic
920,Metastatic
921,"Metastatic, Advanced"
922,"Metastatic, Relapsed/Refractory"
923,Metastatic
924,Metastatic
925,Metastatic
926,Metastatic
927,"Metastatic, First Line"
928,Metastatic
929,Metastatic
930,"Metastatic, First Line"
931,Metastatic
932,Metastatic
933,Metastatic
934,Metastatic
935,Metastatic
936,Metastatic
956,Advanced
984,Advanced
992,Metastatic
1019,Advanced
1026,Metastatic
1031,Advanced
1033,Metastatic
1034,Metastatic
1051,Stage III
1058,Metastatic
1069,Metastatic
1077,"First Line, Metastatic"
1079,Advanced
1082,Metastatic
1130,Advanced
1132,Relapsed/Refractory
1134,Relapsed/Refractory
1137,Metastatic
1138,"Advanced, Relapsed/Refractory"
1141,Advanced
1142,Relapsed/Refractory
1147,Relapsed/Refractory
1153,Advanced
1154,Advanced
1156,Metastatic
1157,Stage III
1161,Advanced
1163,Advanced
1164,Advanced
1165,Advanced
1166,MSI-H
1167,Advanced
1168,Advanced
1169,Advanced
1171,Advanced
1177,Advanced
1180,Metastatic
1184,Advanced
1185,Metastatic
1186,"First Line, Advanced"
1189,Metastatic
1190,"Metastatic, Advanced"
1198,Metastatic
1199,Advanced
1200,Advanced
1201,Advanced
1203,Metastatic
1205,Metastatic
1206,Advanced
1207,Advanced
1209,"Metastatic, Advanced"
1210,"Advanced, Relapsed/Refractory"
1216,Metastatic
1235,Metastatic
1240,Advanced
1244,Metastatic
1246,"First Line, Advanced"
1247,Advanced
1248,Advanced
1249,Relapsed/Refractory
1250,Relapsed/Refractory
1252,Metastatic
1253,Metastatic
1254,Advanced
1255,Advanced
1256,Advanced
1257,Advanced
1258,Advanced
1260,"Metastatic, Advanced"
1262,Advanced
1263,Advanced
1265,Advanced
1266,"Metastatic, Advanced"
1269,"Metastatic, Advanced"
1272,Advanced
1273,Advanced
1275,Advanced
1278,Metastatic
1289,Metastatic
1292,First Line
1300,Metastatic
1301,Relapsed/Refractory
1302,Advanced
1303,Advanced
1306,Metastatic
1311,Metastatic
1315,Advanced
1323,Metastatic
1329,"Metastatic, Advanced"
1331,"Advanced, Metastatic"
1333,Advanced
1336,Advanced
1337,Advanced
1339,Advanced
1340,Advanced
1342,Metastatic
1343,Advanced
1354,Advanced
1356,Advanced
1357,Advanced
1360,Advanced
1367,Advanced
1374,Advanced
1378,Advanced
1385,Metastatic
1388,Advanced
1393,Advanced
1394,Metastatic
1395,Metastatic
1398,"Metastatic, Advanced"
1399,Advanced
1401,Advanced
1402,Advanced
1404,Advanced
1405,Advanced
1406,Metastatic
1407,Advanced
1408,Advanced
1409,Advanced
1410,Advanced
1411,Advanced
1413,"First Line, Metastatic"
1414,Metastatic
1416,Metastatic
1419,Metastatic
1420,"Metastatic, First Line"
1422,Metastatic
1423,"Advanced, MSI-H"
1424,Metastatic
1426,Metastatic
1427,"Metastatic, Second Line"
1428,Metastatic
1429,"First Line, Metastatic, MSI-H, dMMR"
1432,Metastatic
1437,Metastatic
1438,Metastatic
1439,Metastatic
1440,Metastatic
1450,Metastatic
1453,Stage III
1455,Metastatic
1457,Stage III
1458,Metastatic
1459,Metastatic
1463,Stage III
1465,Metastatic
1469,"3L, Metastatic"
1471,Metastatic
1473,Metastatic
1475,Metastatic
1476,Metastatic
1481,Metastatic
1482,Metastatic
1485,MSI-H
1488,Stage III
1493,Advanced
1497,Metastatic
1499,Relapsed/Refractory
1500,"First Line, Advanced"
1501,"Metastatic, Second Line"
1503,"First Line, Advanced"
1505,Stage III
1509,Stage III
1510,Advanced
1511,Metastatic
1512,Advanced
1513,"Second Line, Advanced"
1514,Advanced
1515,Advanced
1516,Advanced
1518,Metastatic
1519,Metastatic
1520,Advanced
1521,"First Line, Advanced"
1523,Advanced
1529,Second Line
1530,Metastatic
1532,Metastatic
1539,Advanced
1543,Metastatic
1545,Metastatic
1546,Metastatic
1550,Advanced
1552,"First Line, Metastatic"
1560,Advanced
1561,"Advanced, IDH1-Mutant"
1564,Metastatic
1567,"First Line, Advanced"
1569,Advanced
1570,First Line
1572,Advanced
1573,Advanced
1575,Advanced
1576,"Metastatic, Advanced, Second Line"
1577,"First Line, Advanced"
1580,Advanced
1582,"Second Line, Metastatic, Advanced"
1586,Advanced
1588,"Metastatic, First Line"
1589,Advanced
1591,Metastatic
1594,Metastatic
1598,Advanced
1600,Metastatic
1601,Advanced
1605,Metastatic
1606,"Metastatic, Advanced, First Line"
1608,"Metastatic, Second Line"
1610,Metastatic
1615,Metastatic
1617,Advanced
1618,Metastatic
1622,Advanced
1623,"First Line, Advanced"
1627,Advanced
1629,Advanced
1630,Stage III
1631,"First Line, Advanced, Metastatic"
1635,"Advanced, Second Line"
1638,Metastatic
1639,Metastatic
1640,"Metastatic, Advanced, Second Line"
1642,Advanced
1644,"First Line, Metastatic"
1645,Metastatic
1647,"Metastatic, Second Line"
1648,"First Line, Metastatic"
1649,Second Line
1650,"First Line, Metastatic"
1651,"Metastatic, First Line"
1652,Metastatic
1654,Metastatic
1659,Metastatic
1661,Metastatic
1663,"First Line, Advanced"
1664,"Second Line, Metastatic"
1665,Metastatic
1666,"First Line, Advanced"
1667,Metastatic
1668,Metastatic
1669,Metastatic
1670,"Metastatic, Advanced, First Line"
1671,Metastatic
1672,Metastatic
1676,Metastatic
1680,Metastatic
1682,Metastatic
1683,Metastatic
1686,Advanced
1687,Advanced
1688,Metastatic
1689,Advanced
1691,"Second Line, Metastatic"
1694,"First Line, Second Line, Metastatic"
1696,Metastatic
1697,Advanced
1698,Advanced
1700,"First Line, Advanced"
1701,First Line
1702,Metastatic
1705,Metastatic
1706,Advanced
1710,Metastatic
1711,Advanced
1712,Advanced
1716,Advanced
1717,Metastatic
1720,Advanced
1723,Metastatic
1725,Advanced
1729,Advanced
1731,Metastatic
1734,Advanced
1737,Metastatic
1738,Metastatic
1739,Metastatic
1740,Metastatic
1741,Metastatic
1743,Metastatic
1746,Metastatic
1747,Metastatic
1748,"Metastatic, Advanced"
1749,Metastatic
1750,Metastatic
1751,Metastatic
1752,Metastatic
1753,Metastatic
1755,Advanced
1756,Metastatic
1757,Metastatic
1758,Metastatic
1759,Metastatic
1761,Metastatic
1762,Metastatic
1763,Metastatic
1764,Metastatic
1765,Metastatic
1766,Metastatic
1767,Metastatic
1772,Metastatic
1773,Metastatic
1774,Metastatic
1777,Metastatic
1778,Metastatic
1779,"Second Line, Metastatic"
1780,Metastatic
1782,Metastatic
1783,Metastatic
1784,"First Line, Metastatic"
1785,Metastatic
1786,Metastatic
1787,Metastatic
1789,Metastatic
1790,Metastatic
1791,Metastatic
1792,Metastatic
1801,Metastatic
1802,Metastatic
1803,Metastatic
1804,Metastatic
1805,Metastatic
1807,Metastatic
1808,Metastatic
1809,Metastatic
1810,Metastatic
1811,"Metastatic, First Line"
1812,Metastatic
1813,Metastatic
1821,Metastatic
1823,Advanced
1828,Advanced
1834,Advanced
1835,Advanced
1836,Advanced
1838,Advanced
1840,Advanced
1863,Advanced
1869,Metastatic
1871,Advanced
1873,"Metastatic, Advanced"
1874,MSI-H
1875,Advanced
1876,Advanced
1883,Metastatic
1887,Advanced
1888,Stage III
1889,"First Line, Stage III"
1890,First Line
1891,Advanced
1893,Advanced
1894,"First Line, Advanced"
1895,Advanced
1896,"First Line, Advanced"
1897,Advanced
1898,"First Line, Metastatic"
1901,Metastatic
1902,"First Line, Metastatic"
1904,Metastatic
1907,Metastatic
1909,Metastatic
1911,Metastatic
1913,Metastatic
1914,Metastatic
1916,Advanced
1917,Metastatic
1918,Metastatic
1919,Metastatic
1921,Metastatic
1924,Metastatic
1932,Advanced
1947,Advanced
1951,Metastatic
1952,Metastatic
1954,"First Line, Metastatic"
1956,"First Line, Metastatic"
1958,First Line
1959,Metastatic
1962,Metastatic
1972,Metastatic
1974,Stage III
1983,Stage III
1985,Stage III
2001,Metastatic
2012,Metastatic
2021,Metastatic
2023,Metastatic
2026,"Relapsed/Refractory, IDH1-Mutant"
2041,Relapsed/Refractory
2067,Relapsed/Refractory
2068,Relapsed/Refractory
2071,Relapsed/Refractory
2072,First Line
2078,First Line
2081,Relapsed/Refractory
2082,First Line
2086,Relapsed/Refractory
2087,Relapsed/Refractory
2090,Relapsed/Refractory
2092,Relapsed/Refractory
2093,"Second Line, Relapsed/Refractory"
2099,Relapsed/Refractory
2103,Relapsed/Refractory
2106,Relapsed/Refractory
2111,Advanced
2121,Advanced
2123,Relapsed/Refractory
2127,Relapsed/Refractory
2128,Relapsed/Refractory
2134,Relapsed/Refractory
2138,Relapsed/Refractory
2139,Relapsed/Refractory
2144,Relapsed/Refractory
2145,Relapsed/Refractory
2149,Relapsed/Refractory
2154,Relapsed/Refractory
2155,Relapsed/Refractory
2159,Relapsed/Refractory
2160,Relapsed/Refractory
2162,Relapsed/Refractory
2163,Relapsed/Refractory
2170,Stage III
2174,Stage III
2175,Stage III
2185,Stage III
2187,Stage III
2190,Stage III
2191,Stage III
2195,Second Line
2197,Advanced
2200,Relapsed/Refractory
2205,"Advanced, Second Line"
2207,Advanced
2210,First Line
2211,First Line
2222,First Line
2224,3L
2226,Metastatic
2227,"Metastatic, First Line, Advanced"
2228,"Metastatic, Advanced"
2229,Metastatic
2230,Metastatic
2231,Metastatic
2232,Metastatic
2233,Metastatic
2234,Metastatic
2235,"Metastatic, Advanced"
2236,Metastatic
2237,Metastatic
2238,Metastatic
2239,Metastatic
2240,Metastatic
2241,"Metastatic, First Line, Advanced"
2242,Metastatic
2243,Metastatic
2244,Metastatic
2245,Metastatic
2246,Metastatic
2247,"Metastatic, First Line, Advanced"
2248,"Metastatic, Advanced"
2249,"Metastatic, Advanced"
2250,Metastatic
2251,"Metastatic, Advanced"
2252,"Metastatic, Advanced"
2253,Metastatic
2254,"First Line, Metastatic, Advanced"
2255,Metastatic
2256,Metastatic
2257,"Second Line, Metastatic"
2258,"Metastatic, First Line"
2259,"Metastatic, Advanced"
2260,Metastatic
2261,"First Line, Metastatic"
2262,Metastatic
2263,"Metastatic, Advanced"
2264,"Metastatic, First Line"
2265,"Metastatic, First Line"
2266,"Metastatic, First Line, Advanced"
2267,Metastatic
2268,"Metastatic, Advanced"
2269,Metastatic
2270,"Metastatic, First Line"
2271,Metastatic
2272,Metastatic
2273,Metastatic
2274,Metastatic
2275,Metastatic
2276,"Metastatic, Advanced"
2277,Metastatic
2278,"Metastatic, Advanced"
2279,Metastatic
2280,Metastatic
2281,Metastatic
2282,"Metastatic, Advanced"
2283,Metastatic
2284,Metastatic
2285,Metastatic
2286,Metastatic
2287,Metastatic
2288,"Metastatic, Advanced"
2289,"Metastatic, Advanced"
2290,Metastatic
2291,"First Line, Metastatic"
2292,Metastatic
2293,Metastatic
2294,Metastatic
2295,"Metastatic, Advanced"
2296,Metastatic
2297,"Metastatic, Advanced"
2298,Metastatic
2299,Metastatic
2300,Metastatic
2301,Metastatic
2302,Metastatic
2303,"Metastatic, Advanced"
2304,"Metastatic, Advanced"
2305,Metastatic
2306,Metastatic
2307,Metastatic
2308,Metastatic
2309,"Metastatic, First Line"
2310,"Metastatic, Advanced"
2311,Metastatic
2312,"Metastatic, Advanced"
2313,"Metastatic, Advanced"
2314,Metastatic
2315,Metastatic
2316,Metastatic
2317,Metastatic
2318,"Metastatic, Advanced"
2319,Metastatic
2320,Metastatic
2321,"Metastatic, First Line"
2322,"Metastatic, Advanced"
2323,Metastatic
2324,Metastatic
2325,Metastatic
2326,"Metastatic, First Line"
2327,"Metastatic, First Line, Advanced"
2328,Metastatic
2329,Metastatic
2330,"Metastatic, Advanced"
2331,Metastatic
2334,Advanced
2335,Advanced
2336,Advanced
2337,Advanced
2338,Metastatic
2340,Advanced
2341,"First Line, Advanced"
2343,Metastatic
2344,Advanced
2347,Advanced
2348,Advanced
2349,Advanced
2350,Advanced
2351,"First Line, Metastatic"
2352,Metastatic
2353,Advanced
2354,Advanced
2355,Metastatic
2356,"3L, First Line, Advanced, Second Line"
2357,Metastatic
2359,Metastatic
2360,Advanced
2364,Metastatic
2367,Stage III
2381,Advanced
2382,Advanced
2384,Metastatic
2386,Metastatic
2387,Metastatic
2388,Stage III
2389,Stage III
2404,Relapsed/Refractory
2416,Advanced
2420,Relapsed/Refractory
2421,Advanced
2422,Advanced
2423,Advanced
2424,Advanced
2425,Advanced
2426,Advanced
2427,Advanced
2428,Advanced
2429,Advanced
2430,Advanced
2431,Advanced
2432,Advanced
2433,Advanced
2434,Advanced
2435,Advanced
2436,Advanced
2437,Advanced
2438,Advanced
2439,Advanced
2440,Advanced
2441,Advanced
2442,Advanced
2443,Advanced
2444,Advanced
2445,Advanced
2446,Advanced
2447,Advanced
2448,Advanced
2449,Advanced
2450,"Metastatic, Advanced"
2451,Advanced
2453,Relapsed/Refractory
2454,Metastatic
2455,Advanced
2460,Advanced
2461,"First Line, Advanced"
2468,"Advanced, Fourth-line"
2471,Advanced
2473,Advanced
2475,Advanced
2477,Advanced
2479,Advanced
2481,Advanced
2482,Metastatic
2484,Metastatic
2485,Advanced
2487,Metastatic
2489,Metastatic
2490,Advanced
2493,Relapsed/Refractory
2494,Metastatic
2495,Advanced
2496,Advanced
2497,"Metastatic, Advanced"
2498,"3L, Advanced"
2499,Advanced
2500,Advanced
2503,Advanced
2504,Metastatic
2506,"Second Line, Advanced"
2511,Metastatic
2512,Metastatic
2514,Advanced
2516,Advanced
2550,Advanced
2551,Advanced
2552,Metastatic
2556,Advanced
2563,Advanced
2572,Advanced
2580,Advanced
2582,Metastatic
2595,Metastatic
