source_id,name,label
SDC001,Cryptochrome stabilizers,
SDC002,Cryptochrome modulators,
SDR001,SHP1705,
SDS001,GBM,
SDS002,Hypercortisolism,
OTH004,Molecular-Clock,
OTH005,SCN,
OTH005,Suprachiasmatic nuclei,
OTH006,Circadian-clock,
GNE001,brain and muscle aryl-hydrocarbon receptor nuclear translocator-like 1,
GNE002,circadian locomotor output cycles kaput,
SDC003,Core Clock Activators,
GNE003,Period Circadian Regulator 1,
GNE004,Period Circadian Regulator 2,
GNE005,Period Circadian Regulator 3,
OTH007,CRY,
GNE006,Cryptochrome Circadian Regulator 1,
GNE007,Cryptochrome Circadian Regulator 2,
GNE008,RAR-related orphan receptor,
GNE009,PAS Domain Containing Repressor 1,
GNE010,peroxisome proliferatorĐactivated receptor gamma,
GNE010,peroxisome proliferator activated receptor gamma,
GNE011,MIR132,
GNE011,microRNA 132,
GNE011,miR132,
GNE011,miR 132,
GNE011,MIRN132,
GNE011,miRNA132,
GNE012,MIR219,
GNE012,microRNA 219,
GNE012,miR219,
GNE012,miR 219,
GNE012,miRNA219,
GNE012,MIR219-1,
GNE012,MRI219-1,
GNE012,MIRN219-1,
GNE012,mir-219a-1,
GNE012,hsa-mir-219a-1,
GNE013,Nuclear Receptor Subfamily 1 Group D Member 1,
GNE013,"Nuclear Receptor Subfamily 1, Group D, Member 1",
GNE014,neuronal PAS domain protein 2,
GNE015,REV ERB,
GNE016,Timeless gene,
GNE016,Timeless,
GNE017,TIMELESS Interacting Protein,
GNE018,REV-ERB alpha,
GNE018,REV ERB_,
GNE018,REV-ERB _,
GNE018,REVERB _,
GNE019,REV-ERB beta,
GNE019,REV ERB_,
GNE019,REV-ERB _,
GNE019,REVERB_,
GNE020,Casein kinase I isoform epsilon,
SDC001,Cryptochrome stabilizer,
SDC002,Cryptochrome modulator,
SDR001,SHP-1705,
SDS001,Glioblastoma,
SDS002,Cushing Syndrome,
OTH001,SHP-1705-001,
OTH002,Circadian Rhythm,
OTH003,Chronotherapy,
OTH004,Molecular Clock,
OTH005,Suprachiasmatic Nucleus,
OTH006,Circadian clock,
GNE001,BMAL1,
GNE002,CLOCK,
SDC003,Core Clock Activator,
GNE003,PER1,
GNE004,PER2,
GNE005,PER3,
OTH007,Cryptochrome,
GNE006,CRY1,
GNE007,CRY2,
GNE008,ROR,
GNE009,PASD1,
GNE010,PPAR_,
GNE011,miR-132,
GNE012,miR-219,
GNE013,NR1D1,
GNE014,NPAS2,
GNE015,REV-ERB,
GNE016,TIM,
GNE017,TIPIN,
GNE018,REV-ERB_,
GNE019,REV-ERB_,
GNE020,CK1_,
OTH008,Biological Clock,
OTH008,Biological-Clock,