Internal ID,value
849,Cladribine
314,Teriflunomide
2803,Peginterferon Beta-1A
2611,Ocrelizumab
1653,Fingolimod
1421,Alemtuzumab
1420,Alemtuzumab
2463,Dimethyl Fumarate
18,Alemtuzumab
2682,Alemtuzumab
936,Dimethyl Fumarate
2079,Ocrelizumab
2904,Alemtuzumab
660,Fingolimod
915,Ocrelizumab
1035,Ocrelizumab
2979,Cladribine
923,Siponimod
711,Dimethyl Fumarate
926,Fingolimod
2986,Natalizumab
2059,Ocrelizumab
2281,Natalizumab
1239,RPC-1063
2530,Ibudilast
1665,Natalizumab
2696,Fingolimod
2061,Ocrelizumab
1831,Siponimod
792,Dimethyl Fumarate
2837,Teriflunomide
1219,Glatiramer
492,Cladribine
1776,Fingolimod
1983,Alemtuzumab
2125,RPC-1063
2465,Fingolimod
1359,Dimethyl Fumarate
1360,Fingolimod
125,Natalizumab
798,Diroximel Fumarate
1621,Fingolimod
269,Ofatumumab
469,Alemtuzumab
2243,Natalizumab
490,Cladribine
1037,Ocrelizumab
1047,Ocrelizumab
2175,Peginterferon Beta-1A
1673,Fingolimod
2209,Opicinumab
2466,Glatiramer
2731,Alemtuzumab
1917,RPC-1063
2670,Cladribine
1865,Natalizumab
2205,Elezanumab
1652,Dimethyl Fumarate
1462,Fingolimod
709,Dimethyl Fumarate
2905,Alemtuzumab
1703,Ocrelizumab
2562,Dimethyl Fumarate
148,Alemtuzumab
1132,Fingolimod
453,Natalizumab
1882,Natalizumab
951,Fingolimod
939,Fingolimod
2199,Ocrelizumab
1857,Glatiramer
119,Dimethyl Fumarate
1906,Cladribine
1131,Fingolimod
443,Fingolimod
955,Evobrutinib
688,Alemtuzumab
710,Dimethyl Fumarate
2304,Glatiramer
3036,Ocrelizumab
2236,Natalizumab
2619,Natalizumab
1471,Onabotulinumtoxina
1472,Onabotulinumtoxina
793,Dimethyl Fumarate
305,Onabotulinumtoxina
693,Onabotulinumtoxina
88,Alemtuzumab
954,Teriflunomide
2268,Teriflunomide
1816,NurOwn
906,Ibudilast
905,Ibudilast
1033,Cladribine
929,Fingolimod
1034,Natalizumab
1388,Onabotulinumtoxina
75,Cladribine
1548,Teriflunomide
103,Fingolimod
803,Fingolimod
1195,Cladribine
812,Cladribine
865,Natalizumab
971,Natalizumab
819,Ofatumumab
897,Cladribine
944,Ocrelizumab
857,Onabotulinumtoxina
236,Fingolimod
892,Alemtuzumab
1812,Fingolimod
2835,Cladribine
2836,Teriflunomide
1987,Cladribine
2073,Onabotulinumtoxina
2303,Interferon beta-1b
2095,Dimethyl Fumarate
2130,Fingolimod
853,Interferon beta-1a
2481,Ocrelizumab
2484,Ocrelizumab
2060,Ocrelizumab
1487,Ocrelizumab
2044,Cladribine
2302,Dimethyl Fumarate
1674,Teriflunomide
1672,Interferon beta-1b
2174,Interferon beta-1a
2197,Siponimod
409,Alemtuzumab
491,Cladribine
512,Alemtuzumab
791,Dimethyl Fumarate
2457,Teriflunomide
2464,Ocrelizumab
2462,Alemtuzumab
2446,Fingolimod
2485,Onabotulinumtoxina
2482,Natalizumab
2931,Ocrelizumab
LBS11,NurOwn
