source_id,label
DIS000065,Disease
DRB000373,Drug
DRB000435,Drug
DRB000163,Drug
DRB001219,Drug
DRB001220,Drug
DRB003600,Drug
DRB001459,Drug
DRB004680,Drug
DRB001922,Drug
DRB002104,Drug
DRB002105,Drug
DRB004319,Drug
DRB003040,Drug
DRB002398,Drug
DRB002400,Drug
DRB002399,Drug
DRB002943,Drug
DRB003028,Drug
DRB003174,Drug
DRB003177,Drug
DRB000245,Drug
DRB003317,Drug
DRB003828,Drug
DRB004006,Drug
DRU000037,Drug
DRU023679,Drug
DRU000277,Drug
DRU000371,Drug
DRU006638,Drug
DRU020988,Drug
DRU007013,Drug
DRU007074,Drug
DRU007697,Drug
DRU007703,Drug
DRU028225,Drug
DRU001545,Drug
DRU001655,Drug
DRU001739,Drug
DRU020082,Drug
DRU009597,Drug
DRU010069,Drug
DRU010091,Drug
DRU010445,Drug
DRU027050,Drug
DRU002502,Drug
DRU010792,Drug
DRU002727,Drug
DRU027162,Drug
DRU011391,Drug
DRU002941,Drug
DRU002962,Drug
DRU012265,Drug
DRU003041,Drug
DRU012398,Drug
DRU003326,Drug
DRU003445,Drug
DRU014191,Drug
DRU003832,Drug
DRU003877,Drug
DRU028134,Drug
DRU004030,Drug
DRU004046,Drug
DRU004081,Drug
DRU015469,Drug
DRU004258,Drug
DRU028145,Drug
DRU016628,Drug
DRU017076,Drug
DRU017092,Drug
DRU004843,Drug
DRU017601,Drug
DRU004972,Drug
DRU005259,Drug
FIR010491,Agency
FIR005658,Agency
FIR009568,Agency
FIR000267,Agency
FIR007123,Agency
FIR001136,Agency
FIR010549,Agency
FIR000967,Agency
FIR001770,Agency
FIR002875,Agency
FIR006902,Agency
FIR006519,Agency
FIR000901,Agency
FIR000203,Agency
FIR000596,Agency
FIR010938,Agency
FIR003753,Agency
FIR000093,Agency
FIR010908,Agency
FIR007774,Agency
FIR011435,Agency
FIR011283,Agency
FIR007173,Agency
FIR007271,Agency
FIR004527,Agency
FIR010821,Agency
FIR009584,Agency
FIR000036,Agency
FIR010752,Agency
FIR010566,Agency
FIR011511,Agency
FIR000075,Agency
FIR005177,Agency
FIR010599,Agency
FIR010936,Agency
FIR010713,Agency
FIR000618,Agency
FIR011765,Agency
FIR010838,Agency
FIR009199,Agency
FIR002146,Agency
NCT00001156,Trial
NCT00001248,Trial
NCT00001669,Trial
NCT00001781,Trial
NCT00001934,Trial
NCT00004645,Trial
NCT00004744,Trial
NCT00004814,Trial
NCT00004816,Trial
NCT00006060,Trial
NCT00010842,Trial
NCT00010998,Trial
NCT00011375,Trial
NCT00014755,Trial
NCT00017628,Trial
NCT00027300,Trial
NCT00030966,Trial
NCT00035529,Trial
NCT00037102,Trial
NCT00037115,Trial
NCT00037947,Trial
NCT00039988,Trial
NCT00040482,Trial
NCT00043264,Trial
NCT00047580,Trial
NCT00050232,Trial
NCT00050778,Trial
NCT00053417,Trial
NCT00062972,Trial
NCT00064909,Trial
NCT00067327,Trial
NCT00071838,Trial
NCT00076934,Trial
NCT00078338,Trial
NCT00079495,Trial
NCT00086671,Trial
NCT00087529,Trial
NCT00094068,Trial
NCT00094172,Trial
NCT00095329,Trial
NCT00097188,Trial
NCT00097331,Trial
NCT00097760,Trial
NCT00099307,Trial
NCT00099502,Trial
NCT00101959,Trial
NCT00103974,Trial
NCT00104143,Trial
NCT00109161,Trial
NCT00110396,Trial
NCT00112034,Trial
NCT00122954,Trial
NCT00127075,Trial
NCT00127530,Trial
NCT00134563,Trial
NCT00137176,Trial
NCT00137904,Trial
NCT00139789,Trial
NCT00142402,Trial
NCT00142714,Trial
NCT00146068,Trial
NCT00146159,Trial
NCT00147446,Trial
NCT00151294,Trial
NCT00151801,Trial
NCT00156676,Trial
NCT00166283,Trial
NCT00168701,Trial
NCT00168714,Trial
NCT00168766,Trial
NCT00176592,Trial
NCT00179478,Trial
NCT00185211,Trial
NCT00190268,Trial
NCT00210301,Trial
NCT00211887,Trial
NCT00213135,Trial
NCT00217295,Trial
NCT00219908,Trial
NCT00220428,Trial
NCT00220493,Trial
NCT00220506,Trial
NCT00220779,Trial
NCT00220922,Trial
NCT00223301,Trial
NCT00223457,Trial
NCT00228163,Trial
NCT00228228,Trial
NCT00228397,Trial
NCT00229502,Trial
NCT00230204,Trial
NCT00232193,Trial
NCT00235989,Trial
NCT00238654,Trial
NCT00239655,Trial
NCT00239993,Trial
NCT00240032,Trial
NCT00241254,Trial
NCT00242177,Trial
NCT00245622,Trial
NCT00246324,Trial
NCT00248378,Trial
NCT00260741,Trial
NCT00261326,Trial
NCT00262314,Trial
NCT00267319,Trial
NCT00270816,Trial
NCT00273364,Trial
NCT00276172,Trial
NCT00276341,Trial
NCT00278655,Trial
NCT00280592,Trial
NCT00288626,Trial
NCT00288990,Trial
NCT00289159,Trial
NCT00289978,Trial
NCT00291148,Trial
NCT00292253,Trial
NCT00292266,Trial
NCT00296205,Trial
NCT00297232,Trial
NCT00298662,Trial
NCT00300716,Trial
NCT00306592,Trial
NCT00313976,Trial
NCT00315367,Trial
NCT00317564,Trial
NCT00317941,Trial
NCT00321568,Trial
NCT00324506,Trial
NCT00325988,Trial
NCT00331747,Trial
NCT00333138,Trial
NCT00337779,Trial
NCT00338637,Trial
NCT00338741,Trial
NCT00340834,Trial
NCT00342134,Trial
NCT00342381,Trial
NCT00343590,Trial
NCT00344253,Trial
NCT00349193,Trial
NCT00360906,Trial
NCT00364936,Trial
NCT00367484,Trial
NCT00370071,Trial
NCT00376506,Trial
NCT00381264,Trial
NCT00381576,Trial
NCT00390221,Trial
NCT00391079,Trial
NCT00391352,Trial
NCT00393588,Trial
NCT00395200,Trial
NCT00395317,Trial
NCT00398528,Trial
NCT00404352,Trial
NCT00405353,Trial
NCT00411723,Trial
NCT00414453,Trial
NCT00418145,Trial
NCT00420212,Trial
NCT00423111,Trial
NCT00423527,Trial
NCT00424359,Trial
NCT00424788,Trial
NCT00429442,Trial
NCT00430599,Trial
NCT00432900,Trial
NCT00436826,Trial
NCT00439257,Trial
NCT00451451,Trial
NCT00457730,Trial
NCT00459667,Trial
NCT00461396,Trial
NCT00463710,Trial
NCT00464074,Trial
NCT00467584,Trial
NCT00468182,Trial
NCT00468611,Trial
NCT00469378,Trial
NCT00472797,Trial
NCT00472992,Trial
NCT00473213,Trial
NCT00475865,Trial
NCT00477113,Trial
NCT00480181,Trial
NCT00483652,Trial
NCT00483847,Trial
NCT00484536,Trial
NCT00488839,Trial
NCT00489489,Trial
NCT00490906,Trial
NCT00492466,Trial
NCT00492570,Trial
NCT00492765,Trial
NCT00493077,Trial
NCT00493116,Trial
NCT00493298,Trial
NCT00497952,Trial
NCT00498199,Trial
NCT00200655,Trial
NCT00202254,Trial
NCT00202384,Trial
NCT00202397,Trial
NCT00202410,Trial
NCT00202423,Trial
NCT00202982,Trial
NCT00203021,Trial
NCT00203047,Trial
NCT00203073,Trial
NCT00203086,Trial
NCT00203099,Trial
NCT00203112,Trial
NCT00206635,Trial
NCT00207727,Trial
NCT00355134,Trial
NCT00358293,Trial
NCT00441103,Trial
NCT00445367,Trial
NCT00501696,Trial
NCT00501943,Trial
NCT00509145,Trial
NCT00513448,Trial
NCT00516893,Trial
NCT00525343,Trial
NCT00525668,Trial
NCT00529581,Trial
NCT00530348,Trial
NCT00532532,Trial
NCT00534261,Trial
NCT00536120,Trial
NCT00537082,Trial
NCT00548405,Trial
NCT00548769,Trial
NCT00552604,Trial
NCT00559702,Trial
NCT00573443,Trial
NCT00587691,Trial
NCT00588393,Trial
NCT00591721,Trial
NCT00594087,Trial
NCT00595920,Trial
NCT00599274,Trial
NCT00605215,Trial
NCT00607126,Trial
NCT00612872,Trial
NCT00616187,Trial
NCT00616733,Trial
NCT00618527,Trial
NCT00619307,Trial
NCT00621374,Trial
NCT00622700,Trial
NCT00623415,Trial
NCT00629642,Trial
NCT00630383,Trial
NCT00630721,Trial
NCT00638027,Trial
NCT00638833,Trial
NCT00640328,Trial
NCT00642902,Trial
NCT00644904,Trial
NCT00645749,Trial
NCT00648908,Trial
NCT00649792,Trial
NCT00654927,Trial
NCT00662649,Trial
NCT00666224,Trial
NCT00666887,Trial
NCT00670449,Trial
NCT00674141,Trial
NCT00674934,Trial
NCT00675883,Trial
NCT00676156,Trial
NCT00676715,Trial
NCT00678496,Trial
NCT00678795,Trial
NCT00681538,Trial
NCT00682929,Trial
NCT00688948,Trial
NCT00695084,Trial
NCT00702065,Trial
NCT00702468,Trial
NCT00704626,Trial
NCT00704834,Trial
NCT00711646,Trial
NCT00716066,Trial
NCT00725985,Trial
NCT00726648,Trial
NCT00735007,Trial
NCT00744679,Trial
NCT00751881,Trial
NCT00752778,Trial
NCT00753792,Trial
NCT00754832,Trial
NCT00755807,Trial
NCT00764413,Trial
NCT00771043,Trial
NCT00772525,Trial
NCT00781872,Trial
NCT00784836,Trial
NCT00785473,Trial
NCT00794352,Trial
NCT00799890,Trial
NCT00799942,Trial
NCT00803049,Trial
NCT00811395,Trial
NCT00811902,Trial
NCT00812474,Trial
NCT00813709,Trial
NCT00818038,Trial
NCT00818103,Trial
NCT00819000,Trial
NCT00819195,Trial
NCT00828204,Trial
NCT00835770,Trial
NCT00836719,Trial
NCT00837785,Trial
NCT00841321,Trial
NCT00843128,Trial
NCT00845338,Trial
NCT00852722,Trial
NCT00853762,Trial
NCT00854750,Trial
NCT00856518,Trial
NCT00859482,Trial
NCT00861172,Trial
NCT00870155,Trial
NCT00870740,Trial
NCT00871780,Trial
NCT00872053,Trial
NCT00873340,Trial
NCT00876447,Trial
NCT00879658,Trial
NCT00881205,Trial
NCT00882453,Trial
NCT00882999,Trial
NCT00883337,Trial
NCT00884481,Trial
NCT00888277,Trial
NCT00902135,Trial
NCT00906399,Trial
NCT00906737,Trial
NCT00910598,Trial
NCT00912860,Trial
NCT00913250,Trial
NCT00913510,Trial
NCT00913666,Trial
NCT00914290,Trial
NCT00914758,Trial
NCT00915460,Trial
NCT00915577,Trial
NCT00917839,Trial
NCT00919217,Trial
NCT00922831,Trial
NCT00928967,Trial
NCT00930553,Trial
NCT00937157,Trial
NCT00937677,Trial
NCT00938366,Trial
NCT00940719,Trial
NCT00942214,Trial
NCT00942591,Trial
NCT00944190,Trial
NCT00947232,Trial
NCT00947895,Trial
NCT00954421,Trial
NCT00959218,Trial
NCT00963833,Trial
NCT00965497,Trial
NCT00970333,Trial
NCT00972062,Trial
NCT00978536,Trial
NCT00981084,Trial
NCT00981643,Trial
NCT00984984,Trial
NCT00986960,Trial
NCT00988988,Trial
NCT00997438,Trial
NCT01005095,Trial
NCT01006265,Trial
NCT01006941,Trial
NCT01013350,Trial
NCT01018485,Trial
NCT01018537,Trial
NCT01020370,Trial
NCT01023074,Trial
NCT01024777,Trial
NCT01024985,Trial
NCT01026272,Trial
NCT01028209,Trial
NCT01031199,Trial
NCT01031459,Trial
NCT01034579,Trial
NCT01037088,Trial
NCT01039103,Trial
NCT01040117,Trial
NCT01044576,Trial
NCT01047319,Trial
NCT01049451,Trial
NCT01051349,Trial
NCT01057719,Trial
NCT01058005,Trial
NCT01064401,Trial
NCT01065090,Trial
NCT01065727,Trial
NCT01067521,Trial
NCT01067573,Trial
NCT01070719,Trial
NCT01070823,Trial
NCT01070836,Trial
NCT01071512,Trial
NCT01071694,Trial
NCT01074346,Trial
NCT01074619,Trial
NCT01074827,Trial
NCT01075737,Trial
NCT01075880,Trial
NCT01076595,Trial
NCT01077466,Trial
NCT01079975,Trial
NCT01080001,Trial
NCT01080014,Trial
NCT01080027,Trial
NCT01080040,Trial
NCT01080053,Trial
NCT01080573,Trial
NCT01081275,Trial
NCT01081782,Trial
NCT01084798,Trial
NCT01085318,Trial
NCT01086371,Trial
NCT01089686,Trial
NCT01101776,Trial
NCT01103583,Trial
NCT01106365,Trial
NCT01108887,Trial
NCT01110993,Trial
NCT01111435,Trial
NCT01111656,Trial
NCT01112345,Trial
NCT01112657,Trial
NCT01116427,Trial
NCT01118130,Trial
NCT01122056,Trial
NCT01127750,Trial
NCT01128075,Trial
NCT01134627,Trial
NCT01141751,Trial
NCT01142453,Trial
NCT01142466,Trial
NCT01142492,Trial
NCT01142518,Trial
NCT01142557,Trial
NCT01142583,Trial
NCT01143441,Trial
NCT01144052,Trial
NCT01144117,Trial
NCT01144351,Trial
NCT01149525,Trial
NCT01156298,Trial
NCT01156311,Trial
NCT01157728,Trial
NCT01158183,Trial
NCT01166178,Trial
NCT01167426,Trial
NCT01171209,Trial
NCT01181115,Trial
NCT01184833,Trial
NCT01185717,Trial
NCT01185821,Trial
NCT01188811,Trial
NCT01191996,Trial
NCT01194570,Trial
NCT01198132,Trial
NCT01199640,Trial
NCT01199861,Trial
NCT01201343,Trial
NCT01201356,Trial
NCT01201707,Trial
NCT01202227,Trial
NCT01206023,Trial
NCT01207648,Trial
NCT01207856,Trial
NCT01212094,Trial
NCT01214317,Trial
NCT01216072,Trial
NCT01219647,Trial
NCT01220830,Trial
NCT01225289,Trial
NCT01226654,Trial
NCT01226745,Trial
NCT01233245,Trial
NCT01235221,Trial
NCT01235455,Trial
NCT01236534,Trial
NCT01244139,Trial
NCT01247324,Trial
NCT01250665,Trial
NCT01250678,Trial
NCT01252355,Trial
NCT01257958,Trial
NCT01259388,Trial
NCT01271699,Trial
NCT01272128,Trial
NCT01272596,Trial
NCT01279655,Trial
NCT01279876,Trial
NCT01280539,Trial
NCT01281657,Trial
NCT01285401,Trial
NCT01299025,Trial
NCT01303770,Trial
NCT01305837,Trial
NCT01310166,Trial
NCT01317004,Trial
NCT01318421,Trial
NCT01324232,Trial
NCT01326715,Trial
NCT01328379,Trial
NCT01332019,Trial
NCT01333358,Trial
NCT01333501,Trial
NCT01337427,Trial
NCT01337986,Trial
NCT01339234,Trial
NCT01339676,Trial
NCT01353547,Trial
NCT01354665,Trial
NCT01356940,Trial
NCT01357980,Trial
NCT01359566,Trial
NCT01364246,Trial
NCT01366027,Trial
NCT01366040,Trial
NCT01371071,Trial
NCT01371760,Trial
NCT01377805,Trial
NCT01377870,Trial
NCT01380041,Trial
NCT01381354,Trial
NCT01384825,Trial
NCT01387217,Trial
NCT01392872,Trial
NCT01395316,Trial
NCT01396343,Trial
NCT01399957,Trial
NCT01403376,Trial
NCT01405820,Trial
NCT01405872,Trial
NCT01407211,Trial
NCT01411514,Trial
NCT01412333,Trial
NCT01413243,Trial
NCT01414725,Trial
NCT01414816,Trial
NCT01416155,Trial
NCT01416363,Trial
NCT01417273,Trial
NCT01417312,Trial
NCT01419301,Trial
NCT01420055,Trial
NCT01424423,Trial
NCT01424462,Trial
NCT01428505,Trial
NCT01428726,Trial
NCT01431937,Trial
NCT01432704,Trial
NCT01433250,Trial
NCT01433497,Trial
NCT01435694,Trial
NCT01435993,Trial
NCT01436643,Trial
NCT01436838,Trial
NCT01440062,Trial
NCT01440101,Trial
NCT01442194,Trial
NCT01442233,Trial
NCT01444300,Trial
NCT01448252,Trial
NCT01450072,Trial
NCT01450124,Trial
NCT01450488,Trial
NCT01451723,Trial
NCT01453764,Trial
NCT01453868,Trial
NCT01454791,Trial
NCT01455220,Trial
NCT01456416,Trial
NCT01457924,Trial
NCT01462318,Trial
NCT01464749,Trial
NCT01464905,Trial
NCT01465087,Trial
NCT01466114,Trial
NCT01466322,Trial
NCT01470521,Trial
NCT01480063,Trial
NCT01480076,Trial
NCT01485003,Trial
NCT01487096,Trial
NCT01489254,Trial
NCT01489748,Trial
NCT01490502,Trial
NCT01490840,Trial
NCT01491100,Trial
NCT01497262,Trial
NCT01498887,Trial
NCT01500408,Trial
NCT01507636,Trial
NCT01512329,Trial
NCT01514370,Trial
NCT01516554,Trial
NCT01517282,Trial
NCT01518660,Trial
NCT01532037,Trial
NCT01532154,Trial
NCT01534182,Trial
NCT01535664,Trial
NCT01538225,Trial
NCT01538355,Trial
NCT01539395,Trial
NCT01541618,Trial
NCT01547234,Trial
NCT01547351,Trial
NCT01555684,Trial
NCT01556685,Trial
NCT01563900,Trial
NCT01564511,Trial
NCT01567553,Trial
NCT01569451,Trial
NCT01572207,Trial
NCT01572714,Trial
NCT01576354,Trial
NCT01578330,Trial
NCT01578785,Trial
NCT01582126,Trial
NCT01585298,Trial
NCT01585766,Trial
NCT01587690,Trial
NCT01591551,Trial
NCT01592097,Trial
NCT01592474,Trial
NCT01592552,Trial
NCT01596881,Trial
NCT01597297,Trial
NCT01599234,Trial
NCT01600716,Trial
NCT01601080,Trial
NCT01601119,Trial
NCT01604265,Trial
NCT01606137,Trial
NCT01606215,Trial
NCT01610310,Trial
NCT01610687,Trial
NCT01610700,Trial
NCT01610713,Trial
NCT01611987,Trial
NCT01615887,Trial
NCT01617395,Trial
NCT01621269,Trial
NCT01624714,Trial
NCT01626248,Trial
NCT01627938,Trial
NCT01628276,Trial
NCT01628315,Trial
NCT01628393,Trial
NCT01632293,Trial
NCT01633112,Trial
NCT01639300,Trial
NCT01641120,Trial
NCT01647880,Trial
NCT01649050,Trial
NCT01651520,Trial
NCT01656148,Trial
NCT01658384,Trial
NCT01659593,Trial
NCT01663649,Trial
NCT01667484,Trial
NCT01667497,Trial
NCT01667796,Trial
NCT01679041,Trial
NCT01695434,Trial
NCT01698086,Trial
NCT01699555,Trial
NCT01701856,Trial
NCT01703429,Trial
NCT01704183,Trial
NCT01705457,Trial
NCT01706055,Trial
NCT01706107,Trial
NCT01707992,Trial
NCT01709812,Trial
NCT01720849,Trial
NCT01723631,Trial
NCT01723709,Trial
NCT01730547,Trial
NCT01737372,Trial
NCT01738347,Trial
NCT01740830,Trial
NCT01742052,Trial
NCT01743651,Trial
NCT01743664,Trial
NCT01744444,Trial
NCT01745783,Trial
NCT01746342,Trial
NCT01749943,Trial
NCT01753375,Trial
NCT01755871,Trial
NCT01758224,Trial
NCT01763983,Trial
NCT01764737,Trial
NCT01765361,Trial
NCT01766063,Trial
NCT01767493,Trial
NCT01767701,Trial
NCT01768039,Trial
NCT01772199,Trial
NCT01774123,Trial
NCT01774201,Trial
NCT01780792,Trial
NCT01783665,Trial
NCT01790269,Trial
NCT01791244,Trial
NCT01795872,Trial
NCT01796860,Trial
NCT01797965,Trial
NCT01802489,Trial
NCT01802931,Trial
NCT01803867,Trial
NCT01804647,Trial
NCT01805336,Trial
NCT01805986,Trial
NCT01808482,Trial
NCT01811290,Trial
NCT01815632,Trial
NCT01816100,Trial
NCT01817166,Trial
NCT01824550,Trial
NCT01829776,Trial
NCT01834586,Trial
NCT01836055,Trial
NCT01837017,Trial
NCT01838668,Trial
NCT01838824,Trial
NCT01842191,Trial
NCT01844232,Trial
NCT01845896,Trial
NCT01846234,Trial
NCT01847287,Trial
NCT01848327,Trial
NCT01854359,Trial
NCT01854957,Trial
NCT01863069,Trial
NCT01863888,Trial
NCT01864148,Trial
NCT01864941,Trial
NCT01865357,Trial
NCT01866878,Trial
NCT01868048,Trial
NCT01871337,Trial
NCT01871818,Trial
NCT01873417,Trial
NCT01874145,Trial
NCT01874340,Trial
NCT01879202,Trial
NCT01881191,Trial
NCT01883310,Trial
NCT01883661,Trial
NCT01884935,Trial
NCT01888354,Trial
NCT01890655,Trial
NCT01891071,Trial
NCT01892722,Trial
NCT01895335,Trial
NCT01895439,Trial
NCT01896700,Trial
NCT01900093,Trial
NCT01906684,Trial
NCT01909492,Trial
NCT01910259,Trial
NCT01911377,Trial
NCT01911767,Trial
NCT01914016,Trial
NCT01915433,Trial
NCT01917019,Trial
NCT01918501,Trial
NCT01918748,Trial
NCT01918800,Trial
NCT01930708,Trial
NCT01930799,Trial
NCT01932593,Trial
NCT01933802,Trial
NCT01939002,Trial
NCT01941004,Trial
NCT01943526,Trial
NCT01947036,Trial
NCT01947582,Trial
NCT01954823,Trial
NCT01954875,Trial
NCT01956227,Trial
NCT01964547,Trial
NCT01968902,Trial
NCT01970410,Trial
NCT01973491,Trial
NCT01973517,Trial
NCT01981161,Trial
NCT01982942,Trial
NCT01986998,Trial
NCT01992679,Trial
NCT01993004,Trial
NCT01993095,Trial
NCT01994018,Trial
NCT02004444,Trial
NCT02005237,Trial
NCT02006160,Trial
NCT02008669,Trial
NCT02010398,Trial
NCT02011451,Trial
NCT02012439,Trial
NCT02016222,Trial
NCT02017808,Trial
NCT02019550,Trial
NCT02021162,Trial
NCT02030197,Trial
NCT02034188,Trial
NCT02035514,Trial
NCT02038049,Trial
NCT02040116,Trial
NCT02040298,Trial
NCT02043964,Trial
NCT02045732,Trial
NCT02046629,Trial
NCT02047097,Trial
NCT02047734,Trial
NCT02047760,Trial
NCT02047825,Trial
NCT02048072,Trial
NCT02048358,Trial
NCT02057159,Trial
NCT02059096,Trial
NCT02064816,Trial
NCT02065284,Trial
NCT02073474,Trial
NCT02076841,Trial
NCT02081508,Trial
NCT02082002,Trial
NCT02084121,Trial
NCT02086188,Trial
NCT02087631,Trial
NCT02090348,Trial
NCT02090413,Trial
NCT02097849,Trial
NCT02099370,Trial
NCT02104492,Trial
NCT02104661,Trial
NCT02106052,Trial
NCT02117050,Trial
NCT02117375,Trial
NCT02121444,Trial
NCT02123537,Trial
NCT02125604,Trial
NCT02131285,Trial
NCT02133664,Trial
NCT02136485,Trial
NCT02137044,Trial
NCT02137109,Trial
NCT02137707,Trial
NCT02141022,Trial
NCT02141386,Trial
NCT02142192,Trial
NCT02142205,Trial
NCT02142764,Trial
NCT02142946,Trial
NCT02143167,Trial
NCT02146534,Trial
NCT02149706,Trial
NCT02152085,Trial
NCT02157064,Trial
NCT02159573,Trial
NCT02166021,Trial
NCT02184494,Trial
NCT02193217,Trial
NCT02193906,Trial
NCT02200718,Trial
NCT02201108,Trial
NCT02201849,Trial
NCT02205489,Trial
NCT02207075,Trial
NCT02208050,Trial
NCT02209467,Trial
NCT02218879,Trial
NCT02219932,Trial
NCT02220244,Trial
NCT02220933,Trial
NCT02222948,Trial
NCT02225977,Trial
NCT02227524,Trial
NCT02230969,Trial
NCT02232061,Trial
NCT02234713,Trial
NCT02234869,Trial
NCT02236624,Trial
NCT02239393,Trial
NCT02241785,Trial
NCT02247310,Trial
NCT02252666,Trial
NCT02253264,Trial
NCT02254304,Trial
NCT02257606,Trial
NCT02258217,Trial
NCT02259361,Trial
NCT02264704,Trial
NCT02266121,Trial
NCT02269930,Trial
NCT02274935,Trial
NCT02275741,Trial
NCT02280096,Trial
NCT02280876,Trial
NCT02282826,Trial
NCT02282878,Trial
NCT02283671,Trial
NCT02283853,Trial
NCT02283918,Trial
NCT02286557,Trial
NCT02287454,Trial
NCT02287948,Trial
NCT02290444,Trial
NCT02290587,Trial
NCT02290990,Trial
NCT02291107,Trial
NCT02293967,Trial
NCT02294058,Trial
NCT02297932,Trial
NCT02301247,Trial
NCT02301260,Trial
NCT02301442,Trial
NCT02301572,Trial
NCT02305264,Trial
NCT02306811,Trial
NCT02307838,Trial
NCT02307877,Trial
NCT02308137,Trial
NCT02308579,Trial
NCT02308670,Trial
NCT02310048,Trial
NCT02313285,Trial
NCT02314585,Trial
NCT02315872,Trial
NCT02317263,Trial
NCT02323269,Trial
NCT02326935,Trial
NCT02331654,Trial
NCT02335450,Trial
NCT02339675,Trial
NCT02340754,Trial
NCT02342704,Trial
NCT02343159,Trial
NCT02346279,Trial
NCT02346734,Trial
NCT02352194,Trial
NCT02361697,Trial
NCT02364505,Trial
NCT02364986,Trial
NCT02365259,Trial
NCT02367222,Trial
NCT02369224,Trial
NCT02369926,Trial
NCT02377323,Trial
NCT02383550,Trial
NCT02386566,Trial
NCT02388334,Trial
NCT02389426,Trial
NCT02390830,Trial
NCT02391064,Trial
NCT02391298,Trial
NCT02391961,Trial
NCT02394782,Trial
NCT02398149,Trial
NCT02398461,Trial
NCT02403570,Trial
NCT02403947,Trial
NCT02408367,Trial
NCT02408380,Trial
NCT02408718,Trial
NCT02410200,Trial
NCT02410278,Trial
NCT02411838,Trial
NCT02418325,Trial
NCT02418897,Trial
NCT02419378,Trial
NCT02419638,Trial
NCT02421731,Trial
NCT02421744,Trial
NCT02423083,Trial
NCT02425644,Trial
NCT02427776,Trial
NCT02427997,Trial
NCT02428218,Trial
NCT02428231,Trial
NCT02430532,Trial
NCT02433028,Trial
NCT02440516,Trial
NCT02442557,Trial
NCT02442570,Trial
NCT02446886,Trial
NCT02461069,Trial
NCT02463318,Trial
NCT02466074,Trial
NCT02466165,Trial
NCT02468765,Trial
NCT02471222,Trial
NCT02471560,Trial
NCT02472938,Trial
NCT02474134,Trial
NCT02481882,Trial
NCT02485223,Trial
NCT02486562,Trial
NCT02486640,Trial
NCT02489877,Trial
NCT02490046,Trial
NCT02490943,Trial
NCT02493049,Trial
NCT02493166,Trial
NCT02495766,Trial
NCT02496416,Trial
NCT02499900,Trial
NCT02504840,Trial
NCT02506751,Trial
NCT02508961,Trial
NCT02509897,Trial
NCT02511028,Trial
NCT02519244,Trial
NCT02519413,Trial
NCT02521545,Trial
NCT02524093,Trial
NCT02524483,Trial
NCT02525874,Trial
NCT02529839,Trial
NCT02542787,Trial
NCT02543788,Trial
NCT02544373,Trial
NCT02545868,Trial
NCT02545959,Trial
NCT02549703,Trial
NCT02555215,Trial
NCT02568111,Trial
NCT02576717,Trial
NCT02579681,Trial
NCT02580435,Trial
NCT02580669,Trial
NCT02583386,Trial
NCT02583594,Trial
NCT02587065,Trial
NCT02587195,Trial
NCT02587715,Trial
NCT02588053,Trial
NCT02592265,Trial
NCT02598167,Trial
NCT02601885,Trial
NCT02606604,Trial
NCT02606630,Trial
NCT02607020,Trial
NCT02612935,Trial
NCT02614989,Trial
NCT02618902,Trial
NCT02623946,Trial
NCT02628834,Trial
NCT02633033,Trial
NCT02634307,Trial
NCT02634567,Trial
NCT02636829,Trial
NCT02637856,Trial
NCT02638038,Trial
NCT02641041,Trial
NCT02644044,Trial
NCT02644083,Trial
NCT02647502,Trial
NCT02649985,Trial
NCT02651545,Trial
NCT02652013,Trial
NCT02652091,Trial
NCT02659956,Trial
NCT02660138,Trial
NCT02660359,Trial
NCT02661555,Trial
NCT02665221,Trial
NCT02670161,Trial
NCT02671682,Trial
NCT02673827,Trial
NCT02674217,Trial
NCT02675413,Trial
NCT02676739,Trial
NCT02677077,Trial
NCT02679885,Trial
NCT02686684,Trial
NCT02686788,Trial
NCT02687919,Trial
NCT02688985,Trial
NCT02694666,Trial
NCT02695394,Trial
NCT02696590,Trial
NCT02702804,Trial
NCT02708927,Trial
NCT02710214,Trial
NCT02711566,Trial
NCT02716701,Trial
NCT02720107,Trial
NCT02726672,Trial
NCT02727907,Trial
NCT02736279,Trial
NCT02737904,Trial
NCT02738775,Trial
NCT02739542,Trial
NCT02753088,Trial
NCT02759211,Trial
NCT02760056,Trial
NCT02760082,Trial
NCT02764372,Trial
NCT02769689,Trial
NCT02769767,Trial
NCT02771652,Trial
NCT02772666,Trial
NCT02775110,Trial
NCT02776072,Trial
NCT02781142,Trial
NCT02782858,Trial
NCT02784210,Trial
NCT02789670,Trial
NCT02790307,Trial
NCT02792218,Trial
NCT02792231,Trial
NCT02797015,Trial
NCT02799199,Trial
NCT02805634,Trial
NCT02807285,Trial
NCT02810314,Trial
NCT02814487,Trial
NCT02823951,Trial
NCT02833142,Trial
NCT02836327,Trial
NCT02845635,Trial
NCT02846558,Trial
NCT02848898,Trial
NCT02848976,Trial
NCT02849782,Trial
NCT02861014,Trial
NCT02869360,Trial
NCT02869425,Trial
NCT02870023,Trial
NCT02874677,Trial
NCT02876536,Trial
NCT02880553,Trial
NCT02881567,Trial
NCT02882724,Trial
NCT02883335,Trial
NCT02885233,Trial
NCT02887352,Trial
NCT02889965,Trial
NCT02893683,Trial
NCT02896179,Trial
NCT02896647,Trial
NCT02896933,Trial
NCT02898974,Trial
NCT02901106,Trial
NCT02903537,Trial
NCT02904876,Trial
NCT02907177,Trial
NCT02907281,Trial
NCT02912897,Trial
NCT02913157,Trial
NCT02913209,Trial
NCT02914964,Trial
NCT02921035,Trial
NCT02936037,Trial
NCT02937285,Trial
NCT02939079,Trial
NCT02939859,Trial
NCT02947906,Trial
NCT02949908,Trial
NCT02950454,Trial
NCT02952911,Trial
NCT02960984,Trial
NCT02965170,Trial
NCT02966808,Trial
NCT02967380,Trial
NCT02969304,Trial
NCT02970370,Trial
NCT02975349,Trial
NCT02977533,Trial
NCT02980042,Trial
NCT02986893,Trial
NCT02988401,Trial
NCT02992847,Trial
NCT02994121,Trial
NCT03000127,Trial
NCT03000647,Trial
NCT03001284,Trial
NCT03004794,Trial
NCT03005119,Trial
NCT03006900,Trial
NCT03021317,Trial
NCT03025269,Trial
NCT03028675,Trial
NCT03029897,Trial
NCT03032601,Trial
NCT03033355,Trial
NCT03045380,Trial
NCT03046251,Trial
NCT03051646,Trial
NCT03052595,Trial
NCT03060759,Trial
NCT03066752,Trial
NCT03067025,Trial
NCT03069170,Trial
NCT03073603,Trial
NCT03077971,Trial
NCT03085810,Trial
NCT03087136,Trial
NCT03091400,Trial
NCT03091569,Trial
NCT03092544,Trial
NCT03094364,Trial
NCT03096977,Trial
NCT03101735,Trial
NCT03108573,Trial
NCT03109288,Trial
NCT03110315,Trial
NCT03111394,Trial
NCT03113162,Trial
NCT03117881,Trial
NCT03122652,Trial
NCT03122873,Trial
NCT03126760,Trial
NCT03134573,Trial
NCT03134716,Trial
NCT03134794,Trial
NCT03135249,Trial
NCT03137602,Trial
NCT03138421,Trial
NCT03138525,Trial
NCT03148938,Trial
NCT03150966,Trial
NCT03151941,Trial
NCT03153553,Trial
NCT03154801,Trial
NCT03161028,Trial
NCT03164018,Trial
NCT03164031,Trial
NCT03166800,Trial
NCT03166930,Trial
NCT03172741,Trial
NCT03174379,Trial
NCT03175133,Trial
NCT03177655,Trial
NCT03177785,Trial
NCT03183791,Trial
NCT03183869,Trial
NCT03185065,Trial
NCT03186612,Trial
NCT03186664,Trial
NCT03187847,Trial
NCT03190902,Trial
NCT03191669,Trial
NCT03193086,Trial
NCT03193866,Trial
NCT03198351,Trial
NCT03198598,Trial
NCT03200899,Trial
NCT03204747,Trial
NCT03207464,Trial
NCT03209479,Trial
NCT03215433,Trial
NCT03216889,Trial
NCT03216915,Trial
NCT03217396,Trial
NCT03219073,Trial
NCT03222596,Trial
NCT03222973,Trial
NCT03230903,Trial
NCT03232073,Trial
NCT03237832,Trial
NCT03239860,Trial
NCT03243721,Trial
NCT03247894,Trial
NCT03249714,Trial
NCT03255460,Trial
NCT03256851,Trial
NCT03257358,Trial
NCT03262870,Trial
NCT03266965,Trial
NCT03268096,Trial
NCT03268187,Trial
NCT03268239,Trial
NCT03269071,Trial
NCT03277248,Trial
NCT03277261,Trial
NCT03281330,Trial
NCT03282760,Trial
NCT03283397,Trial
NCT03283826,Trial
NCT03284970,Trial
NCT03290131,Trial
NCT03291756,Trial
NCT03302442,Trial
NCT03302806,Trial
NCT03306875,Trial
NCT03316404,Trial
NCT03319732,Trial
NCT03319771,Trial
NCT03322748,Trial
NCT03322761,Trial
NCT03326505,Trial
NCT03332654,Trial
NCT03335618,Trial
NCT03336424,Trial
NCT03339817,Trial
NCT03339908,Trial
NCT03342638,Trial
NCT03344094,Trial
NCT03345199,Trial
NCT03345940,Trial
NCT03347370,Trial
NCT03353974,Trial
NCT03355365,Trial
NCT03356366,Trial
NCT03357887,Trial
NCT03360188,Trial
NCT03360487,Trial
NCT03364036,Trial
NCT03368664,Trial
NCT03368677,Trial
NCT03369106,Trial
NCT03369171,Trial
NCT03369470,Trial
NCT03369665,Trial
NCT03375177,Trial
NCT03385356,Trial
NCT03387046,Trial
NCT03387670,Trial
NCT03389217,Trial
NCT03396822,Trial
NCT03399981,Trial
NCT03401307,Trial
NCT03401879,Trial
NCT03404388,Trial
NCT03408093,Trial
NCT03423121,Trial
NCT03424538,Trial
NCT03424733,Trial
NCT03429062,Trial
NCT03442049,Trial
NCT03444454,Trial
NCT03451175,Trial
NCT03456206,Trial
NCT03458169,Trial
NCT03458767,Trial
NCT03461419,Trial
NCT03471338,Trial
NCT03477500,Trial
NCT03480854,Trial
NCT03486665,Trial
NCT03490240,Trial
NCT03492606,Trial
NCT03493841,Trial
NCT03497468,Trial
NCT03498131,Trial
NCT03499314,Trial
NCT03500289,Trial
NCT03500328,Trial
NCT03501342,Trial
NCT03502772,Trial
NCT03505294,Trial
NCT03508089,Trial
NCT03508284,Trial
NCT03508414,Trial
NCT03512886,Trial
NCT03516526,Trial
NCT03521557,Trial
NCT03523858,Trial
NCT03526224,Trial
NCT03536299,Trial
NCT03536559,Trial
NCT03539094,Trial
NCT03541226,Trial
NCT03544177,Trial
NCT03548974,Trial
NCT03551275,Trial
NCT03552185,Trial
NCT03552211,Trial
NCT03555253,Trial
NCT03560739,Trial
NCT03561155,Trial
NCT03561402,Trial
NCT03562975,Trial
NCT03564496,Trial
NCT03566251,Trial
NCT03567057,Trial
NCT03569618,Trial
NCT03574428,Trial
NCT03574961,Trial
NCT03577977,Trial
NCT03584672,Trial
NCT03585569,Trial
NCT03586986,Trial
NCT03589105,Trial
NCT03591809,Trial
NCT03593590,Trial
NCT03594357,Trial
NCT03594487,Trial
NCT03595631,Trial
NCT03597451,Trial
NCT03599245,Trial
NCT03600779,Trial
NCT03606460,Trial
NCT03607773,Trial
NCT03608527,Trial
NCT03608605,Trial
NCT03610139,Trial
NCT03621761,Trial
NCT03623243,Trial
NCT03624296,Trial
NCT03632473,Trial
NCT03637699,Trial
NCT03647722,Trial
NCT03650114,Trial
NCT03653273,Trial
NCT03653585,Trial
NCT03655093,Trial
NCT03656055,Trial
NCT03656627,Trial
NCT03658668,Trial
NCT03659981,Trial
NCT03662347,Trial
NCT03670459,Trial
NCT03674099,Trial
NCT03677440,Trial
NCT03679468,Trial
NCT03679806,Trial
NCT03684369,Trial
NCT03689972,Trial
NCT03691077,Trial
NCT03691766,Trial
NCT03692975,Trial
NCT03693118,Trial
NCT03703180,Trial
NCT03706118,Trial
NCT03706131,Trial
NCT03708276,Trial
NCT03709290,Trial
NCT03710655,Trial
NCT03711968,Trial
NCT03718026,Trial
NCT03723356,Trial
NCT03735524,Trial
NCT03735654,Trial
NCT03735823,Trial
NCT03736902,Trial
NCT03737097,Trial
NCT03737812,Trial
NCT03737851,Trial
NCT03740295,Trial
NCT03745144,Trial
NCT03750097,Trial
NCT03752307,Trial
NCT03753698,Trial
NCT03756142,Trial
NCT03756974,Trial
NCT03757065,Trial
NCT03757819,Trial
NCT03759522,Trial
NCT03766698,Trial
NCT03768648,Trial
NCT03768830,Trial
NCT03774407,Trial
NCT03774914,Trial
NCT03778333,Trial
NCT03779724,Trial
NCT03782246,Trial
NCT03783416,Trial
NCT03783585,Trial
NCT03784547,Trial
NCT03784898,Trial
NCT03785483,Trial
NCT03787446,Trial
NCT03796611,Trial
NCT03797937,Trial
NCT03799718,Trial
NCT03801473,Trial
NCT03803800,Trial
NCT03804047,Trial
NCT03805061,Trial
NCT03806387,Trial
NCT03807973,Trial
NCT03808142,Trial
NCT03816345,Trial
NCT03822858,Trial
NCT03824938,Trial
NCT03825055,Trial
NCT03825601,Trial
NCT03826056,Trial
NCT03826095,Trial
NCT03827928,Trial
NCT03838770,Trial
NCT03841903,Trial
NCT03846219,Trial
NCT03846336,Trial
NCT03847545,Trial
NCT03847753,Trial
NCT03853746,Trial
NCT03854123,Trial
NCT03856619,Trial
NCT03856801,Trial
NCT03860675,Trial
NCT03863379,Trial
NCT03870048,Trial
NCT03870763,Trial
NCT03872583,Trial
NCT03873389,Trial
NCT03878810,Trial
NCT03878836,Trial
NCT03887065,Trial
NCT03887507,Trial
NCT03887546,Trial
NCT03888924,Trial
NCT03889327,Trial
NCT03889639,Trial
NCT03893344,Trial
NCT01710228,Trial
NCT01711255,Trial
NCT01712373,Trial
NCT01712945,Trial
NCT01718392,Trial
NCT01718678,Trial
NCT01719159,Trial
NCT01091727,Trial
NCT01093326,Trial
NCT01097538,Trial
NCT01097668,Trial
NCT01099930,Trial
NCT01684761,Trial
NCT02459821,Trial
NCT02538094,Trial
NCT02740296,Trial
NCT02740361,Trial
NCT02744222,Trial
NCT02746744,Trial
NCT02747914,Trial
NCT02749396,Trial
NCT03434873,Trial
NCT03436199,Trial
NCT03436927,Trial
NCT03438357,Trial
NCT03928990,Trial
NCT03915028,Trial
NCT03926637,Trial
NCT03910738,Trial
NCT03900221,Trial
NCT03917589,Trial
NCT03927092,Trial
NCT03933020,Trial
NCT03934489,Trial
NCT03933215,Trial
NCT03935529,Trial
NCT03938558,Trial
NCT03933202,Trial
NCT03944538,Trial
NCT03945006,Trial
NCT03941184,Trial
NCT03949296,Trial
NCT03949387,Trial
NCT03963310,Trial
NCT03979456,Trial
NCT03983252,Trial
NCT03972306,Trial
NCT03963375,Trial
NCT03983720,Trial
NCT03963492,Trial
NCT03974997,Trial
NCT03975413,Trial
NCT03977922,Trial
NCT03980145,Trial
NCT03981003,Trial
NCT03968172,Trial
NCT03976128,Trial
NCT03961204,Trial
NCT03958877,Trial
NCT03993171,Trial
NCT03996291,Trial
NCT03995810,Trial
NCT04002934,Trial
NCT04006613,Trial
NCT04011579,Trial
NCT03999034,Trial
NCT04009005,Trial
NCT04004026,Trial
NCT04002102,Trial
NCT04000373,Trial
NCT04032158,Trial
NCT04035005,Trial
NCT04024085,Trial
NCT04036097,Trial
NCT04025554,Trial
NCT04032431,Trial
NCT04022564,Trial
NCT04030819,Trial
NCT04035889,Trial
NCT04022473,Trial
NCT04027491,Trial
NCT04035720,Trial
NCT04028232,Trial
NCT04032171,Trial
NCT04027114,Trial
NCT04057066,Trial
NCT04057222,Trial
NCT04048577,Trial
NCT04047628,Trial
NCT04053374,Trial
NCT04042415,Trial
NCT04056897,Trial
NCT04038541,Trial
NCT04062331,Trial
NCT04054050,Trial
NCT04061681,Trial
NCT04063852,Trial
NCT04091464,Trial
NCT04122989,Trial
NCT04126772,Trial
NCT04120207,Trial
NCT04073940,Trial
NCT04110171,Trial
NCT04113135,Trial
NCT04100343,Trial
NCT04121403,Trial
NCT04125823,Trial
NCT04130256,Trial
NCT04121637,Trial
NCT04075266,Trial
NCT04090996,Trial
NCT04120675,Trial
NCT04115488,Trial
NCT04129736,Trial
NCT04082468,Trial
NCT04133779,Trial
NCT04121468,Trial
NCT04140305,Trial
NCT04117035,Trial
NCT04100525,Trial
NCT04106830,Trial
NCT04096443,Trial
NCT04074629,Trial
NCT04132167,Trial
NCT04132037,Trial
NCT04130997,Trial
NCT04125628,Trial
NCT04121065,Trial
NCT04079088,Trial
NCT04148313,Trial
NCT04147052,Trial
NCT04186910,Trial
NCT04153773,Trial
NCT04201691,Trial
NCT04175834,Trial
NCT04210960,Trial
NCT04192786,Trial
NCT04191772,Trial
NCT04157283,Trial
NCT04202055,Trial
NCT04171908,Trial
NCT04178005,Trial
NCT04203017,Trial
NCT04203498,Trial
NCT04171310,Trial
NCT04201470,Trial
NCT04169750,Trial
NCT04182269,Trial
NCT04185688,Trial
NCT04175054,Trial
NCT04212689,Trial
NCT04178980,Trial
NCT04217564,Trial
NCT04257071,Trial
NCT04266444,Trial
NCT04231253,Trial
NCT04237337,Trial
NCT04267926,Trial
NCT04236544,Trial
NCT04252053,Trial
NCT04233970,Trial
NCT04240379,Trial
NCT04220814,Trial
NCT04239820,Trial
NCT04261556,Trial
NCT04242056,Trial
NCT04228328,Trial
NCT04255953,Trial
NCT04244214,Trial
NCT04221191,Trial
NCT04261790,Trial
NCT04230174,Trial
NCT04215354,Trial
NCT04239521,Trial
NCT04265092,Trial
NCT04252599,Trial
NCT04260711,Trial
NCT00240006,Trial
NCT00336557,Trial
NCT00464958,Trial
NCT00202995,Trial
NCT00206648,Trial
NCT00544037,Trial
NCT00638196,Trial
NCT00641537,Trial
NCT00745615,Trial
NCT00765544,Trial
NCT00766272,Trial
NCT00780455,Trial
NCT00813969,Trial
NCT00893217,Trial
NCT00958009,Trial
NCT00988052,Trial
NCT01034644,Trial
NCT01036165,Trial
NCT01051817,Trial
NCT01073813,Trial
NCT01228266,Trial
NCT01264848,Trial
NCT01285479,Trial
NCT01302431,Trial
NCT01330498,Trial
NCT01414634,Trial
NCT01492023,Trial
NCT01606176,Trial
NCT01864707,Trial
NCT01903291,Trial
NCT01905527,Trial
NCT01950234,Trial
NCT01977287,Trial
NCT01978574,Trial
NCT02011204,Trial
NCT02096133,Trial
NCT02100020,Trial
NCT02118298,Trial
NCT02139696,Trial
NCT02198599,Trial
NCT02212886,Trial
NCT02255656,Trial
NCT02273635,Trial
NCT02339688,Trial
NCT02424825,Trial
NCT02488343,Trial
NCT02515695,Trial
NCT02517788,Trial
NCT02522962,Trial
NCT02525367,Trial
NCT02559765,Trial
NCT02571335,Trial
NCT02596633,Trial
NCT02609607,Trial
NCT02611401,Trial
NCT02664324,Trial
NCT02664623,Trial
NCT02683863,Trial
NCT02688231,Trial
NCT02717429,Trial
NCT02726373,Trial
NCT02750982,Trial
NCT02804594,Trial
NCT02834533,Trial
NCT02889419,Trial
NCT02996084,Trial
NCT03004079,Trial
NCT03039400,Trial
NCT03108950,Trial
NCT03147105,Trial
NCT03155334,Trial
NCT03166007,Trial
NCT03201692,Trial
NCT03205280,Trial
NCT03213522,Trial
NCT03244696,Trial
NCT03250169,Trial
NCT03271125,Trial
NCT03313843,Trial
NCT03322982,Trial
NCT03362541,Trial
NCT03375541,Trial
NCT03381170,Trial
NCT03387267,Trial
NCT03418376,Trial
NCT03455582,Trial
NCT03535298,Trial
NCT03551665,Trial
NCT03586635,Trial
NCT03603691,Trial
NCT03638739,Trial
NCT03646929,Trial
NCT03668990,Trial
NCT03705364,Trial
NCT03718819,Trial
NCT03735056,Trial
NCT03737825,Trial
NCT03744351,Trial
NCT03758820,Trial
NCT03759249,Trial
NCT03796247,Trial
NCT03808545,Trial
NCT03817073,Trial
NCT03829267,Trial
NCT03849001,Trial
NCT03850301,Trial
NCT02533882,Trial
NCT02851342,Trial
NCT03920995,Trial
NCT03919058,Trial
NCT03931278,Trial
NCT03951181,Trial
NCT03967106,Trial
NCT03969927,Trial
NCT03999788,Trial
NCT04016844,Trial
NCT04002492,Trial
NCT04034277,Trial
NCT04033133,Trial
NCT04019912,Trial
NCT04024969,Trial
NCT04123353,Trial
NCT04131764,Trial
NCT04142853,Trial
NCT04075968,Trial
NCT04121221,Trial
NCT04211740,Trial
NCT04183751,Trial
NCT04150549,Trial
NCT04175418,Trial
NCT04267185,Trial
NCT04237675,Trial
NCT00000146,Trial
NCT00000147,Trial
NCT00118547,Trial
NCT00323271,Trial
NCT00334100,Trial
NCT00510523,Trial
NCT00617383,Trial
NCT00618085,Trial
NCT00618267,Trial
NCT00663663,Trial
NCT00710645,Trial
NCT00715598,Trial
NCT00776048,Trial
NCT00835835,Trial
NCT00866112,Trial
NCT00883142,Trial
NCT00927108,Trial
NCT01117090,Trial
NCT01195857,Trial
NCT01195870,Trial
NCT01198977,Trial
NCT01216137,Trial
NCT01274702,Trial
NCT01335633,Trial
NCT01356134,Trial
NCT01404117,Trial
NCT01451593,Trial
NCT01581567,Trial
NCT01652352,Trial
NCT01728922,Trial
NCT01752660,Trial
NCT01768910,Trial
NCT01786005,Trial
NCT01800604,Trial
NCT01804660,Trial
NCT01838174,Trial
NCT01851434,Trial
NCT01917903,Trial
NCT01925690,Trial
NCT01952483,Trial
NCT01979081,Trial
NCT02010554,Trial
NCT02019927,Trial
NCT02032589,Trial
NCT02170779,Trial
NCT02263339,Trial
NCT02318576,Trial
NCT02440126,Trial
NCT02474940,Trial
NCT02518776,Trial
NCT02523703,Trial
NCT02553525,Trial
NCT02587806,Trial
NCT02601131,Trial
NCT02767609,Trial
NCT02777060,Trial
NCT02815878,Trial
NCT02830074,Trial
NCT02833311,Trial
NCT02835677,Trial
NCT02980640,Trial
NCT02987621,Trial
NCT03047460,Trial
NCT03049969,Trial
NCT03057652,Trial
NCT03114293,Trial
NCT03135327,Trial
NCT03136744,Trial
NCT03206034,Trial
NCT03269175,Trial
NCT03368157,Trial
NCT03370965,Trial
NCT03372187,Trial
NCT03373344,Trial
NCT03403413,Trial
NCT03410498,Trial
NCT03451955,Trial
NCT03453125,Trial
NCT03468868,Trial
NCT03492450,Trial
NCT03550170,Trial
NCT03567239,Trial
NCT03568760,Trial
NCT03570268,Trial
NCT03574610,Trial
NCT03603457,Trial
NCT03619642,Trial
NCT03636789,Trial
NCT03647904,Trial
NCT03652519,Trial
NCT03655431,Trial
NCT03660618,Trial
NCT03671499,Trial
NCT03686826,Trial
NCT03698149,Trial
NCT03723434,Trial
NCT03729713,Trial
NCT03797378,Trial
NCT03839381,Trial
NCT03869879,Trial
NCT03886753,Trial
NCT02454465,Trial
NCT02454907,Trial
NCT02457091,Trial
NCT02743312,Trial
NCT02746705,Trial
NCT02852317,Trial
NCT02858778,Trial
NCT03906370,Trial
NCT03942952,Trial
NCT03944447,Trial
NCT03951974,Trial
NCT03954717,Trial
NCT03993275,Trial
NCT03979391,Trial
NCT03983681,Trial
NCT04009187,Trial
NCT04014413,Trial
NCT04042363,Trial
NCT04066972,Trial
NCT04141891,Trial
NCT04142008,Trial
NCT04145284,Trial
NCT04080687,Trial
NCT04095377,Trial
NCT04131673,Trial
NCT04116424,Trial
NCT04097418,Trial
NCT04082260,Trial
NCT04144257,Trial
NCT04114994,Trial
NCT04145934,Trial
NCT04185792,Trial
NCT04158063,Trial
NCT04154579,Trial
NCT04248725,Trial
FIR010817,Agency
FIR003694,Agency
FIR002943,Agency
FIR010567,Agency
FIR001347,Agency
FIR001529,Agency
FIR004489,Agency
FIR009273,Agency
FIR003749,Agency
FIR008469,Agency
FIR007497,Agency
FIR000094,Agency
FIR004419,Agency
FIR001533,Agency
FIR004958,Agency
FIR008389,Agency
FIR011641,Agency
FIR012217,Agency
FIR004209,Agency
FIR004630,Agency
FIR011277,Agency
FIR009411,Agency
FIR006926,Agency
FIR011282,Agency
FIR011130,Agency
FIR008060,Agency
FIR000676,Agency
FIR005578,Agency
FIR008648,Agency
FIR007771,Agency
FIR006918,Agency
FIR007510,Agency
FIR001224,Agency
FIR000789,Agency
FIR008923,Agency
FIR006908,Agency
FIR007417,Agency
FIR004683,Agency
FIR001167,Agency
FIR003789,Agency
FIR003711,Agency
FIR001861,Agency
FIR011776,Agency
FIR005230,Agency
FIR011275,Agency
FIR002535,Agency
FIR002536,Agency
FIR011276,Agency
FIR002864,Agency
FIR001390,Agency
FIR012131,Agency
FIR003798,Agency
FIR003231,Agency
FIR001235,Agency
FIR004698,Agency
FIR006954,Agency
FIR010983,Agency
FIR000615,Agency
FIR001531,Agency
FIR012138,Agency
FIR006922,Agency
FIR008531,Agency
FIR006824,Agency
FIR001874,Agency
FIR000228,Agency
FIR008247,Agency
FIR010977,Agency
FIR004320,Agency
FIR011689,Agency
FIR006929,Agency
FIR006898,Agency
FIR006899,Agency
FIR006901,Agency
FIR006910,Agency
FIR006930,Agency
FIR006912,Agency
FIR008050,Agency
FIR006915,Agency
FIR002110,Agency
FIR003748,Agency
FIR004502,Agency
FIR005337,Agency
FIR006923,Agency
FIR007055,Agency
FIR011127,Agency
FIR002539,Agency
FIR005286,Agency
FIR009873,Agency
FIR003468,Agency
FIR008668,Agency
FIR000363,Agency
FIR007545,Agency
FIR000432,Agency
FIR007854,Agency
FIR011065,Agency
FIR006924,Agency
FIR007193,Agency
FIR001544,Agency
FIR000660,Agency
FIR007220,Agency
FIR006762,Agency
FIR009559,Agency
FIR006919,Agency
FIR002450,Agency
FIR004447,Agency
FIR002870,Agency
FIR009675,Agency
FIR010785,Agency
FIR004373,Agency
FIR008202,Agency
FIR008770,Agency
FIR000153,Agency
FIR011558,Agency
FIR004684,Agency
FIR006952,Agency
FIR006736,Agency
FIR011503,Agency
FIR001537,Agency
FIR010268,Agency
FIR006678,Agency
FIR005165,Agency
FIR000772,Agency
FIR003750,Agency
FIR004437,Agency
FIR005161,Agency
FIR003326,Agency
FIR008467,Agency
FIR002267,Agency
FIR007800,Agency
FIR006431,Agency
FIR005456,Agency
FIR010064,Agency
FIR001722,Agency
FIR011294,Agency
FIR004445,Agency
FIR005249,Agency
FIR011585,Agency
FIR006920,Agency
FIR004792,Agency
FIR003751,Agency
FIR004673,Agency
FIR008640,Agency
FIR004439,Agency
FIR000108,Agency
FIR010801,Agency
FIR002065,Agency
FIR007180,Agency
FIR001265,Agency
FIR003581,Agency
FIR000823,Agency
FIR001789,Agency
FIR002780,Agency
FIR004796,Agency
FIR000503,Agency
FIR004446,Agency
FIR000964,Agency
FIR001873,Agency
FIR000681,Agency
FIR011131,Agency
FIR002109,Agency
FIR005191,Agency
FIR003938,Agency
FIR001025,Agency
FIR002818,Agency
FIR004316,Agency
FIR001494,Agency
FIR008733,Agency
FIR007174,Agency
FIR010019,Agency
FIR010818,Agency
FIR006534,Agency
FIR005344,Agency
FIR001887,Agency
FIR004861,Agency
FIR003192,Agency
FIR007467,Agency
FIR007468,Agency
FIR006852,Agency
FIR008091,Agency
FIR007076,Agency
FIR009073,Agency
FIR000729,Agency
DRU023934,Drug
DRU008413,Drug
DRB001267,Drug
DRU003590,Drug
DRU002665,Drug
DRU002718,Drug
DRU003317,Drug
DRU004814,Drug
DRU001709,Drug
DRU024306,Drug
DRU002497,Drug
DRU004532,Drug
DRU000069,Drug
DRB000240,Drug
DRU003768,Drug
DRU003256,Drug
DRU000266,Drug
DRU007031,Drug
DRU003531,Drug
DRU026890,Drug
DRU000734,Drug
DRB004073,Drug
DRU005393,Drug
DRU020853,Drug
DRU010512,Drug
DRU020715,Drug
DRU002029,Drug
DRU003028,Drug
DRU001733,Drug
DRB004694,Drug
DRU016896,Drug
DRU018923,Drug
DRU001082,Drug
DRU012178,Drug
DRU026897,Drug
DRU004958,Drug
DRB003805,Drug
DRB000627,Drug
DRU000653,Drug
DRU028002,Drug
DRB000014,Drug
DRB003720,Drug
DRU017646,Drug
DRU022965,Drug
DRU026797,Drug
DRU022105,Drug
DRU021205,Drug
DRU000894,Drug
DRU015370,Drug
DRU002285,Drug
DRU003968,Drug
DRU000744,Drug
DRB000683,Drug
DRU003713,Drug
DRU003698,Drug
DRB003823,Drug
DRB001708,Drug
DRU010340,Drug
DRU010372,Drug
DRU007581,Drug
DRU023764,Drug
DRU009518,Drug
DRB002948,Drug
DRB004091,Drug
DRB002875,Drug
DRU012247,Drug
DRU012165,Drug
DRU012166,Drug
DRU022401,Drug
DRU012562,Drug
DRB004360,Drug
DRU003779,Drug
DRU025107,Drug
DRU005242,Drug
DRU001854,Drug
DRU014234,Drug
DRB001044,Drug
DRU001402,Drug
DRB003423,Drug
DRB003424,Drug
DRU026742,Drug
DRU028005,Drug
DRU022903,Drug
DRU005691,Drug
DRU003499,Drug
DRU001724,Drug
DRB004308,Drug
DRU001302,Drug
DRU026605,Drug
DRU004534,Drug
DRB003232,Drug
DRU007580,Drug
DRB003944,Drug
DRU018497,Drug
DRU003501,Drug
DRB001517,Drug
DRU022932,Drug
DRU003209,Drug
DRU003788,Drug
DRB002995,Drug
DRU022832,Drug
DRU003789,Drug
DRU020578,Drug
DRU010919,Drug
DRU027370,Drug
DRU002505,Drug
DRU023165,Drug
DRU005272,Drug
DRB004018,Drug
DRU017400,Drug
DRU003298,Drug
DRU004167,Drug
DRB004028,Drug
DRB003245,Drug
DRU003264,Drug
DRB002611,Drug
DRU015771,Drug
DRU028220,Drug
DRB001561,Drug
DRU023463,Drug
DRB000319,Drug
DRU023054,Drug
DRU002659,Drug
DRB002066,Drug
DRU008294,Drug
DRU004521,Drug
DRU004769,Drug
DRB003707,Drug
DRU000144,Drug
DRU003658,Drug
DRU022870,Drug
DRU003814,Drug
DRU014765,Drug
DRU023481,Drug
DRU018376,Drug
DRU008080,Drug
DRU007098,Drug
DRU005415,Drug
DRU013305,Drug
DRU000194,Drug
DRU001880,Drug
DRU004663,Drug
DRU024927,Drug
DRU026537,Drug
DRU002303,Drug
DRB001767,Drug
DRU008964,Drug
DRU002942,Drug
DRU024922,Drug
DRU005001,Drug
DRU004164,Drug
DRB002773,Drug
DRU024776,Drug
DRU007017,Drug
DRU014169,Drug
DRU025120,Drug
DRU017209,Drug
DRU022951,Drug
DRU022435,Drug
DRU002067,Drug
DRU006460,Drug
DRU000289,Drug
DRU019803,Drug
DRU019807,Drug
DRU019805,Drug
DRU023885,Drug
DRU011116,Drug
DRU011921,Drug
DRU028182,Drug
DRB000573,Drug
DRU022942,Drug
DRU003867,Drug
DRU001455,Drug
DRU001214,Drug
DRU009367,Drug
DRU014914,Drug
DRU022825,Drug
DRU025729,Drug
DRB001605,Drug
DRU021265,Drug
DRU001994,Drug
DRU013596,Drug
DRU028012,Drug
DRU000380,Drug
DRU005153,Drug
DRU000571,Drug
DRU015866,Drug
DRB000374,Drug
DRU003198,Drug
DRU004216,Drug
DRU020741,Drug
DRB001709,Drug
DRU000584,Drug
DRB000550,Drug
DRU024838,Drug
DRU001066,Drug
DRU021384,Drug
DRU022568,Drug
DRU014776,Drug
DRU016418,Drug
DRU004491,Drug
DRU024142,Drug
DRU015420,Drug
DRU002926,Drug
DRU024117,Drug
DRU010101,Drug
DRU001303,Drug
DRU005735,Drug
DRU027864,Drug
DRU014184,Drug
DRU014396,Drug
DRU018793,Drug
DRU023217,Drug
DRU020730,Drug
DRU004984,Drug
DRU009652,Drug
DRU020631,Drug
DRU014593,Drug
DRU008362,Drug
DRU013498,Drug
DRB002703,Drug
DRU000955,Drug
DRU026358,Drug
DRU003329,Drug
DRU003493,Drug
DRB000568,Drug
DRB001391,Drug
DRU023743,Drug
DRB004312,Drug
DRU025668,Drug
DRB000246,Drug
DRU000565,Drug
DRU023988,Drug
DRU025087,Drug
DRU013784,Drug
DRU003881,Drug
DRU020693,Drug
DRU018644,Drug
DRU005299,Drug
DRU004754,Drug
DRU002599,Drug
DRU001638,Drug
DRU001628,Drug
DRU011368,Drug
DRU025330,Drug
DRU011069,Drug
DRU026086,Drug
DRU022766,Drug
DRU021403,Drug
DRU000245,Drug
DRU005643,Drug
DRU028015,Drug
DRU001533,Drug
DRU019582,Drug
DRU001907,Drug
DRB001411,Drug
DRU003631,Drug
DRU026725,Drug
DRU005694,Drug
DRU004072,Drug
DRU015230,Drug
DRU002296,Drug
DRU026926,Drug
DRU022858,Drug
DRB004300,Drug
DRU001687,Drug
DRU007501,Drug
DRU005275,Drug
DRU023081,Drug
DRU026206,Drug
DRU012325,Drug
DRU001331,Drug
DRU003325,Drug
DRB002661,Drug
DRU001872,Drug
DRU016840,Drug
DRU000710,Drug
DRU020685,Drug
DRU007591,Drug
DRU002544,Drug
DRB000002,Drug
DRU002538,Drug
DRU011036,Drug
DRU014608,Drug
DRU020660,Drug
DRU002520,Drug
DRB001927,Drug
DRU028011,Drug
DRB003629,Drug
DRU026245,Drug
DRU000405,Drug
DRB000449,Drug
DRU003167,Drug
DRU012251,Drug
DRU023843,Drug
DRB002648,Drug
DRB002071,Drug
DRB002073,Drug
DRU005395,Drug
DRU024235,Drug
DRU015537,Drug
DRU024358,Drug
DRU003589,Drug
DRU007802,Drug
DRU004723,Drug
DRB000247,Drug
DRU028132,Drug
DRU022268,Drug
DRU002481,Drug
DRU020591,Drug
DRU019507,Drug
DRU001553,Drug
DRU016054,Drug
DRU003666,Drug
DRU004646,Drug
DRU004137,Drug
DRU027796,Drug
DRU006477,Drug
DRU014415,Drug
DRU002755,Drug
DRU013867,Drug
DRU019494,Drug
DRU000489,Drug
DRU011581,Drug
DRU002028,Drug
DRU022072,Drug
DRU003734,Drug
DRU019321,Drug
DRU002802,Drug
DRU008959,Drug
DRU001727,Drug
DRU003314,Drug
DRU028153,Drug
DRU001086,Drug
DRU023640,Drug
DRU012392,Drug
DRU004368,Drug
DRU026906,Drug
DRU018981,Drug
DRU007480,Drug
DRU003289,Drug
DRU007484,Drug
DRU003046,Drug
DRU023069,Drug
DRU002920,Drug
DRU002667,Drug
DRU002664,Drug
DRU002663,Drug
DRU013730,Drug
DRB002069,Drug
DRB002074,Drug
DRU006090,Drug
DRU020108,Drug
DRU028014,Drug
DRU006038,Drug
DRU014190,Drug
DRU026586,Drug
DRU000976,Drug
DRU018821,Drug
DRU010071,Drug
DRU003551,Drug
DRU027142,Drug
DRB000271,Drug
DRU016234,Drug
DRU024651,Drug
DRU005199,Drug
DRU000118,Drug
DRU003161,Drug
DRU008741,Drug
DRU007492,Drug
DRU010767,Drug
DRU003955,Drug
DRU012212,Drug
DRU002056,Drug
DRB002198,Drug
DRU000530,Drug
DRU003042,Drug
DRU010260,Drug
DRU002326,Drug
DRU013243,Drug
DRU003124,Drug
DRU023943,Drug
DRU003140,Drug
DRU023928,Drug
DRU018685,Drug
DRU007481,Drug
DRU007026,Drug
DRU000780,Drug
DRU000478,Drug
DRU003556,Drug
DRU026911,Drug
DRU005783,Drug
DRU015343,Drug
DRU010405,Drug
DRU024413,Drug
