Internal ID,TA
1,Neurology
2031,Neurology
2028,Neurology
2026,Neurology
2019,Neurology
2015,Neurology
2014,Neurology
2011,Neurology
2007,Neurology
2005,Neurology
2003,Neurology
2002,Neurology
2000,Neurology
1999,Neurology
1996,Neurology
1993,Neurology
1990,Neurology
2032,Neurology
2034,Neurology
2076,Neurology
2074,Neurology
2072,Neurology
2068,Neurology
2066,Neurology
2061,Neurology
2057,Neurology
2053,Neurology
2051,Neurology
2050,Neurology
1988,Neurology
2048,Neurology
2043,Neurology
2042,Neurology
2041,Neurology
2039,Neurology
2038,Neurology
2036,Neurology
2035,Neurology
1985,Neurology
1984,Neurology
1939,Neurology
1938,Neurology
1935,Neurology
1930,Neurology
1929,Neurology
1928,Neurology
1927,Neurology
1925,Neurology
1923,Neurology
1914,Neurology
1912,Neurology
1910,Neurology
1909,Neurology
1908,Neurology
1905,Neurology
1904,Neurology
1901,Neurology
1899,Neurology
1940,Neurology
1941,Neurology
1982,Neurology
1981,Neurology
1980,Neurology
1975,Neurology
1971,Neurology
1968,Neurology
1965,Neurology
1962,Neurology
1961,Neurology
1960,Neurology
1959,Neurology
1958,Neurology
1954,Neurology
1953,Neurology
1951,Neurology
1949,Neurology
1948,Neurology
1947,Neurology
1946,Neurology
1945,Neurology
2077,Neurology
2078,Neurology
2079,Neurology
2206,Neurology
2203,Neurology
2201,Neurology
2199,Neurology
2190,Neurology
2188,Neurology
2187,Neurology
2186,Neurology
2185,Neurology
2208,Neurology
2183,Neurology
2180,Neurology
2178,Neurology
2177,Neurology
2173,Neurology
2171,Neurology
2170,Neurology
2169,Neurology
2163,Neurology
2211,Neurology
2254,Neurology
2252,Neurology
2251,Neurology
2247,Neurology
2244,Neurology
2241,Neurology
2240,Neurology
2239,Neurology
2209,Neurology
2233,Neurology
2231,Neurology
2223,Neurology
2221,Neurology
2217,Neurology
2216,Neurology
2213,Neurology
2212,Neurology
2236,Neurology
2159,Neurology
2113,Neurology
2112,Neurology
2111,Neurology
2110,Neurology
2109,Neurology
2107,Neurology
2106,Neurology
2103,Neurology
2102,Neurology
2116,Neurology
2101,Neurology
2100,Neurology
2096,Neurology
2093,Neurology
2091,Neurology
2089,Neurology
2087,Neurology
2085,Neurology
2083,Neurology
2162,Neurology
2123,Neurology
2158,Neurology
2157,Neurology
2152,Neurology
2150,Neurology
2149,Neurology
2143,Neurology
2142,Neurology
2140,Neurology
2121,Neurology
2138,Neurology
2137,Neurology
2136,Neurology
2135,Neurology
2134,Neurology
2133,Neurology
2128,Neurology
2126,Neurology
2125,Neurology
2124,Neurology
1896,Neurology
1894,Neurology
1892,Neurology
1629,Neurology
1625,Neurology
1624,Neurology
1619,Neurology
1617,Neurology
1616,Neurology
1631,Neurology
1615,Neurology
1613,Neurology
1612,Neurology
1610,Neurology
1609,Neurology
1608,Neurology
1600,Neurology
1599,Neurology
1591,Neurology
1634,Neurology
1635,Neurology
1695,Neurology
1694,Neurology
1692,Neurology
1690,Neurology
1687,Neurology
1686,Neurology
1685,Neurology
1680,Neurology
1679,Neurology
1678,Neurology
1677,Neurology
1671,Neurology
1669,Neurology
1665,Neurology
1664,Neurology
1654,Neurology
1648,Neurology
1641,Neurology
1640,Neurology
1636,Neurology
1675,Neurology
1697,Neurology
1590,Neurology
1589,Neurology
1546,Neurology
1545,Neurology
1540,Neurology
1539,Neurology
1530,Neurology
1529,Neurology
1527,Neurology
1525,Neurology
1549,Neurology
1524,Neurology
1520,Neurology
1519,Neurology
1518,Neurology
1517,Neurology
1516,Neurology
1508,Neurology
1507,Neurology
1506,Neurology
1501,Neurology
1553,Neurology
1554,Neurology
1587,Neurology
1586,Neurology
1584,Neurology
1583,Neurology
1582,Neurology
1580,Neurology
1579,Neurology
1578,Neurology
1575,Neurology
1574,Neurology
1573,Neurology
1570,Neurology
1567,Neurology
1559,Neurology
1558,Neurology
1576,Neurology
2256,Neurology
1701,Neurology
1705,Neurology
1827,Neurology
1825,Neurology
1824,Neurology
1823,Neurology
1822,Neurology
1821,Neurology
1818,Neurology
1816,Neurology
1815,Neurology
1830,Neurology
1813,Neurology
1808,Neurology
1804,Neurology
1803,Neurology
1798,Neurology
1797,Neurology
1792,Neurology
1785,Neurology
1833,Neurology
1889,Neurology
1885,Neurology
1884,Neurology
1882,Neurology
1878,Neurology
1876,Neurology
1873,Neurology
1832,Neurology
1872,Neurology
1870,Neurology
1868,Neurology
1867,Neurology
1853,Neurology
1849,Neurology
1846,Neurology
1834,Neurology
1702,Neurology
1784,Neurology
1783,Neurology
1743,Neurology
1741,Neurology
1740,Neurology
1736,Neurology
1734,Neurology
1733,Neurology
1745,Neurology
1732,Neurology
1727,Neurology
1726,Neurology
1725,Neurology
1724,Neurology
1722,Neurology
1721,Neurology
1720,Neurology
1718,Neurology
1710,Neurology
1708,Neurology
1730,Neurology
1746,Neurology
1747,Neurology
1780,Neurology
1778,Neurology
1773,Neurology
1772,Neurology
1771,Neurology
1769,Neurology
1768,Neurology
1764,Neurology
1761,Neurology
1758,Neurology
1757,Neurology
1756,Neurology
1755,Neurology
1754,Neurology
1753,Neurology
1751,Neurology
1748,Neurology
1500,Neurology
2258,Neurology
2261,Neurology
2840,Neurology
2838,Neurology
2834,Neurology
2833,Neurology
2827,Neurology
2826,Neurology
2825,Neurology
2824,Neurology
2823,Neurology
2820,Neurology
2819,Neurology
2818,Neurology
2817,Neurology
2816,Neurology
2814,Neurology
2813,Neurology
2808,Neurology
2807,Neurology
2806,Neurology
2843,Neurology
2844,Neurology
2845,Neurology
2884,Neurology
2883,Neurology
2882,Neurology
2879,Neurology
2877,Neurology
2873,Neurology
2868,Neurology
2867,Neurology
2799,Neurology
2864,Neurology
2863,Neurology
2861,Neurology
2860,Neurology
2858,Neurology
2857,Neurology
2856,Neurology
2848,Neurology
2847,Neurology
2792,Neurology
2781,Neurology
2779,Neurology
2712,Neurology
2707,Neurology
2703,Neurology
2702,Neurology
2701,Neurology
2700,Neurology
2699,Neurology
2698,Neurology
2697,Neurology
2695,Neurology
2715,Neurology
2694,Neurology
2688,Neurology
2687,Neurology
2686,Neurology
2684,Neurology
2681,Neurology
2672,Neurology
2669,Neurology
2666,Neurology
2885,Neurology
2719,Neurology
2722,Neurology
2775,Neurology
2774,Neurology
2773,Neurology
2770,Neurology
2765,Neurology
2760,Neurology
2756,Neurology
2755,Neurology
2754,Neurology
2753,Neurology
2752,Neurology
2720,Neurology
2750,Neurology
2749,Neurology
2748,Neurology
2746,Neurology
2741,Neurology
2738,Neurology
2730,Neurology
2729,Neurology
2726,Neurology
2723,Neurology
2886,Neurology
2889,Neurology
3026,Neurology
3025,Neurology
3020,Neurology
3019,Neurology
3018,Neurology
3017,Neurology
3013,Neurology
3012,Neurology
3010,Neurology
3030,Neurology
3009,Neurology
3006,Neurology
3005,Neurology
3004,Neurology
3003,Neurology
3002,Neurology
3000,Neurology
2997,Neurology
2994,Neurology
2991,Neurology
3037,Neurology
3093,Neurology
3087,Neurology
3085,Neurology
3076,Neurology
3075,Neurology
3073,Neurology
3070,Neurology
3069,Neurology
3068,Neurology
3061,Neurology
3060,Neurology
3057,Neurology
3056,Neurology
3055,Neurology
3054,Neurology
3052,Neurology
3047,Neurology
3046,Neurology
3067,Neurology
2664,Neurology
2989,Neurology
2987,Neurology
2934,Neurology
2929,Neurology
2923,Neurology
2921,Neurology
2919,Neurology
2917,Neurology
2914,Neurology
2910,Neurology
2909,Neurology
2937,Neurology
2906,Neurology
2903,Neurology
2902,Neurology
2901,Neurology
2900,Neurology
2897,Neurology
2896,Neurology
2894,Neurology
2893,Neurology
2904,Neurology
2988,Neurology
2942,Neurology
2944,Neurology
2982,Neurology
2976,Neurology
2975,Neurology
2973,Neurology
2972,Neurology
2970,Neurology
2969,Neurology
2967,Neurology
2943,Neurology
2965,Neurology
2957,Neurology
2956,Neurology
2952,Neurology
2948,Neurology
2945,Neurology
2959,Neurology
2662,Neurology
2660,Neurology
2403,Neurology
2402,Neurology
2396,Neurology
2391,Neurology
2389,Neurology
2387,Neurology
2385,Neurology
2381,Neurology
2378,Neurology
2376,Neurology
2373,Neurology
2372,Neurology
2369,Neurology
2367,Neurology
2366,Neurology
2365,Neurology
2364,Neurology
2407,Neurology
2409,Neurology
2461,Neurology
2460,Neurology
2455,Neurology
2453,Neurology
2449,Neurology
2448,Neurology
2444,Neurology
2443,Neurology
2438,Neurology
2437,Neurology
2436,Neurology
2435,Neurology
2434,Neurology
2433,Neurology
2432,Neurology
2426,Neurology
2421,Neurology
2419,Neurology
2418,Neurology
2415,Neurology
2468,Neurology
2362,Neurology
2360,Neurology
2299,Neurology
2298,Neurology
2297,Neurology
2295,Neurology
2294,Neurology
2292,Neurology
2286,Neurology
2285,Neurology
2282,Neurology
2280,Neurology
2279,Neurology
2274,Neurology
2271,Neurology
2270,Neurology
2268,Neurology
2267,Neurology
2266,Neurology
2278,Neurology
2301,Neurology
2306,Neurology
2357,Neurology
2356,Neurology
2351,Neurology
2348,Neurology
2347,Neurology
2345,Neurology
2344,Neurology
2342,Neurology
2341,Neurology
2340,Neurology
2334,Neurology
2329,Neurology
2328,Neurology
2327,Neurology
2325,Neurology
2322,Neurology
2320,Neurology
2317,Neurology
2316,Neurology
2315,Neurology
2313,Neurology
2308,Neurology
2307,Neurology
2259,Neurology
2469,Neurology
2599,Neurology
2598,Neurology
2597,Neurology
2595,Neurology
2594,Neurology
2593,Neurology
2592,Neurology
2589,Neurology
2603,Neurology
2585,Neurology
2583,Neurology
2582,Neurology
2579,Neurology
2578,Neurology
2577,Neurology
2576,Neurology
2570,Neurology
2567,Neurology
2565,Neurology
2561,Neurology
2584,Neurology
2559,Neurology
2605,Neurology
2609,Neurology
2658,Neurology
2653,Neurology
2651,Neurology
2648,Neurology
2646,Neurology
2645,Neurology
2638,Neurology
2631,Neurology
2629,Neurology
2625,Neurology
2624,Neurology
2622,Neurology
2621,Neurology
2619,Neurology
2616,Neurology
2613,Neurology
2611,Neurology
2627,Neurology
2558,Neurology
2557,Neurology
2510,Neurology
2508,Neurology
2507,Neurology
2506,Neurology
2504,Neurology
2498,Neurology
2497,Neurology
2494,Neurology
2491,Neurology
2488,Neurology
2480,Neurology
2479,Neurology
2478,Neurology
2477,Neurology
2476,Neurology
2474,Neurology
2470,Neurology
2489,Neurology
2511,Neurology
2512,Neurology
2556,Neurology
2554,Neurology
2553,Neurology
2548,Neurology
2547,Neurology
2544,Neurology
2534,Neurology
2532,Neurology
2531,Neurology
2530,Neurology
2529,Neurology
2527,Neurology
2525,Neurology
2523,Neurology
2522,Neurology
2516,Neurology
2515,Neurology
1498,Neurology
1497,Neurology
479,Neurology
478,Neurology
476,Neurology
475,Neurology
473,Neurology
472,Neurology
461,Neurology
460,Neurology
458,Neurology
452,Neurology
446,Neurology
445,Neurology
441,Neurology
440,Neurology
438,Neurology
435,Neurology
434,Neurology
483,Neurology
484,Neurology
485,Neurology
518,Neurology
517,Neurology
516,Neurology
515,Neurology
514,Neurology
510,Neurology
509,Neurology
508,Neurology
432,Neurology
503,Neurology
502,Neurology
497,Neurology
493,Neurology
488,Neurology
487,Neurology
505,Neurology
429,Neurology
427,Neurology
384,Neurology
382,Neurology
380,Neurology
379,Neurology
375,Neurology
373,Neurology
372,Neurology
371,Neurology
385,Neurology
368,Neurology
364,Neurology
363,Neurology
362,Neurology
361,Neurology
360,Neurology
359,Neurology
358,Neurology
357,Neurology
356,Neurology
354,Neurology
365,Neurology
525,Neurology
389,Neurology
426,Neurology
425,Neurology
424,Neurology
422,Neurology
421,Neurology
419,Neurology
418,Neurology
417,Neurology
410,Neurology
407,Neurology
405,Neurology
398,Neurology
397,Neurology
394,Neurology
390,Neurology
412,Neurology
526,Neurology
680,Neurology
679,Neurology
677,Neurology
669,Neurology
668,Neurology
665,Neurology
664,Neurology
663,Neurology
687,Neurology
662,Neurology
661,Neurology
658,Neurology
653,Neurology
652,Neurology
649,Neurology
636,Neurology
633,Neurology
632,Neurology
623,Neurology
691,Neurology
723,Neurology
721,Neurology
719,Neurology
718,Neurology
714,Neurology
713,Neurology
712,Neurology
711,Neurology
710,Neurology
707,Neurology
690,Neurology
705,Neurology
704,Neurology
703,Neurology
701,Neurology
699,Neurology
696,Neurology
695,Neurology
693,Neurology
353,Neurology
621,Neurology
587,Neurology
585,Neurology
582,Neurology
574,Neurology
571,Neurology
570,Neurology
562,Neurology
555,Neurology
554,Neurology
552,Neurology
588,Neurology
551,Neurology
549,Neurology
543,Neurology
542,Neurology
539,Neurology
536,Neurology
533,Neurology
531,Neurology
530,Neurology
529,Neurology
528,Neurology
622,Neurology
589,Neurology
592,Neurology
619,Neurology
618,Neurology
617,Neurology
615,Neurology
614,Neurology
613,Neurology
590,Neurology
611,Neurology
609,Neurology
608,Neurology
606,Neurology
605,Neurology
603,Neurology
602,Neurology
600,Neurology
594,Neurology
612,Neurology
352,Neurology
349,Neurology
348,Neurology
135,Neurology
133,Neurology
125,Neurology
119,Neurology
118,Neurology
117,Neurology
111,Neurology
137,Neurology
110,Neurology
108,Neurology
107,Neurology
104,Neurology
102,Neurology
101,Neurology
99,Neurology
98,Neurology
97,Neurology
139,Neurology
142,Neurology
172,Neurology
171,Neurology
170,Neurology
169,Neurology
167,Neurology
164,Neurology
162,Neurology
140,Neurology
154,Neurology
153,Neurology
151,Neurology
150,Neurology
149,Neurology
148,Neurology
147,Neurology
146,Neurology
145,Neurology
144,Neurology
143,Neurology
92,Neurology
36,Neurology
35,Neurology
30,Neurology
28,Neurology
27,Neurology
25,Neurology
24,Neurology
40,Neurology
22,Neurology
19,Neurology
9,Neurology
7,Neurology
6,Neurology
5,Neurology
4,Neurology
93,Neurology
48,Neurology
89,Neurology
88,Neurology
87,Neurology
85,Neurology
77,Neurology
76,Neurology
74,Neurology
44,Neurology
73,Neurology
72,Neurology
70,Neurology
65,Neurology
62,Neurology
56,Neurology
55,Neurology
52,Neurology
50,Neurology
173,Neurology
175,Neurology
298,Neurology
297,Neurology
296,Neurology
295,Neurology
293,Neurology
288,Neurology
287,Neurology
299,Neurology
286,Neurology
277,Neurology
274,Neurology
272,Neurology
271,Neurology
270,Neurology
269,Neurology
266,Neurology
264,Neurology
263,Neurology
261,Neurology
282,Neurology
260,Neurology
301,Neurology
305,Neurology
347,Neurology
345,Neurology
341,Neurology
335,Neurology
334,Neurology
331,Neurology
330,Neurology
302,Neurology
329,Neurology
327,Neurology
326,Neurology
324,Neurology
316,Neurology
312,Neurology
309,Neurology
308,Neurology
307,Neurology
328,Neurology
174,Neurology
258,Neurology
217,Neurology
216,Neurology
214,Neurology
212,Neurology
209,Neurology
206,Neurology
205,Neurology
204,Neurology
203,Neurology
219,Neurology
201,Neurology
196,Neurology
192,Neurology
191,Neurology
187,Neurology
186,Neurology
179,Neurology
178,Neurology
177,Neurology
176,Neurology
220,Neurology
222,Neurology
257,Neurology
256,Neurology
254,Neurology
253,Neurology
252,Neurology
243,Neurology
242,Neurology
221,Neurology
239,Neurology
237,Neurology
235,Neurology
234,Neurology
233,Neurology
232,Neurology
231,Neurology
226,Neurology
225,Neurology
223,Neurology
728,Neurology
730,Neurology
1246,Neurology
1242,Neurology
1239,Neurology
1238,Neurology
1236,Neurology
1234,Neurology
1233,Neurology
1230,Neurology
1229,Neurology
1226,Neurology
1216,Neurology
1215,Neurology
1212,Neurology
1209,Neurology
1206,Neurology
1199,Neurology
1198,Neurology
1196,Neurology
1248,Neurology
1249,Neurology
1288,Neurology
1287,Neurology
1286,Neurology
1284,Neurology
1282,Neurology
1281,Neurology
1280,Neurology
1275,Neurology
1271,Neurology
1264,Neurology
1263,Neurology
1262,Neurology
1261,Neurology
1257,Neurology
1252,Neurology
1251,Neurology
1250,Neurology
1265,Neurology
1289,Neurology
1194,Neurology
1192,Neurology
1141,Neurology
1140,Neurology
1139,Neurology
1138,Neurology
1137,Neurology
1134,Neurology
1133,Neurology
1131,Neurology
1128,Neurology
1142,Neurology
1127,Neurology
1125,Neurology
1124,Neurology
1116,Neurology
1115,Neurology
1114,Neurology
1112,Neurology
1109,Neurology
1126,Neurology
1193,Neurology
1145,Neurology
1191,Neurology
1186,Neurology
1185,Neurology
1179,Neurology
1178,Neurology
1177,Neurology
1175,Neurology
1173,Neurology
1144,Neurology
1170,Neurology
1163,Neurology
1158,Neurology
1157,Neurology
1152,Neurology
1151,Neurology
1147,Neurology
1146,Neurology
1169,Neurology
1102,Neurology
1290,Neurology
1433,Neurology
1429,Neurology
1428,Neurology
1426,Neurology
1424,Neurology
1421,Neurology
1416,Neurology
1414,Neurology
1434,Neurology
1411,Neurology
1409,Neurology
1405,Neurology
1402,Neurology
1400,Neurology
1395,Neurology
1394,Neurology
1393,Neurology
1392,Neurology
1391,Neurology
1390,Neurology
1436,Neurology
1496,Neurology
1495,Neurology
1486,Neurology
1485,Neurology
1484,Neurology
1478,Neurology
1475,Neurology
1472,Neurology
1471,Neurology
1469,Neurology
1468,Neurology
1435,Neurology
1463,Neurology
1456,Neurology
1454,Neurology
1446,Neurology
1444,Neurology
1441,Neurology
1440,Neurology
1439,Neurology
1437,Neurology
1387,Neurology
1384,Neurology
1334,Neurology
1333,Neurology
1331,Neurology
1326,Neurology
1325,Neurology
1324,Neurology
1322,Neurology
1335,Neurology
1320,Neurology
1316,Neurology
1313,Neurology
1306,Neurology
1303,Neurology
1300,Neurology
1299,Neurology
1295,Neurology
1292,Neurology
1317,Neurology
1385,Neurology
1341,Neurology
1343,Neurology
1378,Neurology
1376,Neurology
1371,Neurology
1369,Neurology
1365,Neurology
1364,Neurology
1363,Neurology
1362,Neurology
1361,Neurology
1360,Neurology
1358,Neurology
1352,Neurology
1349,Neurology
1348,Neurology
1347,Neurology
1346,Neurology
1345,Neurology
1344,Neurology
3096,Neurology
1101,Neurology
872,Neurology
870,Neurology
867,Neurology
866,Neurology
862,Neurology
861,Neurology
859,Neurology
858,Neurology
855,Neurology
852,Neurology
850,Neurology
846,Neurology
845,Neurology
841,Neurology
840,Neurology
838,Neurology
835,Neurology
834,Neurology
832,Neurology
831,Neurology
830,Neurology
828,Neurology
874,Neurology
875,Neurology
916,Neurology
915,Neurology
914,Neurology
910,Neurology
909,Neurology
907,Neurology
906,Neurology
905,Neurology
900,Neurology
899,Neurology
898,Neurology
894,Neurology
893,Neurology
891,Neurology
889,Neurology
888,Neurology
887,Neurology
881,Neurology
880,Neurology
878,Neurology
917,Neurology
827,Neurology
824,Neurology
768,Neurology
765,Neurology
764,Neurology
762,Neurology
758,Neurology
756,Neurology
754,Neurology
753,Neurology
749,Neurology
770,Neurology
746,Neurology
745,Neurology
744,Neurology
742,Neurology
737,Neurology
733,Neurology
731,Neurology
748,Neurology
772,Neurology
773,Neurology
823,Neurology
822,Neurology
821,Neurology
820,Neurology
817,Neurology
813,Neurology
809,Neurology
808,Neurology
807,Neurology
805,Neurology
801,Neurology
798,Neurology
796,Neurology
793,Neurology
786,Neurology
775,Neurology
774,Neurology
919,Neurology
920,Neurology
1069,Neurology
1068,Neurology
1067,Neurology
1064,Neurology
1062,Neurology
1061,Neurology
1059,Neurology
1058,Neurology
1070,Neurology
1055,Neurology
1054,Neurology
1053,Neurology
1052,Neurology
1050,Neurology
1049,Neurology
1048,Neurology
1046,Neurology
1045,Neurology
1044,Neurology
1043,Neurology
1071,Neurology
1100,Neurology
1099,Neurology
1098,Neurology
1095,Neurology
1094,Neurology
1093,Neurology
1092,Neurology
1090,Neurology
1088,Neurology
1087,Neurology
1085,Neurology
1083,Neurology
1079,Neurology
1078,Neurology
1077,Neurology
1074,Neurology
1073,Neurology
1072,Neurology
1040,Neurology
994,Neurology
991,Neurology
988,Neurology
987,Neurology
981,Neurology
972,Neurology
970,Neurology
967,Neurology
995,Neurology
958,Neurology
954,Neurology
951,Neurology
947,Neurology
946,Neurology
939,Neurology
937,Neurology
936,Neurology
932,Neurology
930,Neurology
956,Neurology
996,Neurology
999,Neurology
1039,Neurology
1030,Neurology
1029,Neurology
1028,Neurology
1026,Neurology
1024,Neurology
1023,Neurology
1022,Neurology
997,Neurology
1021,Neurology
1018,Neurology
1016,Neurology
1010,Neurology
1009,Neurology
1005,Neurology
1002,Neurology
1000,Neurology
1020,Neurology
3097,Neurology
2,
3,
8,
10,
11,
12,
13,
14,
15,
16,
17,
18,
20,
23,
26,
29,
31,
33,
34,
37,
38,
39,
41,
42,
43,
45,
46,
47,
49,
51,
53,
54,
57,
58,
59,
60,
61,
63,
64,
66,
67,
68,
69,
71,
75,
79,
80,
81,
82,
83,
84,
86,
90,
91,
94,
95,
96,
100,
103,
105,
106,
109,
112,
113,
114,
115,
116,
120,
121,
122,
123,
124,
126,
127,
128,
129,
130,
131,
132,
134,
136,
138,
141,
152,
155,
156,
157,
158,
159,
160,
161,
163,
165,
166,
168,
180,
181,
182,
183,
184,
185,
188,
189,
190,
193,
194,
195,
197,
198,
199,
200,
202,
207,
208,
210,
211,
213,
215,
218,
224,
227,
228,
229,
230,
236,
238,
240,
241,
244,
245,
247,
248,
249,
250,
251,
255,
259,
262,
265,
267,
268,
275,
276,
278,
279,
280,
281,
283,
284,
285,
289,
290,
291,
292,
294,
300,
303,
304,
306,
310,
311,
313,
314,
315,
317,
318,
319,
320,
321,
323,
332,
336,
337,
338,
339,
340,
342,
343,
344,
346,
350,
351,
355,
366,
367,
369,
370,
374,
376,
377,
378,
381,
383,
387,
388,
391,
392,
393,
395,
396,
399,
400,
401,
402,
403,
404,
406,
408,
409,
411,
413,
414,
415,
416,
420,
423,
428,
430,
431,
433,
436,
437,
439,
442,
443,
444,
447,
448,
449,
450,
451,
453,
454,
455,
456,
457,
459,
462,
463,
464,
465,
466,
467,
468,
469,
470,
471,
474,
480,
481,
482,
486,
489,
490,
491,
492,
494,
495,
496,
498,
499,
500,
501,
504,
506,
507,
511,
512,
513,
519,
520,
521,
522,
523,
524,
527,
532,
534,
535,
537,
538,
540,
541,
544,
545,
546,
547,
550,
553,
556,
558,
559,
560,
561,
563,
564,
565,
566,
567,
568,
569,
572,
573,
575,
576,
577,
578,
579,
580,
581,
583,
584,
586,
591,
593,
595,
596,
597,
598,
599,
601,
604,
607,
610,
616,
620,
624,
625,
626,
627,
628,
629,
631,
634,
635,
637,
638,
639,
640,
641,
642,
644,
645,
646,
647,
648,
650,
651,
654,
655,
656,
657,
659,
660,
666,
667,
670,
671,
672,
673,
674,
675,
676,
678,
681,
682,
683,
684,
685,
686,
688,
689,
692,
694,
697,
698,
700,
702,
706,
708,
709,
715,
716,
717,
720,
722,
724,
725,
726,
727,
729,
735,
736,
738,
740,
741,
747,
750,
751,
752,
755,
757,
759,
760,
761,
763,
766,
769,
771,
776,
777,
778,
779,
780,
781,
782,
783,
784,
785,
787,
788,
790,
791,
792,
794,
795,
797,
799,
800,
802,
803,
804,
806,
810,
811,
812,
814,
815,
816,
818,
819,
825,
833,
836,
837,
839,
842,
843,
844,
847,
848,
849,
851,
853,
854,
856,
857,
860,
863,
864,
865,
868,
869,
871,
873,
876,
877,
879,
882,
883,
884,
885,
886,
890,
892,
895,
897,
901,
902,
903,
904,
908,
911,
912,
913,
918,
921,
922,
923,
924,
925,
926,
928,
929,
931,
933,
934,
935,
938,
940,
942,
943,
944,
945,
948,
949,
950,
952,
953,
955,
957,
959,
960,
961,
962,
963,
964,
965,
966,
968,
969,
971,
973,
974,
975,
976,
977,
978,
980,
983,
984,
985,
986,
989,
990,
992,
993,
998,
1001,
1003,
1004,
1006,
1007,
1008,
1011,
1012,
1013,
1014,
1015,
1017,
1019,
1025,
1027,
1031,
1032,
1033,
1034,
1035,
1036,
1037,
1038,
1041,
1042,
1047,
1051,
1056,
1057,
1060,
1063,
1065,
1066,
1075,
1076,
1080,
1081,
1082,
1084,
1086,
1089,
1091,
1096,
1097,
1103,
1104,
1105,
1106,
1107,
1108,
1110,
1111,
1113,
1117,
1118,
1119,
1120,
1121,
1122,
1123,
1129,
1130,
1132,
1135,
1136,
1143,
1148,
1149,
1150,
1153,
1154,
1155,
1156,
1159,
1160,
1161,
1162,
1164,
1165,
1166,
1167,
1168,
1171,
1172,
1174,
1176,
1180,
1181,
1182,
1183,
1184,
1187,
1190,
1195,
1197,
1200,
1201,
1202,
1203,
1204,
1205,
1207,
1208,
1210,
1211,
1213,
1214,
1217,
1218,
1219,
1220,
1221,
1222,
1223,
1224,
1225,
1227,
1228,
1231,
1232,
1235,
1237,
1240,
1241,
1243,
1244,
1245,
1253,
1254,
1255,
1256,
1258,
1260,
1266,
1267,
1268,
1269,
1270,
1272,
1273,
1274,
1276,
1277,
1278,
1279,
1283,
1285,
1291,
1293,
1294,
1296,
1297,
1298,
1302,
1304,
1305,
1307,
1308,
1309,
1310,
1311,
1312,
1315,
1318,
1319,
1321,
1323,
1327,
1328,
1330,
1332,
1336,
1337,
1338,
1339,
1340,
1342,
1350,
1351,
1353,
1354,
1355,
1356,
1357,
1359,
1366,
1367,
1368,
1370,
1372,
1373,
1374,
1375,
1377,
1379,
1380,
1381,
1382,
1383,
1386,
1388,
1389,
1396,
1397,
1398,
1399,
1401,
1403,
1404,
1406,
1410,
1412,
1415,
1417,
1418,
1419,
1420,
1422,
1425,
1431,
1438,
1442,
1443,
1445,
1447,
1448,
1449,
1450,
1451,
1452,
1453,
1455,
1457,
1458,
1459,
1460,
1461,
1462,
1464,
1465,
1466,
1467,
1470,
1473,
1474,
1476,
1477,
1479,
1480,
1481,
1482,
1483,
1487,
1488,
1489,
1490,
1491,
1492,
1493,
1494,
1499,
1502,
1503,
1504,
1505,
1509,
1510,
1511,
1513,
1514,
1515,
1521,
1522,
1523,
1526,
1528,
1532,
1533,
1534,
1535,
1536,
1537,
1538,
1541,
1542,
1544,
1547,
1548,
1550,
1551,
1552,
1555,
1556,
1557,
1560,
1561,
1562,
1563,
1564,
1565,
1566,
1568,
1569,
1571,
1572,
1577,
1581,
1585,
1592,
1593,
1594,
1595,
1598,
1601,
1603,
1604,
1605,
1606,
1607,
1611,
1614,
1618,
1620,
1621,
1622,
1623,
1626,
1627,
1628,
1630,
1632,
1633,
1637,
1638,
1639,
1642,
1643,
1644,
1645,
1646,
1647,
1649,
1650,
1651,
1652,
1653,
1655,
1656,
1657,
1658,
1659,
1660,
1661,
1662,
1663,
1666,
1667,
1668,
1670,
1672,
1673,
1674,
1676,
1681,
1682,
1683,
1684,
1688,
1689,
1691,
1693,
1696,
1698,
1699,
1700,
1703,
1704,
1706,
1707,
1709,
1711,
1712,
1713,
1714,
1715,
1716,
1717,
1719,
1723,
1728,
1729,
1731,
1735,
1737,
1738,
1739,
1742,
1744,
1749,
1750,
1752,
1759,
1760,
1762,
1766,
1767,
1770,
1774,
1775,
1776,
1777,
1779,
1781,
1782,
1787,
1788,
1789,
1790,
1791,
1793,
1794,
1795,
1796,
1799,
1800,
1801,
1802,
1805,
1806,
1807,
1809,
1810,
1811,
1812,
1814,
1817,
1819,
1820,
1826,
1828,
1831,
1835,
1836,
1837,
1838,
1839,
1840,
1841,
1842,
1843,
1844,
1845,
1847,
1848,
1850,
1851,
1852,
1854,
1855,
1856,
1857,
1858,
1859,
1860,
1861,
1862,
1863,
1864,
1865,
1866,
1871,
1874,
1875,
1877,
1879,
1880,
1881,
1883,
1886,
1887,
1888,
1890,
1891,
1893,
1895,
1897,
1898,
1900,
1902,
1903,
1906,
1907,
1911,
1913,
1915,
1916,
1917,
1919,
1920,
1921,
1922,
1924,
1926,
1931,
1933,
1934,
1936,
1942,
1943,
1944,
1950,
1952,
1955,
1956,
1957,
1963,
1964,
1966,
1967,
1969,
1970,
1972,
1973,
1974,
1976,
1977,
1978,
1979,
1983,
1986,
1987,
1989,
1991,
1992,
1994,
1995,
1997,
1998,
2001,
2004,
2006,
2008,
2009,
2010,
2012,
2013,
2016,
2017,
2018,
2020,
2021,
2022,
2023,
2024,
2025,
2027,
2029,
2030,
2033,
2037,
2040,
2044,
2045,
2046,
2047,
2049,
2052,
2054,
2055,
2056,
2058,
2059,
2060,
2063,
2064,
2065,
2067,
2069,
2070,
2071,
2073,
2075,
2080,
2081,
2082,
2084,
2086,
2088,
2090,
2092,
2094,
2095,
2097,
2098,
2099,
2104,
2105,
2108,
2114,
2115,
2117,
2118,
2119,
2120,
2122,
2127,
2129,
2130,
2131,
2132,
2139,
2141,
2144,
2145,
2146,
2147,
2148,
2151,
2153,
2154,
2155,
2156,
2160,
2161,
2164,
2165,
2166,
2168,
2172,
2174,
2175,
2176,
2179,
2182,
2184,
2189,
2191,
2192,
2194,
2195,
2196,
2197,
2198,
2200,
2202,
2204,
2205,
2207,
2210,
2214,
2215,
2218,
2219,
2220,
2222,
2224,
2225,
2226,
2227,
2228,
2229,
2230,
2232,
2234,
2235,
2237,
2238,
2242,
2243,
2245,
2246,
2248,
2249,
2250,
2253,
2255,
2257,
2260,
2262,
2263,
2264,
2265,
2269,
2272,
2273,
2275,
2276,
2277,
2281,
2283,
2284,
2287,
2288,
2289,
2290,
2291,
2293,
2296,
2300,
2302,
2303,
2304,
2305,
2309,
2310,
2312,
2314,
2318,
2319,
2321,
2323,
2324,
2326,
2330,
2331,
2332,
2333,
2335,
2336,
2337,
2338,
2339,
2343,
2346,
2349,
2350,
2352,
2353,
2354,
2355,
2358,
2359,
2361,
2363,
2368,
2370,
2371,
2374,
2375,
2377,
2379,
2380,
2382,
2383,
2384,
2386,
2388,
2390,
2392,
2393,
2394,
2395,
2398,
2399,
2401,
2404,
2405,
2406,
2408,
2410,
2411,
2412,
2413,
2414,
2416,
2417,
2420,
2422,
2423,
2424,
2425,
2427,
2428,
2429,
2430,
2431,
2439,
2440,
2441,
2442,
2445,
2446,
2447,
2450,
2451,
2452,
2454,
2456,
2457,
2458,
2459,
2462,
2463,
2464,
2465,
2466,
2467,
2471,
2472,
2473,
2475,
2481,
2482,
2483,
2484,
2485,
2486,
2487,
2490,
2492,
2493,
2496,
2499,
2503,
2505,
2509,
2513,
2514,
2517,
2518,
2519,
2520,
2521,
2528,
2533,
2535,
2536,
2537,
2538,
2539,
2540,
2541,
2542,
2543,
2545,
2546,
2550,
2551,
2552,
2555,
2560,
2562,
2563,
2564,
2566,
2568,
2569,
2571,
2572,
2573,
2574,
2575,
2580,
2581,
2586,
2587,
2588,
2590,
2591,
2596,
2600,
2601,
2602,
2604,
2606,
2607,
2608,
2612,
2614,
2615,
2617,
2618,
2620,
2623,
2626,
2628,
2630,
2632,
2633,
2634,
2635,
2636,
2637,
2639,
2640,
2641,
2642,
2643,
2644,
2647,
2649,
2650,
2652,
2654,
2655,
2656,
2657,
2659,
2661,
2663,
2665,
2667,
2668,
2670,
2671,
2673,
2674,
2675,
2676,
2677,
2678,
2679,
2680,
2682,
2683,
2685,
2689,
2690,
2691,
2692,
2693,
2696,
2704,
2705,
2706,
2708,
2709,
2710,
2711,
2713,
2714,
2716,
2717,
2718,
2721,
2724,
2725,
2727,
2728,
2731,
2732,
2733,
2734,
2735,
2736,
2737,
2739,
2740,
2742,
2743,
2745,
2747,
2751,
2757,
2758,
2759,
2761,
2762,
2763,
2764,
2766,
2767,
2768,
2769,
2771,
2776,
2778,
2780,
2782,
2784,
2785,
2787,
2788,
2789,
2790,
2791,
2793,
2794,
2795,
2796,
2797,
2798,
2800,
2801,
2802,
2803,
2804,
2809,
2810,
2811,
2812,
2815,
2821,
2822,
2828,
2829,
2830,
2831,
2832,
2835,
2836,
2837,
2839,
2841,
2849,
2850,
2851,
2852,
2853,
2854,
2855,
2859,
2862,
2865,
2866,
2869,
2870,
2871,
2872,
2874,
2876,
2878,
2880,
2881,
2887,
2888,
2890,
2891,
2892,
2895,
2898,
2899,
2905,
2907,
2908,
2911,
2912,
2913,
2915,
2916,
2918,
2920,
2922,
2924,
2925,
2926,
2927,
2928,
2930,
2931,
2932,
2933,
2935,
2936,
2938,
2939,
2940,
2941,
2946,
2947,
2949,
2950,
2951,
2953,
2954,
2955,
2958,
2960,
2961,
2962,
2963,
2964,
2966,
2968,
2971,
2974,
2977,
2978,
2979,
2980,
2981,
2983,
2984,
2985,
2986,
2990,
2993,
2995,
2996,
2998,
3001,
3007,
3008,
3011,
3014,
3015,
3016,
3021,
3022,
3023,
3024,
3027,
3028,
3029,
3031,
3032,
3033,
3034,
3035,
3036,
3038,
3039,
3040,
3041,
3042,
3043,
3044,
3045,
3048,
3049,
3050,
3051,
3053,
3058,
3059,
3062,
3063,
3064,
3065,
3066,
3071,
3072,
3074,
3077,
3079,
3080,
3081,
3082,
3083,
3084,
3086,
3088,
3089,
3090,
3091,
3092,
3094,
3098,
LBS01,
LBS02,
LBS03,
LBS05,
LBS06,
LBS07,
LBS09,
LBS10,
LBS11,
