k_generic_id,k_generic,k_brand_id,k_brand,k_disease_id,k_disease,therapeutic area,phase,k_drug_class_id,k_drug_class,k_firm_id,k_firm
DRU000635,Ataluren,DRB004318,Translarna,DIS000267,Duchenne Muscular Dystrophy,Neurology,Approved,-,-,FIR008991,PTC Therapeutics
DRU001792,Deflazacort,DRB001302,Emflaza,DIS000267,Duchenne Muscular Dystrophy,Neurology,Approved,-,-,FIR008991,PTC Therapeutics
DRU028194,Eteplirsen,DRB004849,Exondys 51,DIS000267,Duchenne Muscular Dystrophy,Neurology,Approved,DRC001438,Antisense Oligonucleotide,FIR009600,Sarepta Therapeutics
DRU011233,Golodirsen,DRB004320,Vyondys,DIS000267,Duchenne Muscular Dystrophy,Neurology,Approved,DRC001438,Antisense Oligonucleotide,FIR009600,Sarepta Therapeutics
DRU028573,Casimersen,-,-,DIS000267,Duchenne Muscular Dystrophy,Neurology,Phase 3,DRC001359,Exon Skipping Therapy,FIR009600,Sarepta Therapeutics
DRU018261,SRP-9001,-,-,DIS000267,Duchenne Muscular Dystrophy,Neurology,Phase 2,DRC000337,Gene Therapy,FIR009600,Sarepta Therapeutics
DRU017876,SGT-001,-,-,DIS000267,Duchenne Muscular Dystrophy,Neurology,Phase 2,DRC002187,Gene transference,FIR010085,Solid Biosciences
PDRU00001,Galgt2 gene therapy,-,-,DIS000267,Duchenne Muscular Dystrophy,Neurology,Phase 2,DRC000337,Gene Therapy,FIR009600,Sarepta Therapeutics
DRU027350,PF-06939926,-,-,DIS000267,Duchenne Muscular Dystrophy,Neurology,Phase 2,-,-,FIR001210,Asklepios Biopharmaceutical
DRU027350,PF-06939926,-,-,DIS000267,Duchenne Muscular Dystrophy,Neurology,Phase 2,-,-,FIR008469,Pfizer
DRU027350,PF-06939926,-,-,DIS000267,Duchenne Muscular Dystrophy,Neurology,Phase 1,DRC000337,Gene Therapy,FIR008469,Pfizer
PDRU00002,AT-702,-,-,DIS000267,Duchenne Muscular Dystrophy,Neurology,Phase 1,-,-,FIR001235,Astellas Pharma Inc
PDRU00002,AT-702,-,-,DIS000267,Duchenne Muscular Dystrophy,Neurology,Phase 1,-,-,FIR001313,Audentes Therapeutics
PDRU00003,AT-751,-,-,DIS000267,Duchenne Muscular Dystrophy,Neurology,Preclinical,-,-,FIR001235,Astellas Pharma Inc
PDRU00003,AT-751,-,-,DIS000267,Duchenne Muscular Dystrophy,Neurology,Preclinical,-,-,FIR001313,Audentes Therapeutics
PDRU00034,AT-753,-,-,DIS000267,Duchenne Muscular Dystrophy,Neurology,Preclinical,-,-,FIR001313,Audentes Therapeutics
PDRU00004,AAV- MD1 gene therapy,-,-,DIS000267,Duchenne Muscular Dystrophy,Neurology,Preclinical,DRC000337,Gene Therapy,FIR009600,Sarepta Therapeutics
PDRU00004,AAV- MD1 gene therapy,-,-,DIS000267,Duchenne Muscular Dystrophy,Neurology,Preclinical,DRC000337,Gene Therapy,FIR010710,Genethon
PDRU00006,DMD gene therapy,-,-,DIS000267,Duchenne Muscular Dystrophy,Neurology,Preclinical,DRC000337,Gene Therapy,PFIR00017,Anagenesis Bio
PDRU00006,DMD gene therapy,-,-,DIS000267,Duchenne Muscular Dystrophy,Neurology,Preclinical,DRC000337,Gene Therapy,FIR011896,Vertex Pharmaceuticals Incorporated
PDRU00006,DMD gene therapy,-,-,DIS000267,Duchenne Muscular Dystrophy,Neurology,Preclinical,DRC000337,Gene Therapy,FIR003071,CRISPR Therapeutics
PDRU00005,CRISPR-Cas9 gene therapy,-,-,DIS000267,Duchenne Muscular Dystrophy,Neurology,Preclinical,DRC000337,Gene Therapy,PFIR00008,Editas
PDRU00005,CRISPR-Cas9 gene therapy,-,-,DIS000267,Duchenne Muscular Dystrophy,Neurology,Preclinical,DRC000337,Gene Therapy,PFIR00012,AskBio
PDRU00004,AAV- MD1 gene therapy,-,-,DIS000267,Duchenne Muscular Dystrophy,Neurology,Preclinical,DRC001435,rAAV Gene Therapy,FIR010710,Genethon
PDRU00004,AAV- MD1 gene therapy,-,-,DIS000267,Duchenne Muscular Dystrophy,Neurology,Preclinical,DRC001435,rAAV Gene Therapy,FIR009600,Sarepta Therapeutics
DRU000635,Ataluren,DRB004318,Translarna,DIS000095,Epilepsy,Neurology,Phase 2,-,-,FIR008991,PTC Therapeutics
DRU027278,PTC-AADC,-,-,DIS002171,Aromatic L-amino Acid Decarboxylase Deficiency,Genetic Disorder,Phase 2,DRC000337,Gene Therapy,FIR008991,PTC Therapeutics
DRU027278,PTC-AADC,-,-,DIS002171,Aromatic L-amino Acid Decarboxylase Deficiency,Genetic Disorder,Phase 2,-,-,PFIR00010,Agilis Biotherapeutics
PDRU00009,AAV2 Ð hAADC,-,-,DIS002171,Aromatic L-amino Acid Decarboxylase Deficiency,Genetic Disorder,Phase 1,-,-,PFIR00012,AskBio
PDRU00010,AAV Ð hAADC-2,-,-,DIS002171,Aromatic L-amino Acid Decarboxylase Deficiency,Genetic Disorder,Phase 1,-,-,FIR011126,Takara Bio
DRU000635,Ataluren,DRB004318,Translarna,DIS000723,Dravet Syndrome,Neurology,Phase 2,-,-,FIR008991,PTC Therapeutics
PDRU00032,EXT-101,-,-,DIS000723,Dravet Syndrome,Neurology,Preclinical,-,-,PFIR00016,Encoded Therapeutics
PDRU00017,PTC- AS GT,-,-,DIS000448,Angelman Syndrome,Genetic Disorder,Preclinical,DRC000337,Gene Therapy,FIR008991,PTC Therapeutics
PDRU00017,PTC- AS GT,-,-,DIS000448,Angelman Syndrome,Genetic Disorder,Preclinical,DRC000337,Gene Therapy,PFIR00010,Agilis Biotherapeutics
PDRU00019,AS-GT,-,-,DIS000448,Angelman Syndrome,Genetic Disorder,Preclinical,DRC000337,Gene Therapy,FIR000795,Amicus Therapeutics
PDRU00018,OV-881,-,-,DIS000448,Angelman Syndrome,Genetic Disorder,Preclinical,-,-,FIR008252,Ovid Therapeutics
PDRU00011,PTC-FA GT,-,-,DIS001070,Friedreich Ataxia,Neurology,Preclinical,DRC000337,Gene Therapy,FIR008991,PTC Therapeutics
PDRU00011,PTC-FA GT,-,-,DIS001070,Friedreich Ataxia,Neurology,Preclinical,DRC000337,Gene Therapy,PFIR00010,Agilis Biotherapeutics
PDRU00016,AAV-FA GT,-,-,DIS001070,Friedreich Ataxia,Neurology,Preclinical,DRC000337,Gene Therapy,-,University of Florida
PDRU00011,PTC-FA GT,-,-,DIS001070,Friedreich Ataxia,Neurology,Preclinical,DRC000337,Gene Therapy,PFIR00010,Agilis Biotherapeutics
PDRU00012,FA GT,-,-,DIS001070,Friedreich Ataxia,Neurology,Preclinical,DRC000337,Gene Therapy,PFIR00002,Bamboo Therapeutics
PDRU00012,FA GT,-,-,DIS001070,Friedreich Ataxia,Neurology,Preclinical,DRC000337,Gene Therapy,FIR009223,Regenxbio
PDRU00012,FA GT,-,-,DIS001070,Friedreich Ataxia,Neurology,Preclinical,DRC000337,Gene Therapy,FIR008469,Pfizer
PDRU00015,allogeneic pluripotent stem cells,-,-,DIS001070,Friedreich Ataxia,Neurology,Preclinical,-,-,FIR002444,Celavie Bioscences
PDRU00014,AAVRh.10.FXN,-,-,DIS001070,Friedreich Ataxia,Neurology,Preclinical,-,-,FIR000371,Adverum Biotechnologies
PDRU00013,AAV-FA-GT,-,-,DIS001070,Friedreich Ataxia,Neurology,Preclinical,DRC000337,Gene Therapy,PFIR00003,StrideBio
PDRU00013,AAV-FA-GT,-,-,DIS001070,Friedreich Ataxia,Neurology,Preclinical,DRC000337,Gene Therapy,FIR011127,TAKEDA
DRU028644,VY-FXN-01,-,-,DIS001070,Friedreich Ataxia,Neurology,Preclinical,DRC001435,rAAV Gene Therapy,FIR012072,Voyager Therapeutics
DRU028644,VY-FXN-01,-,-,DIS001070,Friedreich Ataxia,Neurology,Preclinical,DRC001435,rAAV Gene Therapy,FIR007497,Neurocrine Biosciences
DRU007154,AVXS-401,-,-,DIS001070,Friedreich Ataxia,Neurology,Preclinical,DRC000337,Gene Therapy,FIR007771,Novartis
DRU007154,AVXS-401,-,-,DIS001070,Friedreich Ataxia,Neurology,Preclinical,DRC000337,Gene Therapy,FIR009223,Regenxbio
PDRU00011,PTC-FA GT,-,-,DIS001070,Friedreich Ataxia,Neurology,Preclinical,DRC000337,Gene Therapy,FIR005518,Intrexon
PDRU00015,allogeneic pluripotent stem cells,-,-,DIS001070,Friedreich Ataxia,Neurology,Preclinical,-,-,FIR002444,Celavie Bioscences
DRU015399,Onasemnogene Abeparvovec-Xioi,DRB003211,Zolgensma,DIS000261,Spinal Muscular Atrophy,Neurology,Approved,DRC001435,rAAV Gene Therapy,FIR001382,"AveXis, Inc."
DRU004014,Nusinersen,DRB003157,Spinraza,DIS000261,Spinal Muscular Atrophy,Neurology,Approved,DRC001438,Antisense Oligonucleotide,FIR001770,Biogen
DRU001071,Branaplam,-,-,DIS000261,Spinal Muscular Atrophy,Neurology,Phase 2,DRC001370,Survival of motor neuron 2 protein modulator,FIR007771,Novartis
PDRU00008,SMN-1 gene therapy,-,-,DIS000261,Spinal Muscular Atrophy,Neurology,Preclinical,DRC000337,Gene Therapy,FIR001770,Biogen
PDRU00007,SMA gene therapy,-,-,DIS000261,Spinal Muscular Atrophy,Neurology,Preclinical,DRC000337,Gene Therapy,FIR010710,Genethon
PDRU00007,SMA gene therapy,-,-,DIS000261,Spinal Muscular Atrophy,Neurology,Preclinical,DRC000337,Gene Therapy,FIR001381,AveXis
DRU015399,Onasemnogene Abeparvovec-Xioi,DRB003211,Zolgensma,DIS001948,Spinal Muscular Atrophy Type II,Neurology,Phase 4,DRC001435,rAAV Gene Therapy,FIR001382,"AveXis, Inc."
DRU015399,Onasemnogene Abeparvovec-Xioi,DRB003211,Zolgensma,DIS001825,Spinal Muscular Atrophy Type I,Neurology,Phase 4,DRC001435,rAAV Gene Therapy,FIR001382,"AveXis, Inc."
DRU015399,Onasemnogene Abeparvovec-Xioi,DRB003211,Zolgensma,DIS002686,Spinal Muscular Atrophy Type III,Neurology,Phase 4,DRC001435,rAAV Gene Therapy,FIR001382,"AveXis, Inc."
DRU018261,SRP-9001,-,-,DIS000436,Muscular Dystrophy,Neurology,Phase 2,DRC000337,Gene Therapy,FIR009600,Sarepta Therapeutics
DRU021938,AMT-130,-,-,DIS002079,Huntington Disease,Neurology,Phase 2,DRC000337,Gene Therapy,FIR011683,UniQure Biopharma
DRU027018,VY-AADC,-,-,DIS000057,Parkinson's Disease,Neurology,Phase 2,DRC000337,Gene Therapy,FIR012072,Voyager Therapeutics
DRU027018,VY-AADC,-,-,DIS000057,Parkinson's Disease,Neurology,Phase 2,DRC000337,Gene Therapy,FIR007497,Neurocrine Biosciences
PDRU00026,PR-001,-,-,DIS005003,GBA-Parkinson's Disease,Neurology,Phase 1,-,-,FIR008822,Prevail Therapeutics
PDRU00026,PR-001,-,-,DIS005003,GBA-Parkinson's Disease,Neurology,Phase 1,-,-,FIR009223,Regenxbio
DRU007152,AVXS-201,-,-,DIS000773,Rett Syndrome,Neurology,Phase 1,DRC000337,Gene Therapy,FIR001381,AveXis
DRU007152,AVXS-201,-,-,DIS000773,Rett Syndrome,Neurology,Preclinical,DRC000337,Gene Therapy,FIR009223,Regenxbio
PDRU00025,TAK-686,-,-,DIS000384,Huntington's disease,Neurology,Preclinical,-,-,FIR011127,TAKEDA
PDRU00025,TAK-686,-,-,DIS000384,Huntington's disease,Neurology,Preclinical,-,-,FIR009556,Sangamo Therapeutics
PDRU00024,DYST-201,-,-,DIS000384,Huntington's disease,Neurology,Preclinical,-,-,PFIR00009,Dystrogen Therapeutics
PDRU00023,AAV GT,-,-,DIS000384,Huntington's disease,Neurology,Preclinical,DRC000337,Gene Therapy,PFIR00006,Chameleon Biosciences
PDRU00022,Huntington's disease GT,-,-,DIS000384,Huntington's disease,Neurology,Preclinical,DRC000337,Gene Therapy,FIR001210,Asklepios Biopharmaceutical
PDRU00022,Huntington's disease GT,-,-,DIS000384,Huntington's disease,Neurology,Preclinical,DRC000337,Gene Therapy,PFIR00012,AskBio
PDRU00021,AAV-gene therapy,-,-,DIS000384,Huntington's disease,Neurology,Preclinical,DRC000337,Gene Therapy,PFIR00005,BrainVectis
PDRU00021,AAV-gene therapy,-,-,DIS000384,Huntington's disease,Neurology,Preclinical,DRC000337,Gene Therapy,PFIR00012,AskBio
DRU028652,SPK-miHTT,-,-,DIS000384,Huntington's disease,Neurology,Preclinical,DRC000337,Gene Therapy,FIR010159,Spark Therapeutics
DRU028650,INT-41,-,-,DIS000384,Huntington's disease,Neurology,Preclinical,DRC000337,Gene Therapy,PFIR00013,Vybion
DRU028651,NXL-AAV003,-,-,DIS000384,Huntington's disease,Neurology,Preclinical,DRC000337,Gene Therapy,PFIR00014,NeuExcell Therapeutics
PDRU00031,UX-055,-,-,PDIS00003,CDKL5 Epilepsy,Neurology,Preclinical,-,-,FIR011653,Ultragenyx Pharmaceutical
PDRU00031,UX-055,-,-,PDIS00003,CDKL5 Epilepsy,Neurology,Preclinical,-,-,FIR009223,Regenxbio
PDRU00030,CDKL5-GT,-,-,PDIS00003,CDKL5 Epilepsy,Neurology,Preclinical,DRC000337,Gene Therapy,FIR000795,Amicus Therapeutics
PDRU00029,Leigh syndrome ZnF therapy,-,-,DIS001991,Leigh Syndrome,Neurology,Preclinical,-,-,FIR009556,Sangamo Therapeutics
PDRU00026,PR-001,-,-,DIS000621,Gaucher Disease,Genetic Disorder,Preclinical,-,-,FIR009223,Regenxbio
PDRU00026,PR-001,-,-,DIS000621,Gaucher Disease,Genetic Disorder,Preclinical,-,-,FIR008822,Prevail Therapeutics
PDRU00020,CRISPR-Cas9 in-vivo gene therapy,-,-,DIS001089,Hereditary Attr Amyloidosis,Neurology,Preclinical,DRC000337,Gene Therapy,PFIR00004,Intellia Therapeutics
PDRU00020,CRISPR-Cas9 in-vivo gene therapy,-,-,DIS001089,Hereditary Attr Amyloidosis,Neurology,Preclinical,DRC000337,Gene Therapy,FIR009217,Regeneron Pharmaceuticals
PDIS00001,Amyloidosis Tx,-,-,DIS001089,Hereditary Attr Amyloidosis,Neurology,Discovery,-,-,PFIR00007,TruCode Gene Repair
