Internal ID,value
2206,
3237,
1490,
4340,
4339,
4338,
4337,
4336,
4335,
4334,
4341,
3446,
3450,
1281,
2516,
4605,
1295,
3334,
3332,
2741,
1301,
1303,
1299,
960,
2088,
2389,
1649,
1653,
1116,
3454,
2113,
2393,
2391,Antiplatelet Agent
2391,Anticoagulant
1645,
1057,Antiplatelet Agent
1710,Antineoplastic Agent
1063,
3117,
3107,
3309,
4111,
2978,
2940,
2945,
1016,
3164,
1045,Prostacyclin
4211,
2875,
1003,
2867,Antiplatelet Agent
2979,
2968,
2967,Anticoagulant
2843,
1038,
2841,
3617,
1386,
1986,
4184,
1845,
3893,PD-1 Inhibitor
3893,HER-2 inhibitor
3893,PD-1 Inhibitor
3893,HER-2 inhibitor
3219,
1825,
3896,
3891,
911,
910,
3905,
664,
3192,
2400,
2402,Anti-Inflammatory Agent
3191,
3850,
1782,Diuretic
1787,
1790,
1772,
4177,
3934,
4186,
3313,
1988,Natriuretic Peptide
3143,Anticoagulant
4176,
3201,
1993,
1972,
3933,Natriuretic Peptide
1967,
3932,
1980,
1773,
1777,Beta Adrenergic Blocking Drug
4154,
3142,
2826,
3152,Anticoagulant
103,
3563,Sodium-glucose transporter 2 Inhibitor
4735,
4737,Factor Xa Inhibitor
500,
3565,Sodium-glucose transporter 2 Inhibitor
3585,
424,
373,
4355,
682,
4504,
4405,
630,
457,
3567,Sodium-glucose transporter 2 Inhibitor
3472,
97,
11,
693,
4293,
4683,
4311,
4674,
722,
728,Stem Cell Therapy
3370,Anticoagulant
3574,
3593,Antineoplastic Agent
3481,
880,Antithrombothic agent
3535,
3350,
3496,
2655,Antiplatelet Agent
3774,
4627,
1685,
1741,
2598,
2600,
1759,Anticoagulant
1754,Anticoagulant
2561,
1614,
4024,
3641,Norepinephrine Reuptake Inhibitor
3849,
3629,
3633,
1673,
3605,
2446,
1704,
2472,Antiplatelet Agent
2472,Anticoagulant
2470,Antiplatelet Agent
2470,Anticoagulant
4599,Corticosteroid
4572,
3466,
2747,Immune Checkpoint Inhibitor
4598,
1506,
1513,
3151,
1524,
4097,
1442,
2493,Vitamin K Inhibitor
2518,
2436,
1448,
2468,Antiplatelet Agent
2468,Anticoagulant
2468,Antiplatelet Agent
1428,
3924,
801,
3589,
2025,
422,Antiplatelet Agent
422,Antiplatelet Agent
2109,
4243,
2005,
3919,Mineralocorticoid Receptor Antagonist
3200,
4553,
9,
2921,
4622,
2026,
2158,
3912,ACE Inhibitor
2017,
2028,
224,
2006,
2163,
1767,
3193,
2177,
3547,
2018,Antiplatelet Agent
627,
4065,
3289,
1515,
1520,
1521,
3288,
1519,
1518,
1516,
1418,
1517,
1504,
1419,
1530,
1529,
310,
309,
308,
4590,
345,
4589,
4574,
1505,
344,
3469,
3470,
930,
1509,
1512,
1511,
1510,
1508,
1507,
3468,
1514,
493,
1475,
1557,
4050,
4051,
4052,
3282,
4053,
4054,
3283,
4048,
4047,
4049,
3279,
4043,
4044,
1570,
4045,
1568,
4046,
1563,
4055,
3286,
4062,
1572,
3280,
3281,
1522,
3290,
3291,
1480,
1479,
1478,
1477,
1476,
1474,
1472,
1471,
1470,
1469,
1503,
1502,
4066,
4067,
3604,
4068,
3603,
4069,
1416,
4071,
4073,
1468,
4573,
4596,
3474,
278,
3476,
255,
4626,
253,
1564,
4628,
4631,
279,
4633,
4635,
245,Anticoagulant
242,
4638,
4640,
4624,
4623,
275,
4614,
3477,
3475,
1562,
299,
294,
293,
292,
291,
306,
289,Sodium-glucose transporter 2 Inhibitor
3473,
1560,
4607,
298,
4608,
280,
296,
297,
305,
304,
303,
302,
301,
300,
1561,
4615,
269,
268,
364,
3464,
4548,
4550,
4551,
1567,
4554,
4555,
4556,
4546,
4557,
4559,
4560,
1531,
3471,
4591,
4593,
321,
319,
316,
4558,
4561,
4562,
1566,
267,
4617,
265,
264,
260,
1565,
4545,
4567,
4563,
354,
3467,
4564,
4565,
353,
4566,
4568,
307,
350,
4569,
4570,
4571,
4597,
3287,
4056,
4064,
1574,
3225,
1679,
1682,
1681,
1680,
1692,
1678,
1677,
1676,
1683,
1684,
1691,
1690,
1689,
1688,
1687,
1686,
3226,
1709,
1739,
1705,
3992,
1706,
1708,
1453,
4092,
1452,
1451,
1450,
1573,
1701,
1723,
1703,
1724,
1702,
1582,
4001,
1700,
1693,
1698,
1697,
4002,
1695,
1694,
3224,
1707,
3296,
1742,
1740,
3608,
1716,
1715,
1714,
1713,
1712,
1711,
3262,
3998,
1732,
1731,
1730,
1729,
1728,
1726,
3609,
3250,
1721,
1675,
3270,
1616,
1733,
3227,
1734,
3261,
1738,
3993,
1737,
1736,
1735,
3229,
3230,
3245,
1760,Anticoagulant
3258,
1758,Anticoagulant
1757,Anticoagulant
3240,
1756,Anticoagulant
1755,Anticoagulant
3260,
3241,
1753,Anticoagulant
1752,Anticoagulant
1751,Anticoagulant
1750,Anticoagulant
3243,
4063,
1454,
1443,
1425,
1424,
1423,
1422,
1421,
1433,
1526,
1441,
1440,
1439,
1438,
1437,
1436,
1435,
1527,
1434,
1467,
4100,
4099,
1402,
1528,
1426,
1401,
1417,
1429,
1525,
1391,
1523,
1534,
1559,
1393,
3284,
4057,
1540,
4058,
3285,
4059,
1537,
4060,
4061,
1390,
1427,
1432,
1431,
4096,
1430,
1415,
1449,
1400,
1398,
3292,
1458,
1457,
3294,
1456,
4090,
4086,
1466,
1465,
1464,
1463,
1462,
1461,
1719,
1455,
1722,
1447,
1446,
3297,
1445,
1444,
1459,
1399,
1460,
3293,
1397,
1396,
4101,
3602,
3301,
1403,
1404,
4098,
1414,
1413,
1412,
1411,
1410,
1409,
1408,
1407,
1406,
1405,
3298,
1581,
4088,
295,
459,
365,
190,
3484,
189,
188,
4668,
187,
4670,
198,
3576,
4665,
205,
203,
1546,
202,
201,
3482,
200,
4700,
50,
53,
3480,
1545,
194,
3483,Antineoplastic Agent
209,
4646,
208,
3479,
217,
234,
233,
232,
231,
230,
229,
228,
227,
226,
225,
223,
221,
220,
219,
218,
4649,
52,
210,
51,
3524,
4754,
4755,
3532,
3533,
56,
4764,
4765,
36,
4778,
4753,
4779,
12,
4780,
1550,
4781,
7,
6,
4782,
4785,
4786,
13,
3558,
3529,
3559,
1547,
1548,
3556,
46,
3555,
3554,
3553,
3539,
41,
39,
38,
54,
55,
3560,
4744,
62,
4745,
3525,
3526,
1549,Beta Adrenergic Blocking Drug
3527,Sodium-glucose transporter 2 Inhibitor
3557,
14,
211,
213,
4281,
4282,
791,
4283,
4284,
4285,
787,
4286,
4287,
793,
4289,
779,
4494,
491,
161,
3490,
4684,
164,
163,
4288,
794,
3374,
759,
3373,
4277,
4278,
815,
820,
819,
818,
817,
816,
4279,
777,
776,
775,
774,
773,
3375,
768,
766,
763,
761,
760,
162,
3478,
155,
159,
122,
4699,
137,
138,
139,
4690,
149,
4692,
147,
4698,
4693,
142,
141,
140,
184,
3485,
212,
216,
215,
214,
4694,
3492,
126,
4697,
158,
157,
156,
4682,
3486,
3487,
4677,
3488,
178,
3489,
4687,
4642,
4696,
136,
4695,
135,
134,
133,
2080,
132,
3491,
160,
15,
4777,
35,
397,
1576,
393,
1577,
3582,
1579,
4529,
1580,
4531,
399,
3431,
438,
466,
472,
470,
3430,
468,
467,Tissue Plasminogen Activator
439,
1554,
4506,
401,
1575,
375,
1536,
4535,
3581,
370,
4537,
3457,
368,
4539,
3460,Anticoagulant
3461,
3462,
1538,
1539,
366,
1542,
1555,
379,
1569,
1571,
381,
465,
377,
464,
473,
450,
449,
448,
446,
445,
444,
443,
442,
441,
451,
440,
460,
1615,
458,
1558,
456,
455,
454,
3463,
4544,
453,
4505,
452,
461,
4503,
1556,
475,
490,
4496,
489,
4497,
4498,
486,
4499,
485,
4500,
3428,
484,
483,
3429,Sodium-glucose transporter 2 Inhibitor
481,
4502,
478,
476,
462,
463,
4533,
3456,
405,
3502,
100,
3494,
112,
4702,
110,
4703,
4704,
3493,
1544,
1553,
101,
4708,
87,
3566,Sodium-glucose transporter 2 Inhibitor
3564,Sodium-glucose transporter 2 Inhibitor
73,
4734,
72,
1543,
4707,
3568,Sodium-glucose transporter 2 Inhibitor
3497,
4742,
3551,
4767,
3550,
4770,
4771,
27,
4772,
4773,
24,
4774,
4775,
20,
4776,
4743,
3561,Sodium-glucose transporter 2 Inhibitor
4701,
1551,
4710,
3495,
98,
1552,
1541,
4736,
3562,Sodium-glucose transporter 2 Inhibitor
4738,
3437,
419,
3584,Diuretic
3438,
4514,
3436,
3432,
4507,Antiplatelet Agent
4507,Antiplatelet Agent
3433,
4509,
3434,
4510,
3435,
4511,
3583,
4601,
4495,
236,
4739,
4740,
4741,
4733,
4732,
1532,
4731,
1533,
4721,
4722,
81,
4723,
4724,
4725,
4726,
4727,
1535,
3512,
4728,
4729,
4730,
237,
3269,
1607,
1613,
4680,
4681,
4666,
4714,
4715,
4716,
4717,
4720,
4667,
4679,
4587,
4660,
4661,
4662,
4663,
4664,
351,
3892,
3819,
352,
4659,
4678,
429,
4675,
426,
4239,
4242,
4247,
4248,
4250,
4252,
4253,
4705,
4706,
4709,
427,
4711,
428,
4712,
4713,
4676,
4669,
4671,
4672,
4673,
3954,
3949,
3950,
3952,
3687,
3688,
3664,
3689,
3690,
3691,
3692,
355,
3962,
4173,
4174,
4175,
4166,Sodium-glucose transporter 2 Inhibitor
4166,Sodium-glucose transporter 2 Inhibitor
356,
4165,
4167,
4168,
4169,Antiplatelet Agent
4169,Antiplatelet Agent
4170,
3977,
3976,
3686,
4245,
3685,
3683,
3956,
3958,
3959,
3960,
3961,Anaesthetic
3961,Anaesthetic
3899,
3894,
3895,Antiplatelet Agent
3895,Antiplatelet Agent
3897,
3898,
3678,
3669,
3670,
3671,
3672,
3673,
3676,
3677,
3679,
3680,
3681,
3684,
4007,
425,
4271,
1245,
3598,
1242,
4158,
1229,
1227,Antiplatelet Agent
1227,Anticoagulant
3338,
4171,
1220,
1247,
1219,
1218,
2917,
1217,
2918,
1216,
1215,
1260,
2919,
1214,
3339,
4164,
4163,
3599,
4188,
1183,
2912,
1180,
1179,
4187,
1176,
1175,
1213,
1232,
3597,Beta Adrenergic Blocking Drug
1234,
1233,
2913,
1228,
1231,
2914,
3312,
1230,
3336,
2915,
1259,
1258,
1226,
1389,
4401,
4404,
4429,
4431,
4501,
4508,
4512,
4513,
4432,
4433,
4434,
4266,
4256,
4262,
4265,
4267,
4268,
423,
4269,
4270,
418,
4430,
4254,
4413,
4411,
4172,
420,
4153,
1225,
3337,
1221,
1224,
421,
1223,
1222,
3577,
3571,
3572,
3578,
3575,
3579,
3569,
3573,
3570,
4414,
4410,
4412,
1161,
4008,
4010,
361,
185,
206,
204,Antiplatelet Agent
204,Antiplatelet Agent
183,
167,
182,
181,
180,
186,
179,
251,
252,
256,
254,
59,
362,
63,
61,
60,
207,
191,
360,
1165,
1186,
1185,
1184,
1182,
1181,
1178,
1194,
1177,
1202,
1200,
1199,
1196,
1195,
1174,
1173,
1171,
1170,
1169,
1168,
1167,
58,
57,
64,
71,
559,
557,
556,
496,
555,
618,
617,
367,
615,
614,
613,
612,
611,
626,
625,
624,
623,
622,
600,
598,
495,
560,
1188,
494,
563,
70,
69,
68,
67,
66,
492,
65,
30,
104,
102,
99,
74,
82,
80,
79,
78,Anticoagulant
78,Vitamin K Inhibitor
78,Anticoagulant
78,Vitamin K Inhibitor
77,
76,
75,
83,
84,
562,
4009,
1189,
369,
836,
835,
834,
823,
821,
824,
833,
832,
831,Hemostatic
831,Hemostatic
837,
830,
827,Antiplatelet Agent
827,Antiplatelet Agent
826,
357,
825,
1388,
913,
912,
903,
902,
828,
840,
841,
842,
4011,
3968,
3964,
3966,
3969,
3975,
3970,
3972,
3973,
3974,
4012,
4013,
4014,
4016,
4017,
4019,
4020,
4022,
2565,
839,
843,
899,
358,
346,
909,
1211,
1210,
1208,
1207,
1378,
1377,
1375,
1365,
1379,
1387,
1385,
1384,
1383,
1382,Antiplatelet Agent
1382,Antiplatelet Agent
1381,
1206,
1204,
349,
995,
992,
359,
1212,
1191,
1205,
639,
908,
907,
347,
905,
668,
670,
669,
667,
666,
665,
348,
663,
637,
636,
635,
634,
633,
629,
638,
641,
640,
778,
1162,
1163,
4185,
1139,
1138,
1137,
1135,
1124,
4195,
1130,
1129,
1127,
4194,
1125,
1141,
4193,
1142,
1158,
4192,
1156,
1155,
1153,
1151,
3342,
1133,
1159,
3540,
1079,
1082,
4201,
3522,
1081,ACE Inhibitor
1080,
1078,
3523,
1077,
1076,
1075,
1083,
1089,
1088,
1087,
4200,
1086,
1085,
1084,
1106,
3538,
1150,
1145,
1144,
1143,
4212,
976,
4208,
997,
1009,
1008,
1007,
1006,
3517,
1005,
1004,
3500,
1002,
3501,
1001,
1000,
999,
998,
4213,
949,
4217,
3519,
1090,
972,
988,
4196,
1123,
4197,
1112,
1111,
1110,
1109,
1108,
1107,
3520,Hemostatic
1113,
1122,
1118,Immune Checkpoint Inhibitor
1117,
3498,
1115,
1114,
1074,
4210,
4209,
991,
984,
945,
1100,
1102,
1587,
3252,
1583,
4041,
4042,
1578,
1590,
3276,
3277,
4040,
4037,
1593,
3278,
1591,
1624,
3607,
4004,
1664,
4005,
4006,
4038,
4039,
3251,
3275,
1612,
1623,
4023,
3271,
363,Growth Factor
363,Growth Factor
3231,
1606,
3272,
3256,
3273,
1617,
1622,
1621,
3267,
1620,
1619,
4021,
1618,
3268,
3274,
4029,
1658,
3253,
1657,
3254,
3265,
4018,
1636,
1635,
1634,
1633,
4102,
1093,
1097,
1096,
1095,
1094,
4199,
1092,
1091,
1098,
1099,
4276,
1104,
4198,
1103,
3264,
1101,
3263,
3266,
3606,
3255,
3259,
1665,
4003,
1674,
3499,
1672,
1671,
1670,
1669,
1668,
3521,
4015,
1631,
1630,
1629,
1628,
1627,PCSK9 Inhibitor
1626,
1625,
1632,
944,
943,
941,
1284,
1283,
4123,
4113,
4110,
2570,
2567,
4112,
4109,
1285,Antithrombothic agent
4114,
4116,
1361,
4122,
4105,
4103,
4104,
2566,
1380,
4106,
4115,
1287,
4141,
4140,
1279,
4142,
4143,
3515,
1276,
1274,
3516,
4145,
3518,
4146,
3601,
1269,
3600,
1267,
4149,
2568,
4151,
1282,
1286,
4138,
4139,
4107,
4108,
1359,
4117,
1193,
1192,
1190,
2559,
3341,
2560,
4178,
4152,
1209,
2562,
4179,
4180,
1203,
3340,
1201,
3596,
4190,
1172,
4189,
1166,
1164,
1187,
3514,
4182,
1198,
1343,
1345,
1344,
4119,
1342,
1341,
4120,
1339,
2564,
4121,
1346,
1355,
4118,
1352,
1351,
1350,
1349,
1348,
1347,
4150,
4183,
4181,
1280,
4144,
1261,
4205,
1049,Anticoagulant
1047,
1046,
3505,
4202,
1073,
1072,
1071,
1070,
1069,
1068,
1067,
3506,
1024,
1023,
1022,
1021,
1020,
1019,
1018,
3504,
1017,
4203,
4204,
939,
938,
937,
936,
935,
934,
933,
932,
950,
951,
4216,
969,
4214,
3344,
962,
4215,
3503,
959,
958,
954,
1010,
3343,
3257,
3507,
1014,
1317,
4134,
3511,
3513,
1316,Anticoagulant
4136,
1327,
4124,
4125,
4126,
4127,
1328,
1326,
1325,
1323,
1322,
1321,Antiarrhythmic agent
4128,
1320,
4135,
4137,
4133,
1015,
1310,
1312,
1013,
1012,
1011,
1044,
1025,
4206,
1039,
3508,
3509,
3510,
1035,
4207,Diuretic
1029,
1028,
1027,
1026,
4191,
4132,
4129,
1315,
4130,
4131,
1105,
1394,
4274,
1954,Antiplatelet Agent
1953,
1952,
1951,
1937,
3936,
3938,
3939,
3940,
3943,
3202,
3947,
1936,
1935,
1934,
1933,
1932,
1931,
1930,
1929,
1928,
1955,Antiplatelet Agent
1956,
1950,Antiplatelet Agent
1949,
1874,
3957,
1879,Immune Checkpoint Inhibitor
1878,
1877,
3207,
1876,
1875,
2072,
1945,
3937,
1948,
1946,
3935,
3203,
1944,
1943,
1942,
1941,
1940,
1939,
1938,
1947,
1925,
2421,
2422,
2929,
2928,
2927,
2926,
2925,
2974,
2977,
2976,
2975,
2930,
2973,
3163,
2985,
2984,
2983,
2982,
2981,
2980,
2952,
2955,
2954,
2972,
1868,
2931,
3168,
2936,
2939,
2938,
2937,
2932,
2935,
2934,
2933,
2947,
2924,
2944,
2943,
2942,Natriuretic Peptide
2941,
2948,
2923,
2922,
2920,
3682,
3167,Diuretic
2946,
2953,
1869,
1880,
1798,
1797,
2171,
1796,
3210,
1867,
1976,
1978,
1977,
1974,
3931,
1975,
1979,Nonsteroidal Anti-inflammatory Drug
1983,
1982,
1981,
1984,
1966,Monoclonal Antibody
1966,Anti-Inflammatory Agent
1968,
1973,
1964,
1795,
1791,
1793,
3234,
1765,
3610,
1764,
1763,
1771,
1778,
1776,Anaesthetic
1775,
1774,
3980,
1963,
1802,
1803,
1799,
1800,
1805,
1808,
1807,
1806,
3611,
1792,
1794,Beta Adrenergic Blocking Drug
1804,
1961,
1969,Diuretic
3955,
1889,
3953,
1899,
1898,
3951,
3204,
1895,
1882,
1894,
1892,
3205,
1891,
1890,
1957,
1871,
1873,
3208,
1872,
3209,
1893,
1870,
1883,
1884,
1971,
1970,
1996,
1998,
1995,
1994,
1999,
2001,
2000,
1881,
1987,
1989,
1992,
1991,
1990,
1958,
1885,
1888,
3206,
1887,
1886,
1985,
2970,
2951,
2950,
3093,
3073,
3628,
3072,
3071,
3078,
3079,
3080,
3092,
3091,
3090,
3089,
3088,
3087,
3086,
3085,
3084,
3158,
3083,
3082,
3081,
3075,
3076,
3077,
3627,
3100,
3104,
3103,
3102,
3101,
3624,
3099,
3094,
3098,
3625,
2986,
3097,
3095,
3105,
3110,
3623,
3109,
3108,
3106,
3111,
3074,
3626,
3096,
3619,
3618,
3148,
3126,Antiplatelet Agent
3125,
3124,
3123,
3122,
3121,
3070,
3031,
3034,
3159,
3621,
3647,
3032,
3160,
3648,
3649,
3030,
3651,
3035,
3042,
3041,
3643,Antiarrhythmic agent
3033,
3668,
3120,
3112,Antiplatelet Agent
3147,
3146,
3144,
3140,
3620,
3138,
3135,
3134,
3149,
3150,Hemostatic
3119,
3157,
3155,
3154,
3153,
3131,
3622,
3118,
3116,
3115,Natriuretic Peptide
3114,
3113,
3156,
2870,
2871,
2872,
2842,
2840,
2823,
3172,
2809,
2808,
2807,
2806,
3616,
2802,
2844,
3709,
3173,
2798,
3710,
2810,
2822,PCSK9 Inhibitor
2821,
2820,
2819,
2818,
3707,
2799,
2816,
2839,
2825,
2949,
2956,
3675,
2957,
2969,
2966,
2965,
2964,
2963,
2962,
3706,
3674,
2830,Anticoagulant
2838,
3702,
3703,
3704,Immunotherapy
2831,
3705,
2824,
2828,
2827,
2959,
1768,
2814,
2847,
2903,
2902,
2878,
2858,
2865,
2864,
2863,
2862,
3700,
2861,
2904,
2860,
2857,
2853,
3701,
2849,
2866,
2868,
2869,
2877,
2876,
2874,
2859,
3708,
2905,
2907,
3169,
3697,
2897,
3695,
3696,
2894,
2893,Anticoagulant
3170,
3171,
2889,
2906,Anticoagulant
2887,
2886,
2885,
3698,
3699,
2880,
2900,
2911,
3693,
3694,
2908,
2879,
3982,
1769,
1770,
3901,
2258,
2032,
2033,
2034,
2035,
2036,
2037,
2038,
2024,Anticoagulant
2257,
2256,
2255,
2254,
2253,
2250,
3903,
3902,
2247,
2245,
2244,
3927,
2031,
2030,
2029,
2416,
2414,
2413,
2412,
2411,
2409,
2408,
2397,
2375,
2377,
2259,
2376,
2373,
3847,
2396,
2395,
3842,
2040,
2013,
3845,
3846,
2027,
2374,
3900,
2260,
2271,
2174,
2175,
2266,
2265,
2264,
2263,
2262,
2261,
2216,
2220,
2173,
2218,
2215,
2214,
3907,
2225,
3904,Antineoplastic Agent
2236,
2232,
3906,Immune Checkpoint Inhibitor
2226,
2272,
2217,
2417,Anticoagulant
2267,
2268,
2270,
3198,
2269,
2023,
2015,
2014,
2016,
2019,Antithrombothic agent
2020,
2021,
3614,
3928,
2003,
2114,
2184,
2185,
2186,
2187,
2188,
2189,
2183,
2182,
3929,
2418,
3185,
2419,
3921,
2050,
2056,
3926,
3925,
3848,
2369,
2368,
2042,
2106,
2049,
2367,
2108,
2110,
2111,
2112,
2105,
2104,
2366,
2365,
2364,
2354,
2107,
2371,
2048,
2370,
2070,
2213,
2358,
3851,
2361,
2360,
2359,
3852,
2075,
3922,
2047,
2043,
2045,
2046,
3188,
3615,
2357,
2356,
3187,
2355,
2362,
2363,
2044,
2302,
3189,
2346,
2012,
3930,
3857,
2009,
2004,
2007,
2351,
3859,
2350,
2349,
2011,
2008,
3186,
2405,
2404,
2403,
2401,
2398,
2399,
2406,
2407,
2420,
2372,
2347,
2010,
2041,
2092,
2094,
3865,
3920,
3190,
2337,
2336,
3869,
2331,
2096,
2039,
2097,
2348,
2098,
2099,
2100,
2101,
2102,
2103,
2353,
2352,
2095,
3861,
3040,
3913,
2309,
2115,
2116,
2118,
3918,
3917,Aldosterone Antagonist
2122,
3916,
2124,
2125,
2126,
2127,
2123,
3199,
2160,
2161,
2162,
2164,
2165,
2166,
2167,
2159,Growth Factor
2128,
2129,
3217,
1839,
1855,
3213,
1854,
1853,
1866,
3211,
1865,
2131,
3963,
2151,
2132,
1863,Immune Checkpoint Inhibitor
2133,Antiarrhythmic agent
1862,
1861,
2134,
4275,
2135,
2136,
2137,
2138,
1864,
2152,
2153,
2155,
1841,Growth Factor
1840,
3218,
1846,
3965,
1851,
1850,
1849,
1848,
1847,
1842,
3214,
1784,
1783,
1779,
1781,
1780,
1789,
1788,
1786,
1766,
2002,
1852,
1801,
1843,
3915,
2156,
2157,
3914,
2154,
2916,
596,
1297,
4719,
4718,
2873,
4758,
4643,
4280,
4312,
2640,
3797,
3793,
3215,
1844,Sodium-glucose transporter 2 Inhibitor
3967,
3216,
3580,
1857,
3212,
1858,
2314,
2296,
2295,
2285,
3197,
2284,
3909,
3908,
2212,
2283,
2316,
2282,
2280,
2279,
2197,Antithrombothic agent
2191,
2192,
3911,
2278,
2190,
2277,
2276,
2281,
2275,
2317,
3910,
2308,
3890,
3194,
2180,
2181,
2306,
2305,
3195,
2301,
2300,
2319,
2299,
2297,
3889,
2311,
2312,
2328,
2325,
2323,
2179,
2172,Anticoagulant
2198,
2298,
2178,
2274,
3196,
1834,
1833,
3220,
3221,
3222,
3223,
3971,
1838,
1812,
1814,
1835,
1813,
1810,
3228,
1818,
1817,
1816,
1815,
1809,
1859,
3612,
2273,
1836,
2130,
2294,
2293,
2292,
2291,
2290,
2289,
2288,
2287,
2286,
1762,
1837,
2194,
2195,
2196,
2193,
2169,
1824,
1823,
3613,
1819,
1821,
1820,
1822,
3039,
1900,
3038,
3386,
4360,
4363,
4364,
3387,
3388,
4368,
585,
931,
528,
533,
4480,
532,
531,
530,
529,
4486,
4481,
4482,
4483,
4484,
4485,
534,
4357,
3424,
3590,Anticoagulant
643,
4352,
3381,
677,
683,
4332,
4333,
3380,
681,
680,
679,
678,
3385,
3644,
653,
652,
651,
650,
649,
648,
647,
646,
645,
644,
654,
3384,
553,
3425,
512,
511,
510,
509,
508,
507,
4469,
554,
4468,
574,
577,
4437,
576,
4438,
575,
4439,
3413,
4440,
573,
4441,
4442,
4443,
572,
513,
552,
514,
516,
548,
3426,
544,
3427,
4478,
4479,
535,
519,
499,
503,
4489,
502,
501,
518,
498,
4490,
497,
4491,
4492,
4493,
4488,
4487,
517,
515,
4444,
671,
672,
2641,
2639,
2636,
2646,
2656,
2647,
2654,
2653,
2652,
2651,
2650,
2649,
2648,
1761,
3395,
4393,
4394,
4395,
628,
4396,
4397,
4398,
3397,
2642,
3396,
2643,
2645,
3781,
2660,
2659,
3782,
3783,
2658,
2657,
3776,
2666,
2667,
3771,
2676,
2675,
2674,
3772,
2673,
2672,
3773,
2671,
2670,
2669,
2668,
3784,Antineoplastic Agent
2644,
4351,
4399,
621,
3402,
610,
4408,
3398,
619,
4403,
3399,
616,
3400,
4406,
3401,
4407,
3390,
3389,
4349,
3382,
676,
675,
3591,
3383,
674,
673,
642,
588,
4400,
3408,
3406,
4392,
3391,
3392,
4378,
4380,
4382,
3393,
4384,
3394,
632,
4390,
4391,
631,
620,
3409,
3405,
3403,
4409,
3588,
602,
3404,
3587,Anti Hypertensive Agent
4402,
3407,
2635,
4436,
578,
4223,
904,
4224,
4225,
901,
822,
723,
731,
4314,
730,
729,
727,
726,
725,
724,
3376,
721,
720,
4315,
4316,
4317,
4313,
753,
906,
752,
4222,
887,
4218,
929,
928,
927,
926,
925,
924,
923,
922,
921,
3345,
3346,
898,
897,
896,
895,
894,
893,
892,
891,
890,
889,
888,
900,
920,
751,
749,
4330,
691,
709,
708,
4318,
706,
703,
702,
4319,
700,
4320,
4321,
4322,
755,
757,
3371,
3372,
814,
813,
809,
807,
4272,
4273,
685,
750,
4329,
686,
748,
3377,
747,
746,
3592,
745,
3378,Anaesthetic
743,
741,
740,
3379,
4310,
711,
710,
4323,
690,
689,
4324,
4325,
4326,
688,
4327,
687,
4328,Anti Hypertensive Agent
4435,
4221,
4219,
4453,
569,
4446,
568,
4447,
3414,
567,Anaesthetic
567,Anaesthetic
566,
3415,
3416,
4331,
3351,
867,
866,
865,
864,
4241,
860,
858,
3354,
3352,
4244,
3353,
4445,
4246,
3417,
4467,
3410,
584,
583,
3411,
582,
3586,
3412,
581,
580,
579,
571,
570,
565,
3418,
564,
3420,
4457,
561,
3421,
3422,
3423,
558,
4465,
4454,
4220,
848,
4240,
3368,
3369,
4259,
4258,
4249,
3355,
4251,
3356,
3357,
3358,
3359,
838,
4255,
4257,
884,
885,
914,
919,
918,
917,
916,
915,
886,
3367,
868,
4264,
4263,
869,
870,
883,
3347,
3348,
882,
881,
3595,
3349,
877,
876,
4238,
875,Plasminogen activator stimulant
873,
872,
871,
846,
684,
3365,
4260,
3594,
4261,
829,
3366,
2661,
4354,
3804,
2537,
2538,
2539,Anticoagulant
3800,
2541,
3799,
2536,
2543,
2546,
3801,
2529,
2519,
2520,
2521,
2544,
2522,
2535,
2533,
2515,
2508,
3811,
3810,
2491,
3809,
2534,
3806,
3805,
2503,
3803,
2507,
2517,
2532,
2501,
2523,
2525,Antiplatelet Agent
2526,
2428,
2429,
2430,
3832,
2427,
3798,
2426,
2465,
2467,Antiplatelet Agent
2467,Anticoagulant
2469,Antiplatelet Agent
2469,Anticoagulant
2471,Antiplatelet Agent
2471,Anticoagulant
2473,Antiplatelet Agent
2473,Anticoagulant
2474,
3818,
2466,Antiplatelet Agent
2466,Anticoagulant
3831,
2425,
2424,
2527,
2528,
2524,
3812,
3181,
3813,
2432,
2433,
2434,
2435,
2437,
2438,
2439,
2431,
2423,
3802,
2514,
2513,
2512,
3767,Antiarrhythmic agent
3766,
3765,
2688,
3764,
2707,
2690,
2691,
3762,
2684,
3728,
3751,
3749,
3763,
2682,
3770,
2681,
3756,
3755,
3754,
2703,
3753,
2704,
3752,
2705,
2695,
3761,
2693,
2692,
2679,
2680,
3178,
2731,
2475,
3736,
3734,
3744,
3742,
3177,
3741,
3740,
3176,
3750,
2726,
3738,
3743,
2792,
2509,
2510,
2511,
3739,
3745,
3746,
3747,
3733,
3732,
2738,
2739,
2740,
2742,
3731,
2744,
3730,
3175,
3729,
3737,
2711,
2712,
3748,
3735,
3757,
3817,
2480,
3056,
3065,
3066,
3067,
3068,
3069,
3049,
3064,
3634,
3058,
3632,Anticoagulant
3059,
3631,
3630,
3057,
3061,
3048,
3047,
2582,
3789,
2580,
3711,
3637,
3051,
3639,
3052,
3054,
3055,
3050,
3044,
3045,
3046,
3053,
3062,
3063,
3060,
2994,
3023,
2995,
2998,
2999,
3665,
2993,
3162,
3666,
3653,
3026,
3036,
3037,
3645,
3005,
3667,
2989,
2988,
3043,
3642,
3009,
3010,
3013,
3015,
3016,
3018,
3019,
3655,
3021,
3654,
3161,
2987,
2581,
2576,
2579,
2578,
2594,
2595,
2596,
2593,
2589,
2597,
3183,
2591,
2590,
3788,
2604,
2605,
2606,
2607,
2592,
2462,
2461,
2460,
3816,
3815,
3814,
2464,
2463,
3829,
2444,
2448,
3184,
3830,
2452,
2454,
3820,
2458,
2459,
2603,
3182,Immune Checkpoint Inhibitor
2599,
2602,
2557,
3796,
2558,
3795,
2555,
2588,
2556,
2575,
2585,
2586,
2587,
2583,
2577,
3790,Natriuretic Peptide
2584,
2554,
2553,
3180,
3787,
2608,
2563,
3794,
1,
2569,
2571,
2572,
3792,
2573,
2574,
3791,
3179,
2551,
2552,
2601,
2700,
3923,
3759,
2782,
3712,
3713,
2749,
3726,
2758,
2770,
2771,
2772,
3715,
2773,
2633,
2634,
2759,
2774,
2662,
2769,
2777,Antineoplastic Agent
2665,
2617,
2778,
3777,
2779,
2791,
3779,
2790,
2788,
2616,
2755,
2615,
2756,
3722,
2757,
3721,
2754,
2753,
2614,
3723,
2677,
3727,
2768,
2752,
3724,
3725,
2783,
2784,
2785,
2786,
2787,
2789,
3758,
2775,
2697,
2763,
3718,
2762,
2761,
3719,
2612,
2760,
2609,
2781,
2776,
2696,
3780,
3760,
2610,
3720,
2678,
2621,
2618,
2623,
2698,
2622,
2624,
2619,Immune Checkpoint Inhibitor
2764,
3717,
3785,
2632,
2780,
2625,
3714,
3174,
2626,
2767,
2613,
2611,
2663,
2629,
2664,
3786,
2631,
2765,
3716,
2766,
2620,
404,
2836,
2833,
2846,
2052,
2835,
2845,
2832,
2804,
2837,
2811,
2805,
2834,
2051,
394,
2795,Anticoagulant
415,
417,
2318,
2320,
2321,
395,
396,
398,
2057,
2829,
2055,
2793,
2322,
2053,
400,
3544,
2794,
402,
2803,
2801,
403,
2800,
2797,
2796,
2054,
2817,
2737,
2022,
2855,
2856,
2383,
2881,
2882,
2883,
2884,
2888,
2890,
2891,
2892,
2895,
2382,
2990,
2991,
2992,
2996,
2997,
3000,
2384,
2854,
2852,
2896,
2547,
2549,
2550,
2231,
2230,
2229,
2228,
2227,
2548,
3001,
2730,
2909,
2910,
2224,
2223,
2304,
2307,
2899,
2386,
2898,
2901,
3002,
3003,
3004,
2732,
2733,
2734,
2735,
2736,
2743,
2745,
2746,Immunotherapy
2392,
2390,
2330,
2329,
2327,Local Anaesthetic
2326,
2324,
2064,
2812,
2062,
2813,
2333,
2815,
2394,
2415,
2851,
2958,
2960,
2961,
2850,
2848,
2751,
2081,
2082,
2410,
2083,
2084,
2381,
2380,
2379,
2378,
2385,
2387,
2388,
2440,
2065,
406,
477,
408,
593,
594,
595,
597,
2141,
599,
2140,
601,
603,
604,
606,
2139,
2058,
2059,
605,
2142,
607,
2144,
592,
1918,
1917,
1916,
1915,
1914,
1913,
340,
1912,
1911,
1910,
586,
587,
589,
590,
591,
1909,Antineoplastic Agent
608,
609,
2060,
2091,
2090,
2089,
2143,
2145,
540,
541,
542,
543,
545,
546,
547,
549,
550,
551,
2176,
2170,
539,
2168,
2121,
2120,
2119,
2117,
2061,
2093,
2063,
1919,
2085,
2147,
2148,
2149,
2150,
536,
537,
538,
2087,
388,
387,
386,
430,
431,
432,
433,
434,
435,
436,
437,
447,
391,
2332,
390,
2334,
389,
2335,
2310,
2313,
2315,
488,
409,
410,
411,
412,
413,
414,
416,
2345,
392,
471,
474,
2729,
479,
480,
482,
487,
469,
407,
2344,
2342,
1905,
1907,Anticoagulant
1922,
1908,
1921,
1920,
372,
374,
376,
378,
380,
382,
383,
384,
385,
1901,
1902,
371,
1903,
2341,
341,
342,
343,
2340,
2339,
2338,
2343,
1927,
1924,
1959,
1960,
1965,
1923,
1906,
1904,
1926,
2545,
2497,
2540,
3238,
3239,
3242,
3244,
3246,
3247,
3248,
3249,
1499,
1498,
1497,
1496,
3133,
3132,
3130,
3236,
1495,
1500,
3235,
1489,
1488,Anticoagulant
1488,Antithrombothic agent
1487,
1486,
1485,
1484,
1483,
1482,
3295,
1473,
1491,
1492,
1493,
3233,
1494,
1501,
3232,
3011,
3014,
3451,
3439,
3440,
3441,
3442,
3443,
3444,
3445,
3447,
3448,
3449,
3452,
2146,
2067,Beta Adrenergic Blocking Drug
3528,
3453,
3012,
3455,
3459,
3017,
3020,
3022,
3024,
3025,
3027,
3028,
1392,
1420,
3029,
3127,
3128,
3129,
3300,
3458,
3465,
1481,
3145,
1748,
1603,
1604,
1605,
1608,
1609,
1597,
1584,
1585,
1586,
1588,
1589,
1592,
1594,
1595,
1596,
1602,
1610,
1601,
1599,
1744,
1745,
1746,
1747,
1749,
1826,
1827,
1828,
1829,
1830,
1831,
1832,Plasminogen activator stimulant
1832,Natriuretic Peptide
1699,
1696,
1598,
1600,
1611,
1650,
1651,Anti Hypertensive Agent
1641,
1642,
1643,
1644,
2442,
2443,
2445,
1725,
3136,
3137,
3139,
3141,
1720,
1718,
1717,
1640,
1639,
1727,
1743,
1652,
1654,
1655,
1656,
1659,
1660,
1661,
3530,
1662,
1666,
1667,
1648,
1647,
1646,
1637,
1638,
1663,
3531,
3534,
2068,
2207,
2708,
2709,
2487,
2488,
2489,
2490,
2492,
2494,
2205,
2204,
2495,
2203,
2496,
2498,
2208,
2499,
2209,
2219,
2721,
2722,
2723,Antineoplastic Agent
2724,
2725,
2727,
2728,
2713,
2687,
2710,
2694,
2699,
2701,
2702,
2706,
2210,
2500,
2502,
2504,Antineoplastic Agent
2457,
2476,
2477,
2478,
2479,
2482,
2484,
2530,
2237,
2079,
2235,
2234,
2233,
2531,
2456,
2455,
2453,
2451,
2505,
2506,
2202,
2486,
2485,
2483,
2447,
2720,
2449,
2200,
2199,
2211,
2221,
2238,
2222,
2450,
2201,
2542,
2719,
2717,
2303,
2241,
2240,
3325,
3326,
3327,
3328,
3329,
3330,
3331,
3333,
3335,
3324,
3360,
2078,
2242,
3323,
2243,
2248,
2069,
3536,
3537,
3541,
3542,
3543,
2071,
2073,
2074,
2076,
2077,
2441,
2251,
2252,
2249,
2246,
3321,
3302,
3303,
3008,Antineoplastic Agent
3007,
2685,
2627,
2628,
2630,
2239,
2637,
2638,Anticoagulant
2686,
2689,
2714,
2715,
2716,
3364,
3419,
3363,
3362,
3304,
3305,Antibacterial Agent
3306,
3307,
3308,
3310,
3311,
2718,
3314,
3316,
3317,Antiarrhythmic agent
3318,
3319,
3320,
3322,
3361,
3315,
2086,
3839,
504,
3646,
3638,Antiarrhythmic agent
3636,
3635,
3657,
3941,
3942,
3945,
3944,
3546,
3948,
3946,
3856,
3855,
3854,
3853,
3844,
3843,
3650,
3652,
3656,
3658,
4091,
4089,
4087,
4085,
4084,
4083,
4082,
4081,
4080,
3841,
3808,
3775,
3769,
3768,
3778,
3663,
3662,
3661,
3660,
3659,
3807,
3840,
3838,
3837,
3879,
3862,
3878,
3876,
3875,
3874,
3873,
3872,
3871,
3880,
3870,
3867,
3866,
3864,
3877,
4231,
4232,
4233,
4637,
4636,
3868,
4078,
3881,
3883,
3858,
3836,
3834,
3833,
3828,
3827,
3826,
3825,
3824,
3882,
3823,
3821,
3835,
3860,
3863,
3888,
3887,
3886,
3885,
3884,
3822,
4634,
4093,
4095,
849,
850,Immune Checkpoint Inhibitor
851,
852,
853,
854,
855,
856,
857,
859,
861,
862,
863,
845,
844,
874,
3545,
4028,
4027,
847,
812,
811,
810,
975,
977,
978,
957,
956,
940,
946,PCSK9 Inhibitor
947,
948,
4026,
952,
955,
942,
800,
802,
803,
804,
805,
806,
808,
953,
4025,
4030,
4031,
4161,
4160,
4159,
4157,
4156,
4155,
4148,
4230,
4229,
4162,
4228,
4226,
4147,
4075,
4074,
4072,
4070,
4076,
4077,
4079,
4227,
4094,
3991,
3979,
4032,
4033,
4036,
4035,
4034,
4000,
3999,
3997,
3996,
3978,
3995,
3990,
3989,
3988,
3987,
3986,
3985,
3984,
3983,
3981,
3994,
4632,
4630,
4629,
4371,
4370,
4369,
4350,
4367,
4366,
4365,
4362,
4361,
4359,
4358,
4356,Antineoplastic Agent
4353,Antineoplastic Agent
4383,
4292,
4290,
4237,
4236,
4235,
4372,
4373,
4374,
4375,
4308,
4306,
4305,
4304,
4303,
4302,
4301,
4300,
4299,
4234,
4298,
4296,
4295,
4294,
4307,
4348,
4381,
4379,
4377,
4376,
4297,
4291,
4386,
4472,
4388,
4387,
4428,
4427,
4426,
4425,
4424,
4423,
4422,
4389,
4421,
4419,
4418,
4417,
4416,
4415,
3549,
3552,
3548,
2066,
4420,
4347,
4385,
4477,
4471,
4470,
4466,
4464,
4463,
4462,
4461,
4460,
4459,
4476,
4458,
4455,
4452,
4451,
4450,
4449,
4448,
4473,
4475,
4474,
4456,
4309,
4342,
4343,
4653,
4652,
4651,
4650,
4648,
4647,
4645,
4595,
4538,
4654,
4536,
4532,
4530,
4540,
4528,
4526,
4524,
4523,
4534,
4594,
4655,
4657,
4625,
4621,
4620,
4619,vasodilator
4618,
4613,
4612,
4611,
4610,
4656,
4609,
4604,
4603,
4602,PCSK9 Inhibitor
4616,
4600,
4639,
4644,
4641,
4658,
4606,
974,
4541,
4592,
4761,
4760,
4759,
4757,
4756,
4752,
4751,
4750,
4749,
4762,
4748,
4746,
4685,
4691,
4689,
4688,
4686,
4346,
4345,
4344,
4747,
4543,
4763,
4768,
4588,
4586,
4585,
4584,
4583,
4582,
4581,
4542,
4580,
4766,
4578,Hormone
4576,
4575,
4552,
4549,
4547,
4579,
4784,
4783,
4769,
4577,
527,
973,
970,
277,
281,
282,
283,
284,
285,
286,
287,
288,
290,
311,
313,
315,
175,
176,
177,
174,
173,
171,
314,
317,
318,
337,
248,
250,
274,
276,
320,
322,
323,
324,
325,
143,
326,
328,
329,
330,
331,
332,
333,
334,
335,
336,
327,
144,
145,
146,
1152,
1154,
1157,
1160,
1136,
1134,
1132,
1131,
1036,
1149,
1037,
1041,
1042,
1043,
1048,
1050,
1051,
1052,
1053,
1054,
1040,
247,
1148,
1146,
148,
150,
151,
152,
153,
154,
165,
166,
168,
1147,
169,
172,
199,
197,
196,
195,
193,
131,
192,
1140,
170,
1055,
246,
243,
114,
115,
116,
117,
118,
119,
120,
121,
123,
124,
125,
127,
128,
107,
95,
106,
105,
21,
22,
113,
111,
109,
108,
505,
506,
520,
521,
522,
523,
524,
525,
526,
23,
339,
86,
88,
89,
90,
91,
92,
93,
94,
96,
85,
25,
26,
28,
129,
338,
130,
257,
258,
259,
261,
262,
263,
49,
266,
271,
272,
273,
249,
235,
238,
239,
240,
241,
270,
244,
48,
45,
29,
31,Beta Adrenergic Blocking Drug
32,Sodium-glucose transporter 2 Inhibitor
33,
34,
37,
40,
19,
42,
47,
18,
2,
3,
4,
5,
8,
10,
17,
43,
44,
16,
1056,
1058,
1034,
705,
707,
712,
713,
714,
715,
716,
717,
718,
719,
696,
695,
692,
694,
732,
734,
780,
781,
783,
704,
701,
699,
698,
1264,
1263,
1262,
1243,
1244,
1246,
1248,
1250,
784,
1251,
1254,
1255,
1256,
1257,Anticoagulant
1252,
981,
980,
979,
697,
1253,
785,
786,
788,
656,
657,
658,
659,
660,
661,
662,
796,
797,
655,
798,
878,
879,
961,
963,
964,
965,
966,
967,
968,
799,
1293,
770,
765,
789,
790,
792,
795,
772,
733,
771,
769,
735,
767,
736,
738,
739,
742,
744,
754,
756,
758,
762,
764,
737,
1292,
1291,
1290,
1066,
982,
1329,
1330,
1331,
1332,
1333,
1334,
1335,
1065,
1336,
1338,
1340,
1353,
1354,
1300,
1302,
1304,
1305,
1306,
1337,
1307,
1064,
1126,
1059,
1033,
1031,
983,
985,
986,
987,
989,
990,
1128,
993,
996,
1030,
1032,
1060,
1061,
1062,
1119,
1120,
1121,
994,
971,
1308,
1311,
1294,
1235,
1236,
1237,
1238,
1239,
1240,
1241,
1265,
1296,
1266,
1270,
1271,
1272,
1273,
1275,
1277,
1278,
1288,
1289,
1268,
1309,
1376,
1373,
1313,
1314,
1318,
1319,
1324,
1298,
1356,
1358,
1357,
1374,
1360,
1363,
1364,
1366,
1367,
1368,
1369,
1370,
1371,
1372,
1362,
4787,
