Internal ID,variable,value
2206,0,Vericiguat
4338,0,Alirocumab
3446,0,Sacubitril
1295,0,Aspirin
3332,0,Eicosapentaenoic Acid
1299,0,Ethanol
960,0,Ezetimibe
1649,0,Aspirin
1653,0,Sodium Nitrite
3454,0,Mavacamten
2393,0,Colchicinum
1645,0,Apixaban
1057,0,Aspirin
1710,0,Carvedilol
3309,0,Ademetionine
1045,0,Selexipag
2867,0,Amiphenazole
2843,0,Sacubitril
2841,0,Dapa
1986,0,Trastuzumab
3893,0,Pembrolizumab
1825,0,Istaroxime
911,0,Everolimus
910,0,Everolimus
664,0,Amiphenazole
2400,0,mesenchymal stem cells
2402,0,Simvastatin
4177,0,Aspirin
4176,0,Sirolimus
1993,0,Concomitant
1967,0,Ademetionine
3932,0,Enalapril
1980,0,Sacubitril
1773,0,Vena
1777,0,Digoxin
3142,0,Sotalol
2826,0,Fitusiran
3563,0,Dapa
4735,0,Vena
4737,0,Prothrombin
3565,0,Canagliflozin
424,0,Colchicinum
4504,0,Prasugrel
457,0,Macitentan
3567,0,Dapa
11,0,Semaglutide
4293,0,Apabetalone
3370,0,Clopidogrel
222,0,Canagliflozin
3593,0,Trastuzumab
880,0,Dabigatran
3535,0,Vutrisiran
2655,0,Aspirin
3774,0,Rivaroxaban
1741,0,Tadalafil
1759,0,Aspirin
1754,0,Warfarin
1614,0,Clopidogrel
3641,0,TD-9855
3629,0,Vericiguat
3633,0,Mexiletine
1673,0,Dapagliflozin
1704,0,Dapa
2472,0,Aspirin
2470,0,Amiphenazole
4599,0,Rilonacept
3466,0,Opsumit
4598,0,Evolocumab
1442,0,patisiran
2493,0,Dabigatran
1448,0,Tafamidis
2468,0,Heparin
2025,0,Gadolinium
422,0,Aspirin
2109,0,PCSK-9
4553,0,Adenosine
4622,0,Fitusiran
2158,0,Nitric Oxide
3912,0,Sacubitril
2028,0,Diltiazem
224,0,Fitusiran
3193,0,Entresto
2177,0,Warfarin
3547,0,BC-007
2018,0,Amiphenazole
3289,0,Ciclosporin
1505,0,GLA
4045,0,Empagliflozin
3290,0,Cannabidiol
3291,0,Benzoyl Peroxide and Clindamycin Phosphate
3476,0,Bortezomib
4640,0,Dapagliflozin
4607,0,Mesa
268,0,Mesa
265,0,Mesa
4064,0,Concomitant
1453,0,IMA910
1452,0,IMA910
1616,0,Clopidogrel
1733,0,Oxyphenbutazone
1454,0,IMA910
1436,0,Digoxin
3284,0,Dantrolene
1400,0,Synthroid
1458,0,IMA910
1457,0,IMA910
1456,0,IMA910
1463,0,IMA910
1462,0,IMA910
1461,0,IMA910
1455,0,IMA910
1459,0,IMA910
1460,0,IMA910
3602,0,Aspirin
228,0,Rivaroxaban
226,0,Alirocumab
4755,0,Vascepa
4764,0,Fluorodeoxyglucose
41,0,Anakinra
779,0,Aspirin
3373,0,Amiodarone
763,0,Ibrutinib
3491,0,Bromocriptine
1580,0,Ticagrelor
4506,0,Concomitant
375,0,Patiromer
3457,0,Warfarin
3461,0,Bisoprolol
1615,0,Clopidogrel
486,0,Sodium Fluoride
478,0,Ribaroxaban
3494,0,Trastuzumab
20,0,Uric Acid
4725,0,Doxorubicin
1613,0,Clopidogrel
4680,0,Everolimus
4664,0,Ticagrelor
4253,0,Eptifibatide
4713,0,Protamine
4672,0,Hydralazine
3691,0,Protamine
3683,0,Ademetionine
3894,0,Trastuzumab
3679,0,Tirofiban
425,0,Paclitaxel
1217,0,Norethindrone
3599,0,Sacubitril
4256,0,Ademetionine
3337,0,5-Fluorouracil
1224,0,Ticagrelor
3570,0,Sevoflurane
4410,0,Everolimus
179,0,Ademetionine
360,0,Iodixanol
559,0,Sirolimus
618,0,Ticagrelor
102,0,Paclitaxel
1189,0,Amlodipine
834,0,Chitosan
4020,0,Prasugrel
909,0,Sodium chloride
1212,0,Bleomycin
908,0,Adenosine
668,0,Everolimus
1127,0,Adenosine
4192,0,Memantine
1153,0,Flecainide
4200,0,Dobutamine
1145,0,Digoxin
1110,0,Midodrine
1109,0,Sildenafil
1115,0,Etanercept
4040,0,AST-120
1624,0,Apabetalone
1612,0,Clopidogrel
4023,0,Alteplase
1617,0,Clopidogrel
1629,0,Heparin
1625,0,Aspirin
941,0,Dextran
1283,0,Alirocumab
1287,0,Aspirin
4141,0,Atorvastatin
3600,0,Digoxin
4178,0,Empagliflozin
1203,0,Adenosine
1349,0,Salbutamol
1347,0,Spironolactone
1280,0,Tocilizumab
1018,0,Gadolinium
4216,0,Sacubitril
4206,0,Trastuzumab
1952,0,Amiphenazole
1951,0,Morphine
1956,0,Alirocumab
1949,0,Prasugrel
2985,0,Lixisenatide
3168,0,Oxyphenbutazone
3165,0,Angiotensin
2944,0,Androgen Deprivation
2171,0,Aldosterone
1778,0,Nitric Oxide
1799,0,Digoxin
1805,0,Furosemide
1807,0,Metformin Orotate
1792,0,Carfilzomib
1882,0,Carvedilol
1957,0,Prasugrel
1970,0,Inotrope
2001,0,Adiponectin
3625,0,Sacubitril
3097,0,Ticagrelor
3623,0,Hydralazine
3626,0,Sacubitril
3618,0,Sacubitril
3648,0,Warfarin
3649,0,Ambucetamide
3138,0,Ambucetamide
3622,0,Cenderitide
3114,0,Ticagrelor
2842,0,BMS-986231
2823,0,Prasugrel
3709,0,Capecitabine
2820,0,Glucagon
2838,0,Inotrope
3703,0,Pembrolizumab
3704,0,Sipuleucel-T
3171,0,Urea
2906,0,Prothrombin
3699,0,Dasatinib
2257,0,Vena
2256,0,Adenosine
2173,0,Colchicinum
2214,0,Ademetionine
3907,0,Canagliflozin
2023,0,Ascorbic Acid
2015,0,Urea
2016,0,Apixaban
2020,0,Warfarin
2186,0,Aspirin
2182,0,Rivaroxaban
2419,0,Diltiazem
2369,0,Clopidogrel
2368,0,Clopidogrel
2367,0,Clopidogrel
2366,0,Clopidogrel
2371,0,Clopidogrel
2370,0,Clopidogrel
2213,0,Ademetionine
2357,0,Vena
3187,0,Galectin-3
2009,0,Leucine
2372,0,Clopidogrel
2331,0,Aspirin
2097,0,Ticagrelor
1865,0,Gilteritinib Fumarate
1861,0,Dobutamine
2135,0,Mesa
1789,0,Tolvaptan
1801,0,Angiotensin
2154,0,Digoxin
3580,0,Angiotensin
2192,0,Sestamibi
1833,0,Sodium Fluoride
1812,0,Elamipretide
1835,0,PCSK-9
1811,0,Angiotensin
1810,0,Levosimendan
1817,0,Anakinra
3612,0,Tafamidis
1824,0,Sacubitril
1823,0,Enalapril
1821,0,SGLT-2
1820,0,SGLT-2
3386,0,Doxorubicin
4368,0,Vascepa
4484,0,Ademetionine
512,0,Paclitaxel
511,0,Paclitaxel
510,0,Paclitaxel
509,0,Paclitaxel
508,0,Paclitaxel
507,0,Paclitaxel
3413,0,Rituximab
513,0,Paclitaxel
503,0,Fluoride
2650,0,Concomitant
2659,0,INCB7839
3402,0,Hydralazine
3389,0,Clozapine
3376,0,Concomitant
929,0,Aspirin
3345,0,Fibrinogen
895,0,Gadolinium
3592,0,Urea
3378,0,Ketamine
4324,0,Mesa
4328,0,Reserpine
4446,0,t-PA
3417,0,Polypill
3411,0,18F-FDG
3423,0,Canagliflozin
3368,0,Clopidogrel
3369,0,Clopidogrel
3367,0,Clopidogrel
3348,0,Eicosapentaenoic Acid
3595,0,Torsemide
3365,0,Clopidogrel
3594,0,mesenchymal stem cells
3366,0,Clopidogrel
2691,0,Heparin
2742,0,Aspirin
3748,0,IMA910
3059,0,IVIG
3630,0,Rivaroxaban
3044,0,Pembrolizumab
3045,0,Pembrolizumab
2993,0,Flecainide
3005,0,5-Fluorouracil
3009,0,Testosterone
3183,0,Sacubitril
3787,0,Gabapentin
2758,0,Testosterone
2773,0,Amphetamine
2774,0,IMA910
2665,0,Triad
3779,0,Sotalol
2752,0,Androgen Deprivation
2786,0,Propylthiouracil
2760,0,Ticagrelor
3786,0,Angiotensin
2321,0,Concomitant
2796,0,Vena
2892,0,Docosahexaenoic Acid
2990,0,Dobutamine
2997,0,Potassium
2909,0,Carnitine
2898,0,Amiodarone
2327,0,Epinephrine Bitartrate
2958,0,Ibrutinib
2960,0,Warfarin
2751,0,Androgen Deprivation
2387,0,Fitusiran
2058,0,Evolocumab
550,0,18F-FDG
388,0,Ezetimibe
2310,0,Digoxin
2344,0,Digoxin
1905,0,18F-FDG
1907,0,Prothrombin
383,0,EPA
2338,0,Loperamide
2343,0,Potassium
1965,0,Eicosapentaenoic Acid
3246,0,Isavuconazonium
3247,0,Ascorbic Acid
3236,0,Ademetionine
3295,0,Potassium
3233,0,Angiotensin
3232,0,Atorvastatin
3448,0,Dapa
3452,0,Warfarin
1585,0,Vena
1832,0,Urokinase
1647,0,Rivaroxaban
3531,0,Alteplase
2208,0,Rivaroxaban
2694,0,Heparin
2210,0,Clopidogrel
2504,0,Cisplatin
2481,0,PCSK-9
2240,0,Coumadin
3328,0,Alirocumab
3330,0,Evinacumab
2252,0,Verapamil
2627,0,Mexiletine
2239,0,Vena
3362,0,Rivaroxaban
3638,0,Rivaroxaban
3635,0,Dofetilide
3873,0,PCSK-9
4636,0,Dobutamine
3827,0,Ruxolitinib
3886,0,Dapagliflozin
956,0,Ezetimibe
947,0,Concomitant
4161,0,Sodium chloride
4374,0,Mesa
4295,0,Aspirin
4291,0,PCSK-9
4386,0,Vena
4448,0,Warfarin
4473,0,Concomitant
4621,0,PCSK-9
4761,0,Regadenoson
277,0,Empagliflozin
283,0,Semaglutide
288,0,Icosapent Ethyl
290,0,Bempedoic Acid
274,0,Nicotine
276,0,Febuxostat
1043,0,Vancomycin
1140,0,Sugammadex
246,0,Alirocumab
22,0,Bempedoic Acid
505,0,18F-FDG
524,0,Ponatinib
240,0,Dulaglutide
716,0,Regadenoson
718,0,Regadenoson
692,0,Vortex
780,0,Fitusiran
1243,0,Lithium
1254,0,Amiodarone
661,0,Ivabradine
965,0,Lomitapide
966,0,Bempedoic Acid
1065,0,Aspirin
1059,0,Ticagrelor
1275,0,Amiodarone
1277,0,Ivabradine
1372,0,Ademetionine
3446,1,Valsartan
960,1,Bempedoic Acid
1649,1,Rivaroxaban
1057,1,Ticagrelor
2843,1,Valsartan
2841,1,Dapagliflozin
3893,1,Trastuzumab
911,1,Everolimus
910,1,Everolimus
664,1,Amiphenazole
2400,1,Tongxinluo
3932,1,Sacubitril
1980,1,Valsartan
3142,1,Dronedarone
3563,1,Dapagliflozin
4737,1,Andexanet Alfa
424,1,Colchicinum
4504,1,Clopidogrel
3567,1,Dapagliflozin
4293,1,Apabetalone
3535,1,Helios
3774,1,Dabigatran
1741,1,Ambrisentan
1759,1,Apixaban
3641,1,ampreloxetine
3633,1,Dofetilide
1704,1,Dapagliflozin
422,1,Aspirin
3912,1,Valsartan
2028,1,Verapamil
3193,1,Sacubitril
2177,1,Rivaroxaban
4064,1,Concomitant
1454,1,Trastuzumab
1456,1,Paraoxonase
1462,1,Trastuzumab
4506,1,Concomitant
3457,1,Rivaroxaban
4680,1,Zotarolimus
4664,1,Clopidogrel
4253,1,Eptifibatide
4713,1,Protamine
3683,1,Epoprostenol
3894,1,Doxorubicin
425,1,PTX
3599,1,Valsartan
4256,1,Ademetionine
3337,1,5-Fluorouracil
4410,1,Everolimus
179,1,Ademetionine
360,1,Iodixanol
559,1,Sirolimus
618,1,Clopidogrel
102,1,Paclitaxel
834,1,Chitosan
4020,1,Prasugrel
909,1,Sodium chloride
908,1,Adenosine
668,1,Everolimus
4023,1,Alteplase
1629,1,Bivalirudin
1625,1,Clopidogrel
1349,1,Carvedilol
4216,1,Valsartan
1956,1,PCSK-9
1949,1,Ticagrelor
2171,1,Angiotensin
1882,1,Catecholamine
1957,1,CYP2C19
3625,1,Valsartan
3097,1,Clopidogrel
3626,1,Valsartan
3618,1,Valsartan
3114,1,Clopidogrel
2842,1,Nitroglycerin
2823,1,Ticagrelor
2906,1,Andexanet Alfa
2419,1,Metoprolol Tartrate
2357,1,Concomitant
1817,1,Interleukin-1
1824,1,Valsartan
1823,1,Sacubitril
512,1,Rivaroxaban
511,1,Rivaroxaban
510,1,Rivaroxaban
509,1,Rivaroxaban
508,1,Rivaroxaban
507,1,Rivaroxaban
513,1,Rivaroxaban
895,1,Hydroxychloroquinum
3411,1,Fluorodeoxyglucose
3595,1,Aldosterone
3366,1,Gadolinium
2742,1,Warfarin
3183,1,Valsartan
3787,1,Dobutamine
2892,1,Eicosapentaenoic Acid
3232,1,Eicosapentaenoic Acid
3448,1,Dapagliflozin
3452,1,Edoxaban
1647,1,Enoxaparin
956,1,Bempedoic Acid
277,1,Glycerin
1254,1,Levetiracetam
1065,1,Ticagrelor
1649,2,Concomitant
3893,2,Pembrolizumab
3932,2,Valsartan
4504,2,Prasugrel
1759,2,Warfarin
3912,2,Angiotensin
3193,2,Valsartan
1456,2,Doxorubicin
4680,2,Everolimus
4664,2,Ticagrelor
3894,2,Dapagliflozin
425,2,Paclitaxel
618,2,Ticagrelor
1957,2,Ticagrelor
1823,2,Valsartan
512,2,Rivaroxaban
511,2,Rivaroxaban
510,2,Paclitaxel
509,2,Paclitaxel
3595,2,Angiotensin
1649,3,Clopidogrel
3893,3,Trastuzumab
4504,3,Clopidogrel
1456,3,Trastuzumab
4680,3,Zotarolimus
4664,3,Clopidogrel
3894,3,Trastuzumab
425,3,PTX
618,3,Clopidogrel
1957,3,Clopidogrel
3894,4,Doxorubicin
3894,5,Dapagliflozin
