Internal ID,Abstract Title,Session Name,Session Start Date,Session Type,Relevance,Catalyst_Priority,v1Priority,TA,DiseaseFromTrials,FirmFromTrials,DrugFromTrials,Trial_Acronym,NoCatalystPriority,NC_Disease,NC_Drug,NC_Firm,NC_Trial,CheckedDiseaseFromTrial,Updated_Relevance,v2Priority,DiseasesFromAnnotation,DrugsFromAnnotation,FirmsFromAnnotation,Drug Class,SourceofDisease,Sort,FilteredAnnotationDiseases,FilteredAnnotationDrugs,DiseaseFromAnnotation&Trial,DrugsFromAnnotation&Trial,IndustrySponseredAbstracts,FinalDrugClass,IsIndustrySponseredAbs,IsDrugClass,IsPrioritySessionType
210,Emerging Therapies to Manage CKD-Related Anemia,Management of Anemia in Patients with Chronic Kidney Disease: Challenges and Emerging Strategies,28-03-2020 12:00,General Session,1,High,High,,nan,,nan,,Low,1.0,0.0,1.0,0.0,0,1,High,"Anemia, Chronic Kidney Disease, Hypoxia, Anemia, Chronic Kidney Disease, Anemia, Anemia, Chronic Kidney Disease, Chronic Kidney Disease, Chronic Kidney Disease",,"AstraZeneca, FibroGen, FibroGen, AstraZeneca",,"session title, session desc, session desc, session objective, presentation title",1,Chronic Kidney Disease$$Chronic Kidney Disease$$Chronic Kidney Disease$$Chronic Kidney Disease$$Chronic Kidney Disease,nan,Chronic Kidney Disease,,AstraZeneca$$FibroGen,,1,0,0
229,"Efficacy and Safety of Oral Difelikefalin in Stage 3-5 Chronic Kidney Disease Patients with Moderate-to-Severe Pruritus: A Response Analysis from a Randomised, Placebo-Controlled, Phase 2 Trial",Late-Breaking Abstract Presentations,26-03-2020 16:15,General Session,1,High,High,,nan,,nan,,Low,1.0,1.0,0.0,0.0,0,1,High,"Diabetic Nephropathy, Cardiovascular Disease, Pruritus, Lupus Nephritis, Pruritus, Chronic Kidney Disease, Chronic Kidney Disease","Difelikefalin, Difelikefalin",,,"session objective, presentation title, session objective, session objective",1,Diabetic Nephropathy$$Lupus Nephritis$$Chronic Kidney Disease$$Chronic Kidney Disease,Difelikefalin,Diabetic Nephropathy$$Lupus Nephritis$$Chronic Kidney Disease,Difelikefalin,,,0,0,0
228,Aurora Phase 3 Trial Demonstrates Voclosporin Statistical Superiority Over Standard of Care in Lupus Nephritis (LN),Late-Breaking Abstract Presentations,26-03-2020 16:15,General Session,1,High,High,,nan,,nan,,Low,1.0,1.0,0.0,0.0,0,1,High,"Diabetic Nephropathy, Cardiovascular Disease, Pruritus, Lupus Nephritis, Lupus Nephritis, Chronic Kidney Disease","Difelikefalin, Voclosporin",,,"session objective, session objective, session objective, presentation title",1,Diabetic Nephropathy$$Lupus Nephritis$$Lupus Nephritis$$Chronic Kidney Disease,Difelikefalin$$Voclosporin,Diabetic Nephropathy$$Lupus Nephritis$$Chronic Kidney Disease,Difelikefalin$$Voclosporin,,,0,0,0
212,The Balancing Act: Dietary Potassium and Hyperkalemia Risk,Managing the Intersection of Chronic Hyperkalemia and Cardiorenal Risk,27-03-2020 19:00,General Session,1,,Ignore,,nan,,nan,,Medium,1.0,1.0,1.0,0.0,0,1,Medium,"Hyperkalemia, Hyperkalemia, Hyperkalemia, Hyperkalemia, Chronic Kidney Disease","Potassium, Angiotensin, Aldosterone, Spironolactone, Potassium, Potassium","CardioRenal, CardioRenal, Relypsa, Relypsa, Inc.",,session desc,2,Chronic Kidney Disease,Potassium,Chronic Kidney Disease,Potassium,,,0,0,0
211,Abnormal Potassium Handling in Cardiorenal Patients,Managing the Intersection of Chronic Hyperkalemia and Cardiorenal Risk,27-03-2020 19:00,General Session,1,,Ignore,,nan,,nan,,Medium,1.0,1.0,1.0,0.0,0,1,Medium,"Hyperkalemia, Hyperkalemia, Hyperkalemia, Chronic Kidney Disease","Potassium, Angiotensin, Aldosterone, Spironolactone, Potassium, Potassium","CardioRenal, CardioRenal, Relypsa, CardioRenal, Relypsa, Inc.",,session desc,2,Chronic Kidney Disease,Potassium,Chronic Kidney Disease,Potassium,,,0,0,0
223,Question and Answer Session and Panel Discussion,What's New in Hyperkalemia Management,26-03-2020 06:00,General Session,1,,Ignore,,nan,,nan,,Medium,1.0,1.0,1.0,0.0,0,1,Medium,"Hyperkalemia, Hyperkalemia, Hyperkalemia, Chronic Kidney Disease",Potassium,"AstraZeneca, AstraZeneca",,session desc,2,Chronic Kidney Disease,Potassium,Chronic Kidney Disease,Potassium,AstraZeneca,,1,0,0
213,The Evolving Role of Novel Potassium Binders: Newest Evidence,Managing the Intersection of Chronic Hyperkalemia and Cardiorenal Risk,27-03-2020 19:00,General Session,1,,Ignore,,nan,,nan,,Medium,1.0,1.0,1.0,0.0,0,1,Medium,"Hyperkalemia, Hyperkalemia, Hyperkalemia, Chronic Kidney Disease","Potassium, Angiotensin, Aldosterone, Spironolactone, Potassium","CardioRenal, CardioRenal, Relypsa, Relypsa, Inc.",,session desc,2,Chronic Kidney Disease,Potassium,Chronic Kidney Disease,Potassium,,,0,0,0
222,Treatment of Hyperkalemia: The Need to Avoid Therapeutic Compromises,What's New in Hyperkalemia Management,26-03-2020 06:00,General Session,1,,Ignore,,nan,,nan,,Medium,1.0,1.0,1.0,0.0,0,1,Medium,"Hyperkalemia, Hyperkalemia, Hyperkalemia, Hyperkalemia, Chronic Kidney Disease",Potassium,"AstraZeneca, AstraZeneca",,session desc,2,Chronic Kidney Disease,Potassium,Chronic Kidney Disease,Potassium,AstraZeneca,,1,0,0
215,Case Study,Managing the Intersection of Chronic Hyperkalemia and Cardiorenal Risk,27-03-2020 19:00,General Session,1,,Ignore,,nan,,nan,,Medium,1.0,1.0,1.0,0.0,0,1,Medium,"Hyperkalemia, Hyperkalemia, Hyperkalemia, Chronic Kidney Disease","Potassium, Angiotensin, Aldosterone, Spironolactone, Potassium","CardioRenal, CardioRenal, Relypsa, Relypsa, Inc.",,session desc,2,Chronic Kidney Disease,Potassium,Chronic Kidney Disease,Potassium,,,0,0,0
216,Questions & Answers,Managing the Intersection of Chronic Hyperkalemia and Cardiorenal Risk,27-03-2020 19:00,General Session,1,,Ignore,,nan,,nan,,Medium,1.0,1.0,1.0,0.0,0,1,Medium,"Hyperkalemia, Hyperkalemia, Hyperkalemia, Chronic Kidney Disease","Potassium, Angiotensin, Aldosterone, Spironolactone, Potassium","CardioRenal, CardioRenal, Relypsa, Relypsa, Inc.",,session desc,2,Chronic Kidney Disease,Potassium,Chronic Kidney Disease,Potassium,,,0,0,0
221,Hyperkalemia in Hemodialysis: Impact of Potassium Fluctuation and Management Strategies,What's New in Hyperkalemia Management,26-03-2020 06:00,General Session,1,,Ignore,,nan,,nan,,Medium,1.0,1.0,1.0,0.0,0,1,Medium,"Hyperkalemia, Hyperkalemia, Hyperkalemia, Hyperkalemia, Chronic Kidney Disease","Potassium, Potassium","AstraZeneca, AstraZeneca",,session desc,2,Chronic Kidney Disease,Potassium,Chronic Kidney Disease,Potassium,AstraZeneca,,1,0,0
214,The ESKD Patient with Concomitant Heart Failure: Disrupting the Current Treatment Paradigm,Managing the Intersection of Chronic Hyperkalemia and Cardiorenal Risk,27-03-2020 19:00,General Session,1,,Ignore,,nan,,nan,,Medium,1.0,1.0,1.0,0.0,0,1,Medium,"Hyperkalemia, Hyperkalemia, Hyperkalemia, Heart Failure, Chronic Kidney Disease","Potassium, Angiotensin, Aldosterone, Spironolactone, Potassium, Concomitant","CardioRenal, CardioRenal, Relypsa, Paradigm, Relypsa, Inc.",,session desc,2,Chronic Kidney Disease,Potassium,Chronic Kidney Disease,Potassium,,,0,0,0
143,Understanding the Urinalysis,It's All In The Flow of Things,26-03-2020 10:00,General Session,1,,Ignore,,nan,,nan,,Low,1.0,0.0,0.0,0.0,0,1,Low,"Albuminuria, Chronic Kidney Disease",,Proficient,,session objective,3,Chronic Kidney Disease,nan,Chronic Kidney Disease,,,,0,0,0
150,Zebras in Nephrology,Geocaching the Cause of Kidney Disease,27-03-2020 10:15,General Session,1,,Ignore,,nan,,nan,,Low,1.0,0.0,0.0,0.0,0,1,Low,"Kidney Diseases, Kidney Diseases, Pathology",,,,"session title, session objective",3,Kidney Diseases$$Kidney Diseases,nan,Kidney Diseases,,,,0,0,0
149,Renal Pathology,Geocaching the Cause of Kidney Disease,27-03-2020 10:15,General Session,1,,Ignore,,nan,,nan,,Low,1.0,0.0,0.0,0.0,0,1,Low,"Kidney Diseases, Kidney Diseases, Pathology, Pathology",,,,"session title, session objective",3,Kidney Diseases$$Kidney Diseases,nan,Kidney Diseases,,,,0,0,0
144,Diuretic Management,It's All In The Flow of Things,26-03-2020 10:00,General Session,1,,Ignore,,nan,,nan,,Low,1.0,0.0,0.0,0.0,0,1,Low,"Albuminuria, Chronic Kidney Disease",,Proficient,Diuretic,session objective,3,Chronic Kidney Disease,nan,Chronic Kidney Disease,,,Diuretic,0,1,0
190,Identifying Symptoms of Burnout,Identifying and Preventing Clinician Burnout,27-03-2020 14:00,General Session,1,,Ignore,,nan,,nan,,Low,1.0,0.0,0.0,0.0,0,1,Low,Chronic Kidney Disease,,,,session desc,3,Chronic Kidney Disease,nan,Chronic Kidney Disease,,,,0,0,0
137,Case Presntation,Deep Dive into the Assessment of the Pediatric Patient,28-03-2020 14:00,General Session,1,,Ignore,,nan,,nan,,Low,1.0,0.0,0.0,0.0,0,1,Low,Chronic Kidney Disease,,,,session desc,3,Chronic Kidney Disease,nan,Chronic Kidney Disease,,,,0,0,0
138,Nutritional Assessment of a Pediatric Nephrology Patient,Deep Dive into the Assessment of the Pediatric Patient,28-03-2020 14:00,General Session,1,,Ignore,,nan,,nan,,Low,1.0,0.0,0.0,0.0,0,1,Low,Chronic Kidney Disease,,,,session desc,3,Chronic Kidney Disease,nan,Chronic Kidney Disease,,,,0,0,0
131,Case Presentation 1,Panel: An Interprofessional Approach to Challenging Cases in Diabetes and CKD/ESRD,26-03-2020 08:00,General Session,1,,Ignore,,nan,,nan,,Low,1.0,0.0,0.0,0.0,0,1,Low,"Diabetes, Diabetic Nephropathy, Heart Disease, Pulmonary Hypertension, Heart Failure, Chronic Kidney Disease, Hypertension, Chronic Kidney Disease",,"Baylor College of Medicine, Baylor College of Medicine",,"session desc, session objective, session title",3,Diabetic Nephropathy$$Chronic Kidney Disease$$Chronic Kidney Disease,nan,Diabetic Nephropathy$$Chronic Kidney Disease,,,,0,0,0
133,Case Presentation 3,Panel: An Interprofessional Approach to Challenging Cases in Diabetes and CKD/ESRD,26-03-2020 08:00,General Session,1,,Ignore,,nan,,nan,,Low,1.0,0.0,0.0,0.0,0,1,Low,"Diabetes, Diabetic Nephropathy, Heart Disease, Pulmonary Hypertension, Heart Failure, Chronic Kidney Disease, Hypertension, Chronic Kidney Disease",,"Baylor College of Medicine, Baylor College of Medicine",,"session desc, session objective, session title",3,Diabetic Nephropathy$$Chronic Kidney Disease$$Chronic Kidney Disease,nan,Diabetic Nephropathy$$Chronic Kidney Disease,,,,0,0,0
2,Patient Perspectives on Post-AKI Care,Long-Term Outcomes After AKI: How Can Nephrologists Help?,28-03-2020 16:00,General Session,1,,Ignore,,nan,,nan,,Low,1.0,0.0,0.0,0.0,0,1,Low,Acute Kidney Injury,,,,session desc,3,Acute Kidney Injury,nan,Acute Kidney Injury,,,,0,0,0
132,Case Presentation 2,Panel: An Interprofessional Approach to Challenging Cases in Diabetes and CKD/ESRD,26-03-2020 08:00,General Session,1,,Ignore,,nan,,nan,,Low,1.0,0.0,0.0,0.0,0,1,Low,"Diabetes, Diabetic Nephropathy, Heart Disease, Pulmonary Hypertension, Heart Failure, Chronic Kidney Disease, Hypertension, Chronic Kidney Disease",,"Baylor College of Medicine, Baylor College of Medicine",,"session desc, session objective, session title",3,Diabetic Nephropathy$$Chronic Kidney Disease$$Chronic Kidney Disease,nan,Diabetic Nephropathy$$Chronic Kidney Disease,,,,0,0,0
153,Cardiology Update,The Cardiology Side of Kidney Disease,27-03-2020 14:00,General Session,1,,Ignore,,nan,,nan,,Low,1.0,0.0,0.0,0.0,0,1,Low,"Kidney Diseases, Cardiology, Cardio-Renal Syndrome, Cardiology, Cardiology, Chronic Kidney Disease",,,,"session objective, session objective, session title",3,Kidney Diseases$$Cardio-Renal Syndrome$$Chronic Kidney Disease,nan,Kidney Diseases$$Cardio-Renal Syndrome$$Chronic Kidney Disease,,,,0,0,0
101,Recognizing Dependency and Policy Considerations,It Hurts: The Multifaceted Look at Pain Management in Kidney Disease,26-03-2020 16:15,General Session,1,,Ignore,,nan,,nan,,Low,1.0,0.0,1.0,0.0,0,1,Low,"Kidney Diseases, Kidney Diseases, Trisomy 8",,"Mayo Clinic, Mayo Clinic, Mayo Clinic, Mayo Clinic",Opioid Analgesic,"session title, session desc",3,Kidney Diseases$$Kidney Diseases,nan,Kidney Diseases,,Mayo Clinic,,1,0,0
136,Psychosocial Assessment and Identifying Resources,Deep Dive into the Assessment of the Pediatric Patient,28-03-2020 14:00,General Session,1,,Ignore,,nan,,nan,,Low,1.0,0.0,0.0,0.0,0,1,Low,Chronic Kidney Disease,,,,session desc,3,Chronic Kidney Disease,nan,Chronic Kidney Disease,,,,0,0,0
135,Finding the Sweet Spot: The Role of Diet in Diabetic Kidney Disease,Joel D. Kopple Presentation,26-03-2020 16:15,General Session,1,,Ignore,,nan,,nan,,Low,1.0,0.0,0.0,0.0,0,1,Low,"Diabetic Nephropathy, Kidney Diseases, Diabetes, Diabetic Nephropathy, Diabetic Nephropathy, Skin Rash",,,,"session desc, session objective, presentation title, session desc",3,Diabetic Nephropathy$$Kidney Diseases$$Diabetic Nephropathy$$Diabetic Nephropathy,nan,Diabetic Nephropathy$$Kidney Diseases,,,,0,0,0
94,Tracking Kidney Disease and Its âHot Spotsâ,Workshop: Participate in CKD Surveillance: Help Guide Us in Monitoring Kidney Health Disparities and Hot Spots,28-03-2020 12:00,Lunch Workshop,1,,Ignore,,nan,,nan,,Low,1.0,0.0,0.0,0.0,0,1,Low,"Skin Rash, Kidney Diseases, Kidney Diseases, Chronic Kidney Disease, Skin Rash, Kidney Diseases, Chronic Kidney Disease, Chronic Kidney Disease",,Across,,"session objective, session title, session desc, session desc, session objective, presentation title",3,Kidney Diseases$$Kidney Diseases$$Chronic Kidney Disease$$Kidney Diseases$$Chronic Kidney Disease$$Chronic Kidney Disease,nan,Kidney Diseases$$Chronic Kidney Disease,,,,0,0,0
154,Cardiorenal Syndrome,The Cardiology Side of Kidney Disease,27-03-2020 14:00,General Session,1,,Ignore,,nan,,nan,,Low,1.0,0.0,0.0,0.0,0,1,Low,"Kidney Diseases, Cardiology, Cardio-Renal Syndrome, Cardiology, Cardio-Renal Syndrome, Chronic Kidney Disease",,,,"session objective, presentation title, session objective, session title",3,Kidney Diseases$$Cardio-Renal Syndrome$$Cardio-Renal Syndrome$$Chronic Kidney Disease,nan,Kidney Diseases$$Cardio-Renal Syndrome$$Chronic Kidney Disease,,,,0,0,0
189,Q&A Panel,Debate: Obesity Controversies and Transplantation,26-03-2020 10:00,General Session,1,,Ignore,,nan,,nan,,Low,1.0,0.0,0.0,0.0,0,1,Low,"Obesity, Kidney Diseases",,,,session desc,3,Kidney Diseases,nan,Kidney Diseases,,,,0,0,0
102,Deprescribing Safely,It Hurts: The Multifaceted Look at Pain Management in Kidney Disease,26-03-2020 16:15,General Session,1,,Ignore,,nan,,nan,,Low,1.0,0.0,1.0,0.0,0,1,Low,"Kidney Diseases, Kidney Diseases, Trisomy 8",,"Mayo Clinic, Mayo Clinic",Opioid Analgesic,"session title, session desc",3,Kidney Diseases$$Kidney Diseases,nan,Kidney Diseases,,Mayo Clinic,,1,0,0
160,Kidney Stones,Bones and Stones: Preventing Painful Moans,28-03-2020 10:00,General Session,1,,Ignore,,nan,,nan,,Low,1.0,0.0,0.0,0.0,0,1,Low,Chronic Kidney Disease,,,,session desc,3,Chronic Kidney Disease,nan,Chronic Kidney Disease,,,,0,0,0
134,Case Presentation 4,Panel: An Interprofessional Approach to Challenging Cases in Diabetes and CKD/ESRD,26-03-2020 08:00,General Session,1,,Ignore,,nan,,nan,,Low,1.0,0.0,0.0,0.0,0,1,Low,"Diabetes, Diabetic Nephropathy, Heart Disease, Pulmonary Hypertension, Heart Failure, Chronic Kidney Disease, Hypertension, Chronic Kidney Disease",,,,"session desc, session objective, session title",3,Diabetic Nephropathy$$Chronic Kidney Disease$$Chronic Kidney Disease,nan,Diabetic Nephropathy$$Chronic Kidney Disease,,,,0,0,0
84,Truth Telling in Nephrology â Explaining Uncertainty,Palliative Renal Care: A Shared Responsibility,28-03-2020 10:00,General Session,1,,Ignore,,nan,,nan,,Low,1.0,0.0,1.0,0.0,0,1,Low,Kidney Diseases,,"Mayo Clinic, Mayo Clinic",,session objective,3,Kidney Diseases,nan,Kidney Diseases,,Mayo Clinic,,1,0,0
130,Keynote: Advancing American Kidney Health Initiative & Presentation of Prizes to the KidneyX Patient Innovator Challenge Recipients,NKF Plenary Session,26-03-2020 14:15,Plenary Session,1,,Ignore,,nan,,nan,,Low,1.0,0.0,0.0,0.0,0,1,Low,"Kidney Diseases, Albuminuria, Cardiovascular Disease",,,,session objective,3,Kidney Diseases,nan,Kidney Diseases,,,,0,0,1
155,Billing and Coding,Updates in Money Matters & Policy Practice,27-03-2020 16:00,General Session,1,,Ignore,,nan,,nan,,Low,1.0,0.0,0.0,0.0,0,1,Low,"Chronic Kidney Disease, Chronic Kidney Disease",,,,"session desc, session objective",3,Chronic Kidney Disease$$Chronic Kidney Disease,nan,Chronic Kidney Disease,,,,0,0,0
156,Documentation Requirements in Nephrology,Updates in Money Matters & Policy Practice,27-03-2020 16:00,General Session,1,,Ignore,,nan,,nan,,Low,1.0,0.0,0.0,0.0,0,1,Low,"Chronic Kidney Disease, Chronic Kidney Disease",,,,"session desc, session objective",3,Chronic Kidney Disease$$Chronic Kidney Disease,nan,Chronic Kidney Disease,,,,0,0,0
159,Metabolic Bone Disease,Bones and Stones: Preventing Painful Moans,28-03-2020 10:00,General Session,1,,Ignore,,nan,,nan,,Low,1.0,0.0,0.0,0.0,0,1,Low,"Metabolic Bone Disease, Chronic Kidney Disease",,,,session desc,3,Chronic Kidney Disease,nan,Chronic Kidney Disease,,,,0,0,0
161,Understanding Acid-Base Disturbances,Workshop: Acid-Base,28-03-2020 12:00,Workshop,1,,Ignore,,nan,,nan,,Low,1.0,0.0,0.0,0.0,0,1,Low,"Kidney Diseases, Chronic Kidney Disease, Chronic Kidney Disease",,,,"session desc, session objective, session desc",3,Kidney Diseases$$Chronic Kidney Disease$$Chronic Kidney Disease,nan,Kidney Diseases$$Chronic Kidney Disease,,,,0,0,0
188,Weight Loss Options for the Transplant Candidate,Debate: Obesity Controversies and Transplantation,26-03-2020 10:00,General Session,1,,Ignore,,nan,,nan,,Low,1.0,0.0,0.0,0.0,0,1,Low,"Obesity, Kidney Diseases",,,,session desc,3,Kidney Diseases,nan,Kidney Diseases,,,,0,0,0
162,Management of Acid-Base Disturbances,Workshop: Acid-Base,28-03-2020 12:00,Workshop,1,,Ignore,,nan,,nan,,Low,1.0,0.0,0.0,0.0,0,1,Low,"Kidney Diseases, Chronic Kidney Disease, Chronic Kidney Disease",,,,"session desc, session objective, session desc",3,Kidney Diseases$$Chronic Kidney Disease$$Chronic Kidney Disease,nan,Kidney Diseases$$Chronic Kidney Disease,,,,0,0,0
165,Managing Anemia,Itâs All in the Blood,28-03-2020 14:00,General Session,1,,Ignore,,nan,,nan,,Low,1.0,0.0,0.0,0.0,0,1,Low,"Anemia, Anemia, Atrial Fibrillation, Kidney Diseases, Iron Deficiency Anemia, Anemia, Chronic Kidney Disease, Chronic Kidney Disease",,,Anticoagulant,"session desc, session objective, session objective",3,Kidney Diseases$$Chronic Kidney Disease$$Chronic Kidney Disease,nan,Kidney Diseases$$Chronic Kidney Disease,,,Anticoagulant,0,1,0
242,The Role of Phosphorus Therapy in Alleviating Cardiovascular Outcomes,Management of Mineral and Bone Disease in ESRD: New Solutions for an Old Problem,26-03-2020 19:30,General Session,1,,Ignore,,nan,,nan,,Low,1.0,0.0,0.0,0.0,0,1,Low,"Bone Disease, Bone Disease, Hyperphosphatemia, Chronic Kidney Disease",,Fresenius Medical Care,,session objective,3,Chronic Kidney Disease,nan,Chronic Kidney Disease,,,,0,0,0
95,What Factors Might Be Tracked? Interactive Session,Workshop: Participate in CKD Surveillance: Help Guide Us in Monitoring Kidney Health Disparities and Hot Spots,28-03-2020 12:00,Lunch Workshop,1,,Ignore,,nan,,nan,,Low,1.0,0.0,0.0,0.0,0,1,Low,"Skin Rash, Kidney Diseases, Kidney Diseases, Chronic Kidney Disease, Chronic Kidney Disease, Chronic Kidney Disease",,Across,,"session objective, session title, session desc, session desc, session objective",3,Kidney Diseases$$Kidney Diseases$$Chronic Kidney Disease$$Chronic Kidney Disease$$Chronic Kidney Disease,nan,Kidney Diseases$$Chronic Kidney Disease,,,,0,0,0
194,Management Strategies for Maintaining Renal Function in HRS/AKI,"Transplanting New Guidelines into Practice in Hepatorenal Syndrome and Acute Kidney Injury (HRS/AKI) â Everything is Fixed, Right?",26-03-2020 12:00,General Session,1,,Ignore,,nan,,nan,,Low,1.0,0.0,1.0,0.0,0,1,Low,"Acute Kidney Injury, Hepatorenal Syndrome, Liver Failure, Cirrhosis",,"Mallinckrodt, Mallinckrodt, Mayo Clinic",,session title,3,Acute Kidney Injury,nan,Acute Kidney Injury,,Mallinckrodt$$Mayo Clinic,,1,0,0
193,New Guidelines for Proactive Identification of HRS/AKI: Putting Them Into Practice,"Transplanting New Guidelines into Practice in Hepatorenal Syndrome and Acute Kidney Injury (HRS/AKI) â Everything is Fixed, Right?",26-03-2020 12:00,General Session,1,,Ignore,,nan,,nan,,Low,1.0,0.0,1.0,0.0,0,1,Low,"Acute Kidney Injury, Hepatorenal Syndrome, Liver Failure, Cirrhosis",,"Mallinckrodt, Mallinckrodt",,session title,3,Acute Kidney Injury,nan,Acute Kidney Injury,,Mallinckrodt,,1,0,0
118,Panel Discussion of Cases,Bone Management/Osteoporosis in CKD,28-03-2020 10:00,General Session,1,,Ignore,,nan,,nan,,Low,1.0,0.0,0.0,0.0,0,1,Low,"Osteoporosis, Osteoporosis, Chronic Kidney Disease, Chronic Kidney Disease, Chronic Kidney Disease",,,,"session title, session desc, session objective",3,Chronic Kidney Disease$$Chronic Kidney Disease$$Chronic Kidney Disease,nan,Chronic Kidney Disease,,,,0,0,0
110,Cardio-Renal,KDIGO Cardio-Metabolic Series,28-03-2020 14:00,General Session,1,,Ignore,,nan,,nan,,Low,1.0,1.0,0.0,0.0,0,1,Low,"Hyperkalemia, Hypokalemia, Anemia, Chronic Kidney Disease, Cardiovascular Disease",Potassium,"Baylor College of Medicine, Baylor College of Medicine",,session objective,3,Chronic Kidney Disease,Potassium,Chronic Kidney Disease,Potassium,,,0,0,0
114,Case Presentations Introduction,Bone Management/Osteoporosis in CKD,28-03-2020 10:00,General Session,1,,Ignore,,nan,,nan,,Low,1.0,0.0,0.0,0.0,0,1,Low,"Osteoporosis, Osteoporosis, Chronic Kidney Disease, Chronic Kidney Disease, Chronic Kidney Disease",,,,"session title, session desc, session objective",3,Chronic Kidney Disease$$Chronic Kidney Disease$$Chronic Kidney Disease,nan,Chronic Kidney Disease,,,,0,0,0
115,Bone Density Interpretation in Different Stages of CKD,Bone Management/Osteoporosis in CKD,28-03-2020 10:00,General Session,1,,Ignore,,nan,,nan,,Low,1.0,0.0,0.0,0.0,0,1,Low,"Osteoporosis, Osteoporosis, Chronic Kidney Disease, Chronic Kidney Disease, Chronic Kidney Disease, Chronic Kidney Disease",,,,"session title, session desc, session objective, presentation title",3,Chronic Kidney Disease$$Chronic Kidney Disease$$Chronic Kidney Disease$$Chronic Kidney Disease,nan,Chronic Kidney Disease,,,,0,0,0
116,To D or Not to D: That is the Question,Bone Management/Osteoporosis in CKD,28-03-2020 10:00,General Session,1,,Ignore,,nan,,nan,,Low,1.0,0.0,0.0,0.0,0,1,Low,"Osteoporosis, Osteoporosis, Chronic Kidney Disease, Chronic Kidney Disease, Chronic Kidney Disease",,,,"session title, session desc, session objective",3,Chronic Kidney Disease$$Chronic Kidney Disease$$Chronic Kidney Disease,nan,Chronic Kidney Disease,,,,0,0,0
117,Medications for Osteoporosis CKD Patients,Bone Management/Osteoporosis in CKD,28-03-2020 10:00,General Session,1,,Ignore,,nan,,nan,,Low,1.0,0.0,0.0,0.0,0,1,Low,"Osteoporosis, Osteoporosis, Osteoporosis, Chronic Kidney Disease, Chronic Kidney Disease, Chronic Kidney Disease, Chronic Kidney Disease",,,,"session title, session desc, session objective, presentation title",3,Chronic Kidney Disease$$Chronic Kidney Disease$$Chronic Kidney Disease$$Chronic Kidney Disease,nan,Chronic Kidney Disease,,,,0,0,0
104,Dietary Protein/Energy Intake and Nutrition Supplementation,KDOQI Clinical Practice Guidelines on Nutrition in CKD,27-03-2020 08:15,General Session,1,,Ignore,,nan,,nan,,Low,1.0,0.0,0.0,0.0,0,1,Low,"Chronic Kidney Disease, Chronic Kidney Disease",,,,"session objective, session title",3,Chronic Kidney Disease$$Chronic Kidney Disease,nan,Chronic Kidney Disease,,,,0,0,0
123,Debate 1: BP Targets in CKD: Balancing Trade-Offs?,Current Debates in Hypertension,27-03-2020 14:00,General Session,1,,Ignore,,nan,,nan,,Low,1.0,0.0,0.0,0.0,0,1,Low,"Hypertension, Chronic Kidney Disease",,,,presentation title,3,Chronic Kidney Disease,nan,Chronic Kidney Disease,,,,0,0,0
128,Shaul G. Massry Distinguished Lecture: Prognostic Insights from Non-Invasive Assessment of Kidney Tubule Health,NKF Plenary Session,26-03-2020 14:15,Plenary Session,1,,Ignore,,nan,,nan,,Low,1.0,0.0,0.0,0.0,0,1,Low,"Kidney Diseases, Albuminuria, Cardiovascular Disease",,,,session objective,3,Kidney Diseases,nan,Kidney Diseases,,,,0,0,1
103,Assessment and Medical Nutrition Therapy,KDOQI Clinical Practice Guidelines on Nutrition in CKD,27-03-2020 08:15,General Session,1,,Ignore,,nan,,nan,,Low,1.0,0.0,0.0,0.0,0,1,Low,"Chronic Kidney Disease, Chronic Kidney Disease",,,,"session objective, session title",3,Chronic Kidney Disease$$Chronic Kidney Disease,nan,Chronic Kidney Disease,,,,0,0,0
85,Rationale and Highlights of the New CKD/ESKD Integrated Care Program,Regulatory and Legislative Efforts in Kidney Disease,27-03-2020 10:15,General Session,1,,Ignore,,nan,,nan,,Low,1.0,0.0,0.0,0.0,0,1,Low,"Kidney Diseases, Chronic Kidney Disease, Chronic Kidney Disease",,Baylor College of Medicine,,"session objective, presentation title, session title",3,Kidney Diseases$$Chronic Kidney Disease$$Chronic Kidney Disease,nan,Kidney Diseases$$Chronic Kidney Disease,,,,0,0,0
86,National Kidney Foundation Policy Priorities: Moving Kidney Care Forward,Regulatory and Legislative Efforts in Kidney Disease,27-03-2020 10:15,General Session,1,,Ignore,,nan,,nan,,Low,1.0,0.0,0.0,0.0,0,1,Low,"Kidney Diseases, Chronic Kidney Disease",,,,"session objective, session title",3,Kidney Diseases$$Chronic Kidney Disease,nan,Kidney Diseases$$Chronic Kidney Disease,,,,0,0,0
129,NKF Presidential Address: Awaken the Giant Within,NKF Plenary Session,26-03-2020 14:15,Plenary Session,1,,Ignore,,nan,,nan,,Low,1.0,0.0,0.0,0.0,0,1,Low,"Kidney Diseases, Albuminuria, Cardiovascular Disease",,,,session objective,3,Kidney Diseases,nan,Kidney Diseases,,,,0,0,1
108,Potassium Management,KDIGO Cardio-Metabolic Series,28-03-2020 14:00,General Session,1,,Ignore,,nan,,nan,,Low,1.0,1.0,0.0,0.0,0,1,Low,"Hyperkalemia, Hypokalemia, Anemia, Chronic Kidney Disease, Cardiovascular Disease","Potassium, Potassium","Baylor College of Medicine, McMaster University, McMaster University",,session objective,3,Chronic Kidney Disease,Potassium,Chronic Kidney Disease,Potassium,,,0,0,0
192,Introduction and Overview Presentation,"Transplanting New Guidelines into Practice in Hepatorenal Syndrome and Acute Kidney Injury (HRS/AKI) â Everything is Fixed, Right?",26-03-2020 12:00,General Session,1,,Ignore,,nan,,nan,,Low,1.0,0.0,1.0,0.0,0,1,Low,"Acute Kidney Injury, Hepatorenal Syndrome, Liver Failure, Cirrhosis",,"Mallinckrodt, Mallinckrodt",,session title,3,Acute Kidney Injury,nan,Acute Kidney Injury,,Mallinckrodt,,1,0,0
93,"Health Disparities, Burden, and Access in Kidney Disease",Workshop: Participate in CKD Surveillance: Help Guide Us in Monitoring Kidney Health Disparities and Hot Spots,28-03-2020 12:00,Lunch Workshop,1,,Ignore,,nan,,nan,,Low,1.0,0.0,0.0,0.0,0,1,Low,"Skin Rash, Kidney Diseases, Kidney Diseases, Chronic Kidney Disease, Kidney Diseases, Chronic Kidney Disease, Chronic Kidney Disease",,Across,,"session objective, session title, session desc, session desc, session objective, presentation title",3,Kidney Diseases$$Kidney Diseases$$Chronic Kidney Disease$$Kidney Diseases$$Chronic Kidney Disease$$Chronic Kidney Disease,nan,Kidney Diseases$$Chronic Kidney Disease,,,,0,0,0
224,"Epidemiology, Disease Burden, and Pathogenesis of Pruritus in CKD ",Pruritus: Easing the Burden in Chronic Kidney Disease,27-03-2020 12:00,General Session,1,,Ignore,,nan,,nan,,Low,1.0,0.0,1.0,0.0,0,1,Low,"Pruritus, Chronic Kidney Disease, Pruritus, Pruritus, Pruritus, Chronic Kidney Disease, Chronic Kidney Disease, Chronic Kidney Disease",,"Cara Therapeutics, Cara Therapeutics",,"session title, session desc, session objective, presentation title",3,Chronic Kidney Disease$$Chronic Kidney Disease$$Chronic Kidney Disease$$Chronic Kidney Disease,nan,Chronic Kidney Disease,,Cara Therapeutics,,1,0,0
105,Micronutrients and Electrolytes,KDOQI Clinical Practice Guidelines on Nutrition in CKD,27-03-2020 08:15,General Session,1,,Ignore,,nan,,nan,,Low,1.0,0.0,0.0,0.0,0,1,Low,"Chronic Kidney Disease, Chronic Kidney Disease",,,,"session objective, session title",3,Chronic Kidney Disease$$Chronic Kidney Disease,nan,Chronic Kidney Disease,,,,0,0,0
231,Evidence-Based Management of Lupus Nephritis,Lupus Nephritis in 2020: An Evidence-Based Review of Optimal Management and Emerging Treatments,26-03-2020 19:30,General Session,1,,Ignore,,nan,,nan,,Low,1.0,0.0,1.0,0.0,0,1,Low,"Lupus Nephritis, Lupus Nephritis, Lupus Nephritis, Lupus Nephritis",,"Aurinia Pharmaceuticals, Aurinia Pharmaceuticals, Baylor College of Medicine",,"session title, session desc, session objective, presentation title",3,Lupus Nephritis$$Lupus Nephritis$$Lupus Nephritis$$Lupus Nephritis,nan,Lupus Nephritis,,Aurinia Pharmaceuticals,,1,0,0
244,Opening Remarks,Reducing Renal and Cardiovascular Risk in Diabetes and CKD: Newest Evidence for SGLT2 Inhibition,28-03-2020 12:00,General Session,1,,Ignore,,nan,,nan,,Low,1.0,0.0,1.0,0.0,0,1,Low,"Diabetes, Diabetes, Diabetes, Chronic Kidney Disease, Chronic Kidney Disease, Chronic Kidney Disease","SGLT-2, SGLT-2","Janssen Pharmaceuticals, CardioRenal, Janssen Pharmaceuticals",SGLT2 inhibitors,"session title, session desc, session objective",3,Chronic Kidney Disease$$Chronic Kidney Disease$$Chronic Kidney Disease,nan,Chronic Kidney Disease,,Janssen Pharmaceuticals,SGLT2 inhibitors,1,1,0
100,Managing Pain in Renal Disease with and without Opioids,It Hurts: The Multifaceted Look at Pain Management in Kidney Disease,26-03-2020 16:15,General Session,1,,Ignore,,nan,,nan,,Low,1.0,0.0,1.0,0.0,0,1,Low,"Kidney Diseases, Kidney Diseases, Trisomy 8, Renal Disease",,"Mayo Clinic, Mayo Clinic, Mayo Clinic, Mayo Clinic",Opioid Analgesic,"session title, session desc",3,Kidney Diseases$$Kidney Diseases,nan,Kidney Diseases,,Mayo Clinic,,1,0,0
246,SGLT2 Inhibition: Clinical Evidence for Renal and Cardiovascular Benefits,Reducing Renal and Cardiovascular Risk in Diabetes and CKD: Newest Evidence for SGLT2 Inhibition,28-03-2020 12:00,General Session,1,,Ignore,,nan,,nan,,Low,1.0,0.0,1.0,0.0,0,1,Low,"Diabetes, Diabetes, Diabetes, Chronic Kidney Disease, Chronic Kidney Disease, Chronic Kidney Disease","SGLT-2, SGLT-2, SGLT-2","Janssen Pharmaceuticals, CardioRenal, Janssen Pharmaceuticals",SGLT2 inhibitors,"session title, session desc, session objective",3,Chronic Kidney Disease$$Chronic Kidney Disease$$Chronic Kidney Disease,nan,Chronic Kidney Disease,,Janssen Pharmaceuticals,SGLT2 inhibitors,1,1,0
247,Evidence to Practice: Case Study,Reducing Renal and Cardiovascular Risk in Diabetes and CKD: Newest Evidence for SGLT2 Inhibition,28-03-2020 12:00,General Session,1,,Ignore,,nan,,nan,,Low,1.0,0.0,1.0,0.0,0,1,Low,"Diabetes, Diabetes, Diabetes, Chronic Kidney Disease, Chronic Kidney Disease, Chronic Kidney Disease","SGLT-2, SGLT-2","Janssen Pharmaceuticals, CardioRenal, Janssen Pharmaceuticals",SGLT2 inhibitors,"session title, session desc, session objective",3,Chronic Kidney Disease$$Chronic Kidney Disease$$Chronic Kidney Disease,nan,Chronic Kidney Disease,,Janssen Pharmaceuticals,SGLT2 inhibitors,1,1,0
248,Questions & Answers,Reducing Renal and Cardiovascular Risk in Diabetes and CKD: Newest Evidence for SGLT2 Inhibition,28-03-2020 12:00,General Session,1,,Ignore,,nan,,nan,,Low,1.0,0.0,1.0,0.0,0,1,Low,"Diabetes, Diabetes, Diabetes, Chronic Kidney Disease, Chronic Kidney Disease, Chronic Kidney Disease","SGLT-2, SGLT-2","Janssen Pharmaceuticals, CardioRenal, Janssen Pharmaceuticals",SGLT2 inhibitors,"session title, session desc, session objective",3,Chronic Kidney Disease$$Chronic Kidney Disease$$Chronic Kidney Disease,nan,Chronic Kidney Disease,,Janssen Pharmaceuticals,SGLT2 inhibitors,1,1,0
225,Clinical Presentation and Diagnosis of Pruritus in CKD,Pruritus: Easing the Burden in Chronic Kidney Disease,27-03-2020 12:00,General Session,1,,Ignore,,nan,,nan,,Low,1.0,0.0,1.0,0.0,0,1,Low,"Pruritus, Chronic Kidney Disease, Pruritus, Pruritus, Pruritus, Chronic Kidney Disease, Chronic Kidney Disease, Chronic Kidney Disease",,"Cara Therapeutics, Cara Therapeutics",,"session title, session desc, session objective, presentation title",3,Chronic Kidney Disease$$Chronic Kidney Disease$$Chronic Kidney Disease$$Chronic Kidney Disease,nan,Chronic Kidney Disease,,Cara Therapeutics,,1,0,0
191,Strategies and Techniques to Prevent Burnout,Identifying and Preventing Clinician Burnout,27-03-2020 14:00,General Session,1,,Ignore,,nan,,nan,,Low,1.0,0.0,0.0,0.0,0,1,Low,Chronic Kidney Disease,,,,session desc,3,Chronic Kidney Disease,nan,Chronic Kidney Disease,,,,0,0,0
166,Anti-Coagulation Treatments,Itâs All in the Blood,28-03-2020 14:00,General Session,1,,Ignore,,nan,,nan,,Low,1.0,0.0,0.0,0.0,0,1,Low,"Anemia, Anemia, Atrial Fibrillation, Kidney Diseases, Iron Deficiency Anemia, Chronic Kidney Disease, Chronic Kidney Disease",,,Anticoagulant,"session desc, session objective, session objective",3,Kidney Diseases$$Chronic Kidney Disease$$Chronic Kidney Disease,nan,Kidney Diseases$$Chronic Kidney Disease,,,Anticoagulant,0,1,0
227,Panel Discussion/Questions and Answers,Pruritus: Easing the Burden in Chronic Kidney Disease,27-03-2020 12:00,General Session,1,,Ignore,,nan,,nan,,Low,1.0,0.0,1.0,0.0,0,1,Low,"Pruritus, Chronic Kidney Disease, Pruritus, Pruritus, Chronic Kidney Disease, Chronic Kidney Disease",,"Cara Therapeutics, Cara Therapeutics",,"session title, session desc, session objective",3,Chronic Kidney Disease$$Chronic Kidney Disease$$Chronic Kidney Disease,nan,Chronic Kidney Disease,,Cara Therapeutics,,1,0,0
230,The Role of Renal Biopsy in Lupus Nephritis Management,Lupus Nephritis in 2020: An Evidence-Based Review of Optimal Management and Emerging Treatments,26-03-2020 19:30,General Session,1,,Ignore,,nan,,nan,,Low,1.0,0.0,1.0,0.0,0,1,Low,"Lupus Nephritis, Lupus Nephritis, Lupus Nephritis, Lupus Nephritis",,"Aurinia Pharmaceuticals, Aurinia Pharmaceuticals",,"session title, session desc, session objective, presentation title",3,Lupus Nephritis$$Lupus Nephritis$$Lupus Nephritis$$Lupus Nephritis,nan,Lupus Nephritis,,Aurinia Pharmaceuticals,,1,0,0
226,Treatments for Pruritus in CKD,Pruritus: Easing the Burden in Chronic Kidney Disease,27-03-2020 12:00,General Session,1,,Ignore,,nan,,nan,,Low,1.0,0.0,1.0,0.0,0,1,Low,"Pruritus, Chronic Kidney Disease, Pruritus, Pruritus, Pruritus, Chronic Kidney Disease, Chronic Kidney Disease, Chronic Kidney Disease",,"Cara Therapeutics, Cara Therapeutics",,"session title, session desc, session objective, presentation title",3,Chronic Kidney Disease$$Chronic Kidney Disease$$Chronic Kidney Disease$$Chronic Kidney Disease,nan,Chronic Kidney Disease,,Cara Therapeutics,,1,0,0
109,Anemia/Iron,KDIGO Cardio-Metabolic Series,28-03-2020 14:00,General Session,1,,Ignore,,nan,,nan,,Low,1.0,1.0,0.0,0.0,0,1,Low,"Hyperkalemia, Hypokalemia, Anemia, Anemia, Chronic Kidney Disease, Cardiovascular Disease",Potassium,Baylor College of Medicine,,session objective,3,Chronic Kidney Disease,Potassium,Chronic Kidney Disease,Potassium,,,0,0,0
167,Pediatric and Adolescent Transition of Care in Nephrology Patients,Kids Grow Up: Navigating the Transition from Pedatrics to Adult Medicine,28-03-2020 16:00,General Session,1,,Ignore,,nan,,nan,,Low,1.0,0.0,0.0,0.0,0,1,Low,Chronic Kidney Disease,,,,session objective,3,Chronic Kidney Disease,nan,Chronic Kidney Disease,,,,0,0,0
245,Mechanisms and Mediators of Kidney Failure in T2DM,Reducing Renal and Cardiovascular Risk in Diabetes and CKD: Newest Evidence for SGLT2 Inhibition,28-03-2020 12:00,General Session,1,,Ignore,,nan,,nan,,Low,1.0,0.0,1.0,0.0,0,1,Low,"Diabetes, Diabetes, Diabetes, Kidney Failure, Chronic Kidney Disease, Chronic Kidney Disease, Chronic Kidney Disease","SGLT-2, SGLT-2","Janssen Pharmaceuticals, CardioRenal, Janssen Pharmaceuticals",SGLT2 inhibitors,"session title, session desc, session objective, presentation title",3,Kidney Failure$$Chronic Kidney Disease$$Chronic Kidney Disease$$Chronic Kidney Disease,nan,Kidney Failure$$Chronic Kidney Disease,,Janssen Pharmaceuticals,SGLT2 inhibitors,1,1,0
187,Debate: Should Patients be Required to Lose Weight Before Transplant?,Debate: Obesity Controversies and Transplantation,26-03-2020 10:00,General Session,1,,Ignore,,nan,,nan,,Low,1.0,0.0,0.0,0.0,0,1,Low,"Obesity, Kidney Diseases",,,,session desc,3,Kidney Diseases,nan,Kidney Diseases,,,,0,0,0
45,Over the Horizon: Innovations in PD equipment and Care Delivery,Peritoneal Dialysis Potpourri,29-03-2020 08:00,General Session,1,,Ignore,,nan,,nan,,Low,1.0,0.0,0.0,0.0,0,1,Low,"Cirrhosis, Polycystic Kidney Diseases",,Horizon Therapeutics,,session objective,3,Polycystic Kidney Diseases,nan,Polycystic Kidney Diseases,,,,0,0,0
44,"Peritoneal Dialysis in Special Populations (Cirrhosis, PKD, Obesity) â It Works!",Peritoneal Dialysis Potpourri,29-03-2020 08:00,General Session,1,,Ignore,,nan,,nan,,Low,1.0,0.0,0.0,0.0,0,1,Low,"Cirrhosis, Polycystic Kidney Diseases, Obesity, Cirrhosis",,,,session objective,3,Polycystic Kidney Diseases,nan,Polycystic Kidney Diseases,,,,0,0,0
23,Role of the Kidney Biopsy for Membranous Nephropathy in the Serologic Testing Era,Workshop: Serological Testing in Membranous Nephropathy,26-03-2020 12:00,Lunch Workshop,1,,Ignore,,nan,,nan,,Low,1.0,0.0,0.0,0.0,0,1,Low,"Nephropathy, Nephropathy, Allergy, Nephropathy, Nephropathy",,,,"session title, session desc, session objective, presentation title",3,Nephropathy$$Nephropathy$$Nephropathy$$Nephropathy,nan,Nephropathy,,,,0,0,0
43,Implementing a Successful Urgent / Rapid Start Peritoneal Dialysis Program â Keys to Success,Peritoneal Dialysis Potpourri,29-03-2020 08:00,General Session,1,,Ignore,,nan,,nan,,Low,1.0,0.0,0.0,0.0,0,1,Low,"Cirrhosis, Polycystic Kidney Diseases",,,,session objective,3,Polycystic Kidney Diseases,nan,Polycystic Kidney Diseases,,,,0,0,0
49,Acute Kidney Injury,"Highlights from AJKD in AKI, Transplantation, and Patient-Oriented Research",28-03-2020 16:00,General Session,1,,Ignore,,nan,,nan,,Low,1.0,0.0,0.0,0.0,0,1,Low,Acute Kidney Injury,,,,presentation title,3,Acute Kidney Injury,nan,Acute Kidney Injury,,,,0,0,0
16,Case Review: Management of Post-Transplant Metabolic Complications,Specialized Management of Common Post-Transplant Complications,26-03-2020 08:00,General Session,1,,Ignore,,nan,,nan,,Low,1.0,0.0,0.0,0.0,0,1,Low,"Bone Disease, Chronic Kidney Disease, Cardiovascular Disease, Hyperuricemia, Bone Disease, Acidosis, Hyperuricemia",,,,session desc,3,Chronic Kidney Disease,nan,Chronic Kidney Disease,,,,0,0,0
17,Preservation of Venous Real Estate: Can PICC's Be Avoided?,Workshop: Vascular Access: Focus on the Patient and Preservation,26-03-2020 12:00,Lunch Workshop,1,,Ignore,,nan,,nan,,Low,1.0,0.0,1.0,0.0,0,1,Low,Chronic Kidney Disease,,Mayo Clinic,,session objective,3,Chronic Kidney Disease,nan,Chronic Kidney Disease,,Mayo Clinic,,1,0,0
208,Mechanisms of Anemia in CKD,Management of Anemia in Patients with Chronic Kidney Disease: Challenges and Emerging Strategies,28-03-2020 12:00,General Session,1,,Ignore,,nan,,nan,,Low,1.0,0.0,1.0,0.0,0,1,Low,"Anemia, Chronic Kidney Disease, Hypoxia, Anemia, Chronic Kidney Disease, Anemia, Anemia, Chronic Kidney Disease, Chronic Kidney Disease, Chronic Kidney Disease",,"AstraZeneca, FibroGen, FibroGen, AstraZeneca",,"session title, session desc, session desc, session objective, presentation title",3,Chronic Kidney Disease$$Chronic Kidney Disease$$Chronic Kidney Disease$$Chronic Kidney Disease$$Chronic Kidney Disease,nan,Chronic Kidney Disease,,AstraZeneca$$FibroGen,,1,0,0
220,"Introduction: Hyperkalemia: Incidence, Risk Factors and Clinical Relevance",What's New in Hyperkalemia Management,26-03-2020 06:00,General Session,1,Low,Low,,nan,,nan,,Medium,1.0,1.0,1.0,0.0,0,1,Low,"Hyperkalemia, Hyperkalemia, Hyperkalemia, Hyperkalemia, Chronic Kidney Disease",Potassium,"AstraZeneca, AstraZeneca",,session desc,3,Chronic Kidney Disease,Potassium,Chronic Kidney Disease,Potassium,AstraZeneca,,1,0,0
219,Dietary Interventions and Pharmacologic Options for Managing Acidosis,Evidence-Based Interventions for Metabolic Acidosis: Slowing Progression of CKD,27-03-2020 19:00,General Session,1,,Ignore,,nan,,nan,,Low,1.0,0.0,1.0,0.0,0,1,Low,"Acidosis, Acidosis, Acidosis, Chronic Kidney Disease, Chronic Kidney Disease",,"Tricida, Tricida, Baylor College of Medicine",,"session title, session objective",3,Chronic Kidney Disease$$Chronic Kidney Disease,nan,Chronic Kidney Disease,,Tricida,,1,0,0
207,Panel Discussion - Questions & Answers,Iron Deficiency Anemia in Adults with Non-Dialysis CKD,27-03-2020 06:00,General Session,1,,Ignore,,nan,,nan,,Low,1.0,0.0,1.0,0.0,0,1,Low,"Iron Deficiency Anemia, Iron Deficiency Anemia, Chronic Kidney Disease, Chronic Kidney Disease",,"Akebia Therapeutics, Akebia Therapeutics",,"session title, session objective",3,Chronic Kidney Disease$$Chronic Kidney Disease,nan,Chronic Kidney Disease,,Akebia Therapeutics,,1,0,0
206,Clinical Update: Novel Versus Standard Oral Iron Preparations,Iron Deficiency Anemia in Adults with Non-Dialysis CKD,27-03-2020 06:00,General Session,1,,Ignore,,nan,,nan,,Low,1.0,0.0,1.0,0.0,0,1,Low,"Iron Deficiency Anemia, Iron Deficiency Anemia, Chronic Kidney Disease, Chronic Kidney Disease",,"Akebia Therapeutics, Akebia Therapeutics",,"session title, session objective",3,Chronic Kidney Disease$$Chronic Kidney Disease,nan,Chronic Kidney Disease,,Akebia Therapeutics,,1,0,0
205,Assessing and Treating Iron Deficiency Anemia in ND-CKD,Iron Deficiency Anemia in Adults with Non-Dialysis CKD,27-03-2020 06:00,General Session,1,,Ignore,,nan,,nan,,Low,1.0,0.0,1.0,0.0,0,1,Low,"Iron Deficiency Anemia, Iron Deficiency Anemia, Iron Deficiency Anemia, Chronic Kidney Disease, Chronic Kidney Disease, Chronic Kidney Disease",,"Akebia Therapeutics, Akebia Therapeutics",,"session title, session objective, presentation title",3,Chronic Kidney Disease$$Chronic Kidney Disease$$Chronic Kidney Disease,nan,Chronic Kidney Disease,,Akebia Therapeutics,,1,0,0
204,Pathophysiology of Iron Deficiency in CKD,Iron Deficiency Anemia in Adults with Non-Dialysis CKD,27-03-2020 06:00,General Session,1,,Ignore,,nan,,nan,,Low,1.0,0.0,1.0,0.0,0,1,Low,"Iron Deficiency Anemia, Iron Deficiency Anemia, Iron Deficiency Anemia, Chronic Kidney Disease, Chronic Kidney Disease, Chronic Kidney Disease",,"Akebia Therapeutics, Akebia Therapeutics",,"session title, session objective, presentation title",3,Chronic Kidney Disease$$Chronic Kidney Disease$$Chronic Kidney Disease,nan,Chronic Kidney Disease,,Akebia Therapeutics,,1,0,0
79,The Case for Scheduled Dialysis Care in the Undocumented,ESKD Care of the Undocumented and Uninsured,29-03-2020 10:00,General Session,1,,Ignore,,nan,,nan,,Low,1.0,0.0,0.0,0.0,0,1,Low,Kidney Diseases,,,,session objective,3,Kidney Diseases,nan,Kidney Diseases,,,,0,0,0
203,Welcome and Introduction,Iron Deficiency Anemia in Adults with Non-Dialysis CKD,27-03-2020 06:00,General Session,1,,Ignore,,nan,,nan,,Low,1.0,0.0,1.0,0.0,0,1,Low,"Iron Deficiency Anemia, Iron Deficiency Anemia, Chronic Kidney Disease, Chronic Kidney Disease",,"Akebia Therapeutics, Akebia Therapeutics",,"session title, session objective",3,Chronic Kidney Disease$$Chronic Kidney Disease,nan,Chronic Kidney Disease,,Akebia Therapeutics,,1,0,0
201,Practical Approaches to Treatment Challenges,Insights into the Management of ADPKD: Slowing Disease Progression,26-03-2020 06:00,General Session,1,,Ignore,,nan,,nan,,Low,1.0,1.0,0.0,0.0,0,1,Low,"Autosomal Dominant Polycystic Kidney, Autosomal Dominant Polycystic Kidney, Autosomal Dominant Polycystic Kidney",Tolvaptan,Otsuka America Pharmaceutical,,"session title, session desc, session objective",3,Autosomal Dominant Polycystic Kidney$$Autosomal Dominant Polycystic Kidney$$Autosomal Dominant Polycystic Kidney,Tolvaptan,Autosomal Dominant Polycystic Kidney,Tolvaptan,,,0,0,0
200,Optimizing Outcomes in High-Risk ADPKD Patients,Insights into the Management of ADPKD: Slowing Disease Progression,26-03-2020 06:00,General Session,1,,Ignore,,nan,,nan,,Low,1.0,1.0,0.0,0.0,0,1,Low,"Autosomal Dominant Polycystic Kidney, Autosomal Dominant Polycystic Kidney, Autosomal Dominant Polycystic Kidney, Autosomal Dominant Polycystic Kidney",Tolvaptan,Otsuka America Pharmaceutical,,"session title, session desc, session objective, presentation title",3,Autosomal Dominant Polycystic Kidney$$Autosomal Dominant Polycystic Kidney$$Autosomal Dominant Polycystic Kidney$$Autosomal Dominant Polycystic Kidney,Tolvaptan,Autosomal Dominant Polycystic Kidney,Tolvaptan,,,0,0,0
199,Advances in the Diagnosis of Rapidly Progressive ADPKD,Insights into the Management of ADPKD: Slowing Disease Progression,26-03-2020 06:00,General Session,1,,Ignore,,nan,,nan,,Low,1.0,1.0,0.0,0.0,0,1,Low,"Autosomal Dominant Polycystic Kidney, Autosomal Dominant Polycystic Kidney, Autosomal Dominant Polycystic Kidney, Autosomal Dominant Polycystic Kidney",Tolvaptan,Otsuka America Pharmaceutical,,"session title, session desc, session objective, presentation title",3,Autosomal Dominant Polycystic Kidney$$Autosomal Dominant Polycystic Kidney$$Autosomal Dominant Polycystic Kidney$$Autosomal Dominant Polycystic Kidney,Tolvaptan,Autosomal Dominant Polycystic Kidney,Tolvaptan,,,0,0,0
18,Approach to Steal Syndrome: A Case-Based Roundtable,Workshop: Vascular Access: Focus on the Patient and Preservation,26-03-2020 12:00,Lunch Workshop,1,,Ignore,,nan,,nan,,Low,1.0,0.0,1.0,0.0,0,1,Low,Chronic Kidney Disease,,Mayo Clinic,,session objective,3,Chronic Kidney Disease,nan,Chronic Kidney Disease,,Mayo Clinic,,1,0,0
195,Case Session,"Transplanting New Guidelines into Practice in Hepatorenal Syndrome and Acute Kidney Injury (HRS/AKI) â Everything is Fixed, Right?",26-03-2020 12:00,General Session,1,,Ignore,,nan,,nan,,Low,1.0,0.0,1.0,0.0,0,1,Low,"Acute Kidney Injury, Hepatorenal Syndrome, Liver Failure, Cirrhosis",,"Mallinckrodt, Mallinckrodt",,session title,3,Acute Kidney Injury,nan,Acute Kidney Injury,,Mallinckrodt,,1,0,0
218,"Current Guidelines for Identifying and Managing Acidosis, and Challenges with Current Oral Alkali Options",Evidence-Based Interventions for Metabolic Acidosis: Slowing Progression of CKD,27-03-2020 19:00,General Session,1,,Ignore,,nan,,nan,,Low,1.0,0.0,1.0,0.0,0,1,Low,"Acidosis, Acidosis, Acidosis, Chronic Kidney Disease, Chronic Kidney Disease",,"Tricida, Tricida, Baylor College of Medicine",,"session title, session objective",3,Chronic Kidney Disease$$Chronic Kidney Disease,nan,Chronic Kidney Disease,,Tricida,,1,0,0
217,Metabolic Acidosis and CKD: Current Unmet Needs and Burden,Evidence-Based Interventions for Metabolic Acidosis: Slowing Progression of CKD,27-03-2020 19:00,General Session,1,,Ignore,,nan,,nan,,Low,1.0,0.0,1.0,0.0,0,1,Low,"Acidosis, Acidosis, Acidosis, Chronic Kidney Disease, Chronic Kidney Disease, Chronic Kidney Disease",,"Tricida, Tricida, Baylor College of Medicine, Baylor College of Medicine",,"session title, session objective, presentation title",3,Chronic Kidney Disease$$Chronic Kidney Disease$$Chronic Kidney Disease,nan,Chronic Kidney Disease,,Tricida,,1,0,0
19,The Patient Voice: Patient Experiences and Challenges with Vascular Access,Workshop: Vascular Access: Focus on the Patient and Preservation,26-03-2020 12:00,Lunch Workshop,1,,Ignore,,nan,,nan,,Low,1.0,0.0,1.0,0.0,0,1,Low,Chronic Kidney Disease,,Mayo Clinic,,session objective,3,Chronic Kidney Disease,nan,Chronic Kidney Disease,,Mayo Clinic,,1,0,0
20,AV Access Surgical Emergencies: Pictorial-Based Case Discussions,Workshop: Vascular Access: Focus on the Patient and Preservation,26-03-2020 12:00,Lunch Workshop,1,,Ignore,,nan,,nan,,Low,1.0,0.0,1.0,0.0,0,1,Low,Chronic Kidney Disease,,Mayo Clinic,,session objective,3,Chronic Kidney Disease,nan,Chronic Kidney Disease,,Mayo Clinic,,1,0,0
21,How to Successfully initiate HD With A Functional AV Access,Workshop: Vascular Access: Focus on the Patient and Preservation,26-03-2020 12:00,Lunch Workshop,1,,Ignore,,nan,,nan,,Low,1.0,0.0,0.0,0.0,0,1,Low,Chronic Kidney Disease,,,,session objective,3,Chronic Kidney Disease,nan,Chronic Kidney Disease,,,,0,0,0
59,Update on Myeloma Light Chain Cast Nephropathy,Debate: Are Extracorporeal Therapies Appropriate for Myeloma Cast Nephropathy?,28-03-2020 10:00,General Session,1,,Ignore,,nan,,nan,,Low,1.0,0.0,0.0,0.0,0,1,Low,"Myeloma, Nephropathy, Myeloma, Nephropathy, Myeloma, Nephropathy",,,,"session title, session objective, presentation title",3,Nephropathy$$Nephropathy$$Nephropathy,nan,Nephropathy,,,,0,0,0
209,Current Standard of Care for Anemia of CKD,Management of Anemia in Patients with Chronic Kidney Disease: Challenges and Emerging Strategies,28-03-2020 12:00,General Session,1,Low,Low,,nan,,nan,,Low,1.0,0.0,1.0,0.0,0,1,Low,"Anemia, Chronic Kidney Disease, Hypoxia, Anemia, Chronic Kidney Disease, Anemia, Anemia, Chronic Kidney Disease, Chronic Kidney Disease, Chronic Kidney Disease",,"AstraZeneca, FibroGen, FibroGen, AstraZeneca",,"session title, session desc, session desc, session objective, presentation title",3,Chronic Kidney Disease$$Chronic Kidney Disease$$Chronic Kidney Disease$$Chronic Kidney Disease$$Chronic Kidney Disease,nan,Chronic Kidney Disease,,AstraZeneca$$FibroGen,,1,0,0
1,How to Improve Long-Term Outcomes for Patients with AKI Still on Dialysis,Long-Term Outcomes After AKI: How Can Nephrologists Help?,28-03-2020 16:00,General Session,1,,Ignore,,nan,,nan,,Low,1.0,0.0,0.0,0.0,0,1,Low,Acute Kidney Injury,,,,session desc,3,Acute Kidney Injury,nan,Acute Kidney Injury,,,,0,0,0
168,Vaccination and Immunizations for the CKD/ESRD/Transplant Patient,Kids Grow Up: Navigating the Transition from Pedatrics to Adult Medicine,28-03-2020 16:00,General Session,1,,Ignore,,nan,,nan,,Low,1.0,0.0,0.0,0.0,0,1,Low,"Chronic Kidney Disease, Chronic Kidney Disease",,,,"session objective, presentation title",3,Chronic Kidney Disease$$Chronic Kidney Disease,nan,Chronic Kidney Disease,,,,0,0,0
202,Questions & Answers,Insights into the Management of ADPKD: Slowing Disease Progression,26-03-2020 06:00,General Session,1,,Ignore,,nan,,nan,,Low,1.0,1.0,0.0,0.0,0,1,Low,"Autosomal Dominant Polycystic Kidney, Autosomal Dominant Polycystic Kidney, Autosomal Dominant Polycystic Kidney",Tolvaptan,Otsuka America Pharmaceutical,,"session title, session desc, session objective",3,Autosomal Dominant Polycystic Kidney$$Autosomal Dominant Polycystic Kidney$$Autosomal Dominant Polycystic Kidney,Tolvaptan,Autosomal Dominant Polycystic Kidney,Tolvaptan,,,0,0,0
6,"Renal Replacement Therapy in Sepsis-Associated AKI: Timing, Dose, and Modality",Sepsis-Associated AKI - Update 2020,26-03-2020 10:00,General Session,1,,Ignore,,nan,,nan,,Low,1.0,0.0,1.0,0.0,0,1,Low,"Sepsis, Acute Kidney Injury, Sepsis, Acute Kidney Injury, Sepsis, Sepsis",,"Mayo Clinic, Mayo Clinic",,"session desc, session objective",3,Acute Kidney Injury$$Acute Kidney Injury,nan,Acute Kidney Injury,,Mayo Clinic,,1,0,0
196,Going Upstream: Living Donation Education in CKD 3 & 4,The Untapped Resource: Ways To Increase Living Donation through Thoughtful Regulation and Education,27-03-2020 10:15,General Session,1,,Ignore,,nan,,nan,,Low,1.0,0.0,0.0,0.0,0,1,Low,Chronic Kidney Disease,,,,presentation title,3,Chronic Kidney Disease,nan,Chronic Kidney Disease,,,,0,0,0
72,Update and Clinical Trials in Lupus Nephritis,Clinical Trials in Glomerular Disease- The Time is Now,26-03-2020 10:00,General Session,1,,Ignore,,nan,,nan,,Low,1.0,0.0,0.0,0.0,0,1,Low,"Lupus Nephritis, Lupus Nephritis",,,,"session objective, presentation title",3,Lupus Nephritis$$Lupus Nephritis,nan,Lupus Nephritis,,,,0,0,0
243,Advances in the Treatment of Hyperphosphatemia in ESRD,Management of Mineral and Bone Disease in ESRD: New Solutions for an Old Problem,26-03-2020 19:30,General Session,1,,Ignore,,nan,,nan,,Low,1.0,0.0,0.0,0.0,0,1,Low,"Bone Disease, Bone Disease, Hyperphosphatemia, Hyperphosphatemia, Chronic Kidney Disease",,Fresenius Medical Care,,session objective,3,Chronic Kidney Disease,nan,Chronic Kidney Disease,,,,0,0,0
4,Pathobiology of Sepsis-Associated AKI,Sepsis-Associated AKI - Update 2020,26-03-2020 10:00,General Session,1,,Ignore,,nan,,nan,,Low,1.0,0.0,1.0,0.0,0,1,Low,"Sepsis, Acute Kidney Injury, Sepsis, Acute Kidney Injury, Sepsis, Sepsis",,"Mayo Clinic, Mayo Clinic",,"session desc, session objective",3,Acute Kidney Injury$$Acute Kidney Injury,nan,Acute Kidney Injury,,Mayo Clinic,,1,0,0
83,Two Pâs in the Pod â Managing Pain and Pruritus in the HD Unit,Palliative Renal Care: A Shared Responsibility,28-03-2020 10:00,General Session,1,,Ignore,,nan,,nan,,Low,1.0,0.0,1.0,0.0,0,1,Low,"Kidney Diseases, Pruritus",,"Mayo Clinic, Mayo Clinic, Mayo Clinic, Mayo Clinic",,session objective,3,Kidney Diseases,nan,Kidney Diseases,,Mayo Clinic,,1,0,0
241,Introduction: Driving Outcomes in ESRD: The Role of Hyperphosphatemia,Management of Mineral and Bone Disease in ESRD: New Solutions for an Old Problem,26-03-2020 19:30,General Session,1,,Ignore,,nan,,nan,,Low,1.0,0.0,0.0,0.0,0,1,Low,"Bone Disease, Bone Disease, Hyperphosphatemia, Hyperphosphatemia, Chronic Kidney Disease",,Fresenius Medical Care,,session objective,3,Chronic Kidney Disease,nan,Chronic Kidney Disease,,,,0,0,0
30,CON: Conservative Intravenous Iron Therapy is Safer and Preferred in CKD and ESRD,Debate: What is the Best Approach to Iron Therapy in Patients with ESRD?,26-03-2020 16:15,General Session,1,,Ignore,,nan,,nan,,Low,1.0,0.0,0.0,0.0,0,1,Low,"Anemia, Anemia, Chronic Kidney Disease",,,,presentation title,3,Chronic Kidney Disease,nan,Chronic Kidney Disease,,,,0,0,0
38,"Consequences of CAR-T: New Treatments, New Challenges",Hot Topics in Onco-Nephrology,27-03-2020 14:00,General Session,1,,Ignore,,nan,,nan,,Low,1.0,0.0,0.0,0.0,0,1,Low,"Kidney Diseases, Cancer, Cytokine Release Syndrome, Kidney Diseases",,,"Immune Checkpoint Inhibitor, Chimeric Antigen Receptor, CAR-T, CAR-T Cell Therapy, CAR-T","session desc, session objective",3,Kidney Diseases$$Kidney Diseases,nan,Kidney Diseases,,,Immune Checkpoint Inhibitor,0,1,0
37,Check Yourself Before You Wreck Yourself: Managing Complications of Checkpoint Inhibitors,Hot Topics in Onco-Nephrology,27-03-2020 14:00,General Session,1,,Ignore,,nan,,nan,,Low,1.0,0.0,1.0,0.0,0,1,Low,"Kidney Diseases, Cancer, Cytokine Release Syndrome, Kidney Diseases",,DaVita Dialysis,"Immune Checkpoint Inhibitor, Chimeric Antigen Receptor, CAR-T, CAR-T Cell Therapy","session desc, session objective",3,Kidney Diseases$$Kidney Diseases,nan,Kidney Diseases,,DaVita Dialysis,Immune Checkpoint Inhibitor,1,1,0
39,Care in Patients with Kidney Disease and Cancer,Hot Topics in Onco-Nephrology,27-03-2020 14:00,General Session,1,,Ignore,,nan,,nan,,Low,1.0,0.0,0.0,0.0,0,1,Low,"Kidney Diseases, Cancer, Cytokine Release Syndrome, Kidney Diseases, Kidney Diseases, Cancer",,,"Immune Checkpoint Inhibitor, Chimeric Antigen Receptor, CAR-T, CAR-T Cell Therapy","session desc, session objective, presentation title",3,Kidney Diseases$$Kidney Diseases$$Kidney Diseases,nan,Kidney Diseases,,,Immune Checkpoint Inhibitor,0,1,0
7,"Overview of APOL-1, CKD and ESRD","APOL1: ESKD, Genetic Testing in Transplant, and African American Community Comments",27-03-2020 08:15,General Session,1,,Ignore,,nan,,nan,,Low,1.0,0.0,0.0,0.0,0,1,Low,"Kidney Diseases, Chronic Kidney Disease, Chronic Kidney Disease",,,,"session desc, presentation title, session objective",3,Kidney Diseases$$Chronic Kidney Disease$$Chronic Kidney Disease,nan,Kidney Diseases$$Chronic Kidney Disease,,,,0,0,0
8,Genetic Testing for APOL-1 in African Americans: Who Decides and Who is Allowed to Donate?,"APOL1: ESKD, Genetic Testing in Transplant, and African American Community Comments",27-03-2020 08:15,General Session,1,,Ignore,,nan,,nan,,Low,1.0,0.0,0.0,0.0,0,1,Low,"Kidney Diseases, Chronic Kidney Disease",,,,"session desc, session objective",3,Kidney Diseases$$Chronic Kidney Disease,nan,Kidney Diseases$$Chronic Kidney Disease,,,,0,0,0
9,African American Community Thoughts on APOL1 Genetic Testing,"APOL1: ESKD, Genetic Testing in Transplant, and African American Community Comments",27-03-2020 08:15,General Session,1,,Ignore,,nan,,nan,,Low,1.0,0.0,0.0,0.0,0,1,Low,"Kidney Diseases, Chronic Kidney Disease",,,,"session desc, session objective",3,Kidney Diseases$$Chronic Kidney Disease,nan,Kidney Diseases$$Chronic Kidney Disease,,,,0,0,0
63,Genetic Tubulopathies and Gitelman Syndromes,Cases from the Hereditary Kidney Diseases Clinic,29-03-2020 10:00,General Session,1,,Ignore,,nan,,nan,,Low,1.0,0.0,0.0,0.0,0,1,Low,"Kidney Diseases, Renal Disease, Gitelman Syndrome",,,,session title,3,Kidney Diseases,nan,Kidney Diseases,,,,0,0,0
62,Alports Syndrome and Other Collagen Disorders,Cases from the Hereditary Kidney Diseases Clinic,29-03-2020 10:00,General Session,1,,Ignore,,nan,,nan,,Low,1.0,0.0,0.0,0.0,0,1,Low,"Kidney Diseases, Renal Disease",,,,session title,3,Kidney Diseases,nan,Kidney Diseases,,,,0,0,0
61,Genetic Testing Overview,Cases from the Hereditary Kidney Diseases Clinic,29-03-2020 10:00,General Session,1,,Ignore,,nan,,nan,,Low,1.0,0.0,0.0,0.0,0,1,Low,"Kidney Diseases, Renal Disease",,,,session title,3,Kidney Diseases,nan,Kidney Diseases,,,,0,0,0
60,CON: There is NO Role for Extracorporeal Therapies in the Treatment of Dialysis Requiring Myeloma Cast Nephropathy,Debate: Are Extracorporeal Therapies Appropriate for Myeloma Cast Nephropathy?,28-03-2020 10:00,General Session,1,,Ignore,,nan,,nan,,Low,1.0,0.0,0.0,0.0,0,1,Low,"Myeloma, Nephropathy, Myeloma, Nephropathy, Myeloma, Nephropathy",,,,"session title, session objective, presentation title",3,Nephropathy$$Nephropathy$$Nephropathy,nan,Nephropathy,,,,0,0,0
33,Urine Microscopy Cases,Workshop: Urine Microscopy for the Clinical Nephrologist,28-03-2020 12:00,Lunch Workshop,1,,Ignore,,nan,,nan,,Low,1.0,0.0,0.0,0.0,0,1,Low,"Kidney Diseases, Kidney Diseases, Kidney Diseases",,,,"session desc, session desc, session objective",3,Kidney Diseases$$Kidney Diseases$$Kidney Diseases,nan,Kidney Diseases,,,,0,0,0
14,"The Dying Allograft: Return to Dialysis, Tapering Immunosuppression, and When to Consider Transplant Nephrectomy",Specialized Management of Common Post-Transplant Complications,26-03-2020 08:00,General Session,1,,Ignore,,nan,,nan,,Low,1.0,0.0,0.0,0.0,0,1,Low,"Bone Disease, Chronic Kidney Disease, Cardiovascular Disease, Hyperuricemia, Bone Disease, Acidosis, Hyperuricemia",,,,session desc,3,Chronic Kidney Disease,nan,Chronic Kidney Disease,,,,0,0,0
22,Target Antigens in Membranous Nephropathy,Workshop: Serological Testing in Membranous Nephropathy,26-03-2020 12:00,Lunch Workshop,1,,Ignore,,nan,,nan,,Low,1.0,0.0,0.0,0.0,0,1,Low,"Nephropathy, Nephropathy, Allergy, Nephropathy, Nephropathy",,,,"session title, session desc, session objective, presentation title",3,Nephropathy$$Nephropathy$$Nephropathy$$Nephropathy,nan,Nephropathy,,,,0,0,0
81,Congressional Crystal Ball: Legislative Outlook for Kidney Care Bills,ESKD Care of the Undocumented and Uninsured,29-03-2020 10:00,General Session,1,,Ignore,,nan,,nan,,Low,1.0,0.0,0.0,0.0,0,1,Low,"Kidney Diseases, B-Cell Acute Lymphoblastic Leukemia",,,,session objective,3,Kidney Diseases,nan,Kidney Diseases,,,,0,0,0
71,Clinical Trials 101 for Glomerular Disease,Clinical Trials in Glomerular Disease- The Time is Now,26-03-2020 10:00,General Session,1,,Ignore,,nan,,nan,,Low,1.0,0.0,0.0,0.0,0,1,Low,Lupus Nephritis,,"Covance, Duke University Medical Center, Covance",,session objective,3,Lupus Nephritis,nan,Lupus Nephritis,,,,0,0,0
80,Medicaid Expansion Effects on Transplant & ESKD Outcomes,ESKD Care of the Undocumented and Uninsured,29-03-2020 10:00,General Session,1,,Ignore,,nan,,nan,,Low,1.0,0.0,0.0,0.0,0,1,Low,Kidney Diseases,,,,session objective,3,Kidney Diseases,nan,Kidney Diseases,,,,0,0,0
73,Update and Clinical Trials in FSGS,Clinical Trials in Glomerular Disease- The Time is Now,26-03-2020 10:00,General Session,1,,Ignore,,nan,,nan,,Low,1.0,0.0,0.0,0.0,0,1,Low,Lupus Nephritis,,,,session objective,3,Lupus Nephritis,nan,Lupus Nephritis,,,,0,0,0
5,Therapy of Sepsis-Associated AKI: Fluid Resuscitation and Vasopressors,Sepsis-Associated AKI - Update 2020,26-03-2020 10:00,General Session,1,,Ignore,,nan,,nan,,Low,1.0,0.0,1.0,0.0,0,1,Low,"Sepsis, Acute Kidney Injury, Sepsis, Acute Kidney Injury, Sepsis, Sepsis",,"Mayo Clinic, Mayo Clinic",,"session desc, session objective",3,Acute Kidney Injury$$Acute Kidney Injury,nan,Acute Kidney Injury,,Mayo Clinic,,1,0,0
82,Recognizing Triggers and Transitions in Nephrology Care,Palliative Renal Care: A Shared Responsibility,28-03-2020 10:00,General Session,1,,Ignore,,nan,,nan,,Low,1.0,0.0,1.0,0.0,0,1,Low,Kidney Diseases,,"Mayo Clinic, Mayo Clinic",,session objective,3,Kidney Diseases,nan,Kidney Diseases,,Mayo Clinic,,1,0,0
3,How to Care for Patients Who are Dialysis Independent,Long-Term Outcomes After AKI: How Can Nephrologists Help?,28-03-2020 16:00,General Session,1,,Ignore,,nan,,nan,,Low,1.0,0.0,0.0,0.0,0,1,Low,Acute Kidney Injury,,,,session desc,3,Acute Kidney Injury,nan,Acute Kidney Injury,,,,0,0,0
232,Current and Emerging Treatments for Lupus Nephritis,Lupus Nephritis in 2020: An Evidence-Based Review of Optimal Management and Emerging Treatments,26-03-2020 19:30,General Session,1,,Ignore,,nan,,nan,,Low,1.0,0.0,1.0,0.0,0,1,Low,"Lupus Nephritis, Lupus Nephritis, Lupus Nephritis, Lupus Nephritis",,"Aurinia Pharmaceuticals, Aurinia Pharmaceuticals",,"session title, session desc, session objective, presentation title",3,Lupus Nephritis$$Lupus Nephritis$$Lupus Nephritis$$Lupus Nephritis,nan,Lupus Nephritis,,Aurinia Pharmaceuticals,,1,0,0
28,PRO: Intensive Intravenous Iron Therapy is Safe and Effective in Patients with CKD and ESRD,Debate: What is the Best Approach to Iron Therapy in Patients with ESRD?,26-03-2020 16:15,General Session,1,,Ignore,,nan,,nan,,Low,1.0,0.0,0.0,0.0,0,1,Low,"Anemia, Anemia, Chronic Kidney Disease",,,,presentation title,3,Chronic Kidney Disease,nan,Chronic Kidney Disease,,,,0,0,0
32,Urine Microscopy for the Nephrologist,Workshop: Urine Microscopy for the Clinical Nephrologist,28-03-2020 12:00,Lunch Workshop,1,,Ignore,,nan,,nan,,Low,1.0,0.0,0.0,0.0,0,1,Low,"Kidney Diseases, Kidney Diseases, Kidney Diseases",,,,"session desc, session desc, session objective",3,Kidney Diseases$$Kidney Diseases$$Kidney Diseases,nan,Kidney Diseases,,,,0,0,0
15,Cardiovascular Risk Attenuation in the Kidney Transplant Recipient,Specialized Management of Common Post-Transplant Complications,26-03-2020 08:00,General Session,1,,Ignore,,nan,,nan,,Low,1.0,0.0,0.0,0.0,0,1,Low,"Bone Disease, Chronic Kidney Disease, Cardiovascular Disease, Hyperuricemia, Bone Disease, Acidosis, Hyperuricemia",,,,session desc,3,Chronic Kidney Disease,nan,Chronic Kidney Disease,,,,0,0,0
58,PRO: Extracorporeal Therapies Have a Role in the Treatment of Dialysis Requiring Myeloma Cast Nephropathy,Debate: Are Extracorporeal Therapies Appropriate for Myeloma Cast Nephropathy?,28-03-2020 10:00,General Session,1,,Ignore,,nan,,nan,,Low,1.0,0.0,1.0,0.0,0,1,Low,"Myeloma, Nephropathy, Myeloma, Nephropathy, Myeloma, Nephropathy",,"Mayo Clinic, Mayo Clinic",,"session title, session objective, presentation title",3,Nephropathy$$Nephropathy$$Nephropathy,nan,Nephropathy,,Mayo Clinic,,1,0,0
24,Treating Membranous Nephropathy in the PLA2R Era,Workshop: Serological Testing in Membranous Nephropathy,26-03-2020 12:00,Lunch Workshop,1,,Ignore,,nan,,nan,,Low,1.0,0.0,0.0,0.0,0,1,Low,"Nephropathy, Nephropathy, Allergy, Nephropathy, Nephropathy",,,,"session title, session desc, session objective, presentation title",3,Nephropathy$$Nephropathy$$Nephropathy$$Nephropathy,nan,Nephropathy,,,,0,0,0
239,Diagnostic of Fabry Disease and Evaluation of Kidney Function,Improving Renal Outcomes in Fabry Disease,26-03-2020 12:00,General Session,0,,Not Relevant,,nan,,nan,,Not Relevant,0.0,0.0,1.0,0.0,0,0,Not Relevant,"Fabry Disease, Genetic Disorder, Fabry Disease, Fabry Disease, Fabry Disease",,"Genzyme, a Sanofi Company, SANOFI, SANOFI",,,5,nan,nan,,,SANOFI,,1,0,0
145,"Fad Diets and Alternative Therapies: The Good, The Bad and The Ugly",Alternative Nutrition and Malnutrition in the Renal Patient,27-03-2020 08:15,General Session,0,,Not Relevant,,nan,,nan,,,,,,,0,0,Not Relevant,,,,,,5,nan,nan,,,,,0,0,0
29,"Debate Introduction, Case Presentation and Pre-Debate Poll",Debate: What is the Best Approach to Iron Therapy in Patients with ESRD?,26-03-2020 16:15,General Session,0,,Not Relevant,,nan,,nan,,,,,,,0,0,Not Relevant,"Anemia, Anemia",,,,,5,nan,nan,,,,,0,0,0
34,Diagnosing AIN: Can Urine Testing Be Helpful?,Acute Interstitial Nephritis: Whatâs New?,27-03-2020 08:15,General Session,0,,Not Relevant,,nan,,nan,,Low,1.0,0.0,1.0,0.0,0,0,Not Relevant,"Acute Tubulo-Interstitial Nephritis, Acute Tubulo-Interstitial Nephritis",,"Mayo Clinic, Mayo Clinic",,,5,nan,nan,,,Mayo Clinic,,1,0,0
198,The Executive Order on Advancing American Kidney Health: Can it Increase Living Donation?,The Untapped Resource: Ways To Increase Living Donation through Thoughtful Regulation and Education,27-03-2020 10:15,General Session,0,,Not Relevant,,nan,,nan,,,,,,,0,0,Not Relevant,,,,,,5,nan,nan,,,,,0,0,0
197,"The Bad and the Good: Regulations, Congress, CMS, and Beyond  ",The Untapped Resource: Ways To Increase Living Donation through Thoughtful Regulation and Education,27-03-2020 10:15,General Session,0,,Not Relevant,,nan,,nan,,,,,,,0,0,Not Relevant,,,,,,5,nan,nan,,,,,0,0,0
35,Pathology of Common Causes of AIN,Acute Interstitial Nephritis: Whatâs New?,27-03-2020 08:15,General Session,0,,Not Relevant,,nan,,nan,,Low,1.0,0.0,1.0,0.0,0,0,Not Relevant,"Acute Tubulo-Interstitial Nephritis, Acute Tubulo-Interstitial Nephritis, Pathology",,"Mayo Clinic, Mayo Clinic",,,5,nan,nan,,,Mayo Clinic,,1,0,0
31,Post-Debate Poll and Panel Discussion,Debate: What is the Best Approach to Iron Therapy in Patients with ESRD?,26-03-2020 16:15,General Session,0,,Not Relevant,,nan,,nan,,,,,,,0,0,Not Relevant,"Anemia, Anemia",,,,,5,nan,nan,,,,,0,0,0
25,Emerging Trends in Immuosuppression,Hot Topics in Kidney Transplantation,26-03-2020 16:15,General Session,0,,Not Relevant,,nan,,nan,,,,,,,0,0,Not Relevant,,,,,,5,nan,nan,,,,,0,0,0
26,Expanding the Live Donor Pool,Hot Topics in Kidney Transplantation,26-03-2020 16:15,General Session,0,,Not Relevant,,nan,,nan,,,,,,,0,0,Not Relevant,,,,,,5,nan,nan,,,,,0,0,0
237,Panel Discussion,Pathogenesis and Management of FSGS: Current Insights,27-03-2020 12:00,General Session,0,,Not Relevant,,nan,,nan,,,,,,,0,0,Not Relevant,,,Retrophin,,,5,nan,nan,,,,,0,0,0
12,Conclusion: Vote on debate and Usability of Sick Protocols in relation to the Case,AKI Medication Controversies: First Do No Harm?,29-03-2020 08:00,General Session,0,,Not Relevant,,nan,,nan,,Not Relevant,0.0,0.0,1.0,0.0,0,0,Not Relevant,"Inflammation, Sepsis, Hyperkalemia, Emesis, Hypotension, Diarrhea","Aldosterone, Angiotensin","Mayo Clinic, Mayo Clinic, Mayo Clinic, Mayo Clinic",ACEi,,5,nan,nan,,,Mayo Clinic,ACEi,1,1,0
119,Definitions and Evaluation of Resistant Hypertension,Workshop: Resistant Hypertension,26-03-2020 12:00,Lunch Workshop,0,,Not Relevant,,nan,,nan,,,,,,,0,0,Not Relevant,"Hypertension, Hypertension, Hypertension, Hypertension",,,,,5,nan,nan,,,,,0,0,0
11,Topic Introduction with Case Example,AKI Medication Controversies: First Do No Harm?,29-03-2020 08:00,General Session,0,,Not Relevant,,nan,,nan,,Not Relevant,0.0,0.0,1.0,0.0,0,0,Not Relevant,"Inflammation, Sepsis, Hyperkalemia, Emesis, Hypotension, Diarrhea","Aldosterone, Angiotensin","Mayo Clinic, Mayo Clinic, Mayo Clinic, Mayo Clinic",ACEi,,5,nan,nan,,,Mayo Clinic,ACEi,1,1,0
238,Pathophysiology of Fabry Disease and its Impact on the Kidney,Improving Renal Outcomes in Fabry Disease,26-03-2020 12:00,General Session,0,,Not Relevant,,nan,,nan,,Not Relevant,0.0,0.0,1.0,0.0,0,0,Not Relevant,"Fabry Disease, Genetic Disorder, Fabry Disease, Fabry Disease, Fabry Disease",,"Genzyme, a Sanofi Company, SANOFI, SANOFI",,,5,nan,nan,,,SANOFI,,1,0,0
236,Management of FSGS: Current Options and Novel Therapies,Pathogenesis and Management of FSGS: Current Insights,27-03-2020 12:00,General Session,0,High,Not Relevant,,nan,,nan,,,,,,,0,0,Not Relevant,,,Retrophin,,,5,nan,nan,,,,,0,0,0
235,Evaluation and Diagnosis of FSGS,Pathogenesis and Management of FSGS: Current Insights,27-03-2020 12:00,General Session,0,,Not Relevant,,nan,,nan,,,,,,,0,0,Not Relevant,,,Retrophin,,,5,nan,nan,,,,,0,0,0
233,Welcome and Introduction,Pathogenesis and Management of FSGS: Current Insights,27-03-2020 12:00,General Session,0,,Not Relevant,,nan,,nan,,,,,,,0,0,Not Relevant,,,Retrophin,,,5,nan,nan,,,,,0,0,0
240,Evidence-Based Disease Management and Nephroprotective Strategies for Patients with Fabry Disease,Improving Renal Outcomes in Fabry Disease,26-03-2020 12:00,General Session,0,,Not Relevant,,nan,,nan,,Not Relevant,0.0,0.0,1.0,0.0,0,0,Not Relevant,"Fabry Disease, Genetic Disorder, Fabry Disease, Fabry Disease, Fabry Disease",,"Genzyme, a Sanofi Company, SANOFI, SANOFI",,,5,nan,nan,,,SANOFI,,1,0,0
113,Small Group Discussions,Workshop: Navigating and Negotiating Your First Job,26-03-2020 12:00,Lunch Workshop,0,,Not Relevant,,nan,,nan,,,,,,,0,0,Not Relevant,,,Duke University Medical Center,,,5,nan,nan,,,,,0,0,0
10,Sick Day Medication Protocols for AKI Prevention: Fact or Fiction?,AKI Medication Controversies: First Do No Harm?,29-03-2020 08:00,General Session,0,,Not Relevant,,nan,,nan,,Not Relevant,0.0,0.0,1.0,0.0,0,0,Not Relevant,"Inflammation, Sepsis, Hyperkalemia, Emesis, Hypotension, Diarrhea","Aldosterone, Angiotensin","Mayo Clinic, Mayo Clinic",ACEi,,5,nan,nan,,,Mayo Clinic,ACEi,1,1,0
13,Debate: RAS Inhibitors Should Be Stopped to Minimize AKI,AKI Medication Controversies: First Do No Harm?,29-03-2020 08:00,General Session,0,,Not Relevant,,nan,,nan,,Not Relevant,0.0,0.0,1.0,0.0,0,0,Not Relevant,"Inflammation, Sepsis, Hyperkalemia, Emesis, Hypotension, Diarrhea","Aldosterone, Angiotensin","Mayo Clinic, Mayo Clinic",ACEi,,5,nan,nan,,,Mayo Clinic,ACEi,1,1,0
27,Changes and Controversies in Organ Allocation,Hot Topics in Kidney Transplantation,26-03-2020 16:15,General Session,0,,Not Relevant,,nan,,nan,,,,,,,0,0,Not Relevant,,,,,,5,nan,nan,,,,,0,0,0
112,Navigating the Transition to Independent Careers,Workshop: Navigating and Negotiating Your First Job,26-03-2020 12:00,Lunch Workshop,0,,Not Relevant,,nan,,nan,,,,,,,0,0,Not Relevant,,,Duke University Medical Center,,,5,nan,nan,,,,,0,0,0
77,CON: Steroids Should Not Be Used in Patients with Slowly Progressive IgA Nephropathy,Debate: Should Steroids Be Used for Slowly Progressive IgA Nephropathy?,27-03-2020 16:00,General Session,0,,Not Relevant,,nan,,nan,,,,,,,0,0,Not Relevant,"IgA Nephropathy, IgA Nephropathy, IgA Nephropathy, IgA Nephropathy",,,Steroid,,5,nan,nan,,,,,0,0,0
67,Endovascular AVF: Patient Selection and Workup,Vascular Access: Endovascular AVF,26-03-2020 08:00,General Session,0,,Not Relevant,,nan,,nan,,,,,,,0,0,Not Relevant,,,Paradigm,,,5,nan,nan,,,,,0,0,0
127,NINJA: A Sustained Program to Reduce Nephrotoxic AKI,Decision Support for AKI: Ready for Prime Time?,27-03-2020 16:00,General Session,0,,Not Relevant,,nan,,nan,,Not Relevant,0.0,0.0,1.0,0.0,0,0,Not Relevant,,,"Mayo Clinic, Mayo Clinic",,,5,nan,nan,,,Mayo Clinic,,1,0,0
36,Treatment Strategies in AIN,Acute Interstitial Nephritis: Whatâs New?,27-03-2020 08:15,General Session,0,,Not Relevant,,nan,,nan,,Low,1.0,0.0,1.0,0.0,0,0,Not Relevant,"Acute Tubulo-Interstitial Nephritis, Acute Tubulo-Interstitial Nephritis",,"Mayo Clinic, Mayo Clinic",,,5,nan,nan,,,Mayo Clinic,,1,0,0
57,Social Media in Nephrology: Legal Considerations,Social Media in Nephrology: Friend or Foe?,27-03-2020 14:00,General Session,0,,Not Relevant,,nan,,nan,,,,,,,0,0,Not Relevant,,,Duke University Medical Center,,,5,nan,nan,,,,,0,0,0
126,How to Respond to Early Warning Systems and AKI Biomarkers,Decision Support for AKI: Ready for Prime Time?,27-03-2020 16:00,General Session,0,,Not Relevant,,nan,,nan,,Not Relevant,0.0,0.0,1.0,0.0,0,0,Not Relevant,,,"Mayo Clinic, Mayo Clinic",,,5,nan,nan,,,Mayo Clinic,,1,0,0
120,Treatment of Resistant Hypertension,Workshop: Resistant Hypertension,26-03-2020 12:00,Lunch Workshop,0,,Not Relevant,,nan,,nan,,,,,,,0,0,Not Relevant,"Hypertension, Hypertension, Hypertension, Hypertension",,,,,5,nan,nan,,,,,0,0,0
125,Early AKI Warning Systems: What Currently Exists?,Decision Support for AKI: Ready for Prime Time?,27-03-2020 16:00,General Session,0,,Not Relevant,,nan,,nan,,Not Relevant,0.0,0.0,1.0,0.0,0,0,Not Relevant,,,"Mayo Clinic, Mayo Clinic",,,5,nan,nan,,,Mayo Clinic,,1,0,0
124,Debate 2: Is There a Role for Device Therapies in Resistant Hypertension?,Current Debates in Hypertension,27-03-2020 14:00,General Session,0,,Not Relevant,,nan,,nan,,,,,,,0,0,Not Relevant,"Hypertension, Hypertension",,,,,5,nan,nan,,,,,0,0,0
122,Case Discussions,Workshop: Resistant Hypertension,26-03-2020 12:00,Lunch Workshop,0,,Not Relevant,,nan,,nan,,,,,,,0,0,Not Relevant,"Hypertension, Hypertension, Hypertension",,,,,5,nan,nan,,,,,0,0,0
121,What to Do When Nothing Else Works?,Workshop: Resistant Hypertension,26-03-2020 12:00,Lunch Workshop,0,,Not Relevant,,nan,,nan,,,,,,,0,0,Not Relevant,"Hypertension, Hypertension, Hypertension",,,,,5,nan,nan,,,,,0,0,0
91,Acid-Base Case (Malignancy Lactic Acidosis),Workshop: Stump the Professor - Difficult Electrolyte and Acid-Base Cases,28-03-2020 12:00,Lunch Workshop,0,,Not Relevant,,nan,,nan,,,,,,,0,0,Not Relevant,"Bulimia Nervosa, Cancer, Solid Tumor, Acidosis, Blood Disorder, Acidosis, Cancer",,,,,5,nan,nan,,,,,0,0,0
111,Negotiating Contracts for all Graduating Fellows (US and International Medical Graduates),Workshop: Navigating and Negotiating Your First Job,26-03-2020 12:00,Lunch Workshop,0,,Not Relevant,,nan,,nan,,,,,,,0,0,Not Relevant,,,Duke University Medical Center,,,5,nan,nan,,,,,0,0,0
78,IgA Nephropathy - What's New?,Debate: Should Steroids Be Used for Slowly Progressive IgA Nephropathy?,27-03-2020 16:00,General Session,0,,Not Relevant,,nan,,nan,,,,,,,0,0,Not Relevant,"IgA Nephropathy, IgA Nephropathy, IgA Nephropathy, IgA Nephropathy",,,Steroid,,5,nan,nan,,,,,0,0,0
90,Electrolyte Case (Cerebral Salt Wasting),Workshop: Stump the Professor - Difficult Electrolyte and Acid-Base Cases,28-03-2020 12:00,Lunch Workshop,0,,Not Relevant,,nan,,nan,,,,,,,0,0,Not Relevant,"Bulimia Nervosa, Cancer, Solid Tumor, Acidosis, Blood Disorder",,,,,5,nan,nan,,,,,0,0,0
89,Rebuttal and Closing Remarks,Debate: More Frequent Hemodialysis vs. Incremental Dialysis,26-03-2020 08:00,General Session,0,,Not Relevant,,nan,,nan,,,,,,,0,0,Not Relevant,,,,,,5,nan,nan,,,,,0,0,0
88,More Frequent Hemodialysis is the Best Strategy,Debate: More Frequent Hemodialysis vs. Incremental Dialysis,26-03-2020 08:00,General Session,0,,Not Relevant,,nan,,nan,,,,,,,0,0,Not Relevant,,,,,,5,nan,nan,,,,,0,0,0
87,Incremental Dialysis is the Best Strategy,Debate: More Frequent Hemodialysis vs. Incremental Dialysis,26-03-2020 08:00,General Session,0,,Not Relevant,,nan,,nan,,,,,,,0,0,Not Relevant,,,,,,5,nan,nan,,,,,0,0,0
76,PRO: Steroids are an Effective Treatment Option for IgA Nephropathy,Debate: Should Steroids Be Used for Slowly Progressive IgA Nephropathy?,27-03-2020 16:00,General Session,0,,Not Relevant,,nan,,nan,,,,,,,0,0,Not Relevant,"IgA Nephropathy, IgA Nephropathy, IgA Nephropathy, IgA Nephropathy",,,Steroid,,5,nan,nan,,,,,0,0,0
107,QIP System: Quality from the Independent and LDO Perspective,Quality Measure Controversies in Dialysis,28-03-2020 14:00,General Session,0,,Not Relevant,,nan,,nan,,,,,,,0,0,Not Relevant,,,,,,5,nan,nan,,,,,0,0,0
106,The Five Star Dialysis Facility Rating System: Controversies,Quality Measure Controversies in Dialysis,28-03-2020 14:00,General Session,0,,Not Relevant,,nan,,nan,,,,,,,0,0,Not Relevant,,,,,,5,nan,nan,,,,,0,0,0
64,"Advantages and Pitfalls of Endovascular AVF: Patency, Complications, and Costs",Vascular Access: Endovascular AVF,26-03-2020 08:00,General Session,0,,Not Relevant,,nan,,nan,,,,,,,0,0,Not Relevant,,,Paradigm,,,5,nan,nan,,,,,0,0,0
65,Bringing in the New: Education & Cannulation of an Endovascular AVF,Vascular Access: Endovascular AVF,26-03-2020 08:00,General Session,0,,Not Relevant,,nan,,nan,,,,,,,0,0,Not Relevant,,,Paradigm,,,5,nan,nan,,,,,0,0,0
66,Putting it All Together: Endovascular AVF Case-Based Roundtable,Vascular Access: Endovascular AVF,26-03-2020 08:00,General Session,0,,Not Relevant,,nan,,nan,,,,,,,0,0,Not Relevant,,,Paradigm,,,5,nan,nan,,,,,0,0,0
92,Acid-Base Case (Metabolic Akalosis - Bulimia),Workshop: Stump the Professor - Difficult Electrolyte and Acid-Base Cases,28-03-2020 12:00,Lunch Workshop,0,,Not Relevant,,nan,,nan,,,,,,,0,0,Not Relevant,"Bulimia Nervosa, Cancer, Solid Tumor, Acidosis, Blood Disorder, Bulimia Nervosa",,,,,5,nan,nan,,,,,0,0,0
68,BP Goals in Older Patients,Hypertension in Special Populations,28-03-2020 16:00,General Session,0,,Not Relevant,,nan,,nan,,,,,,,0,0,Not Relevant,Hypertension,,,,,5,nan,nan,,,,,0,0,0
96,Developing a CCRC Program in the US Environment,Providing Comprehensive Renal Care (CCRC),27-03-2020 10:15,General Session,0,,Not Relevant,,nan,,nan,,,,,,,0,0,Not Relevant,,,,,,5,nan,nan,,,,,0,0,0
70,Hypertention in Dialysis Patients,Hypertension in Special Populations,28-03-2020 16:00,General Session,0,,Not Relevant,,nan,,nan,,,,,,,0,0,Not Relevant,Hypertension,,,,,5,nan,nan,,,,,0,0,0
98,CCRC â A Walk Through the Patient and Family Experience,Providing Comprehensive Renal Care (CCRC),27-03-2020 10:15,General Session,0,,Not Relevant,,nan,,nan,,,,,,,0,0,Not Relevant,,,,,,5,nan,nan,,,,,0,0,0
97,Measuring âSuccessâ for a CCRC Program,Providing Comprehensive Renal Care (CCRC),27-03-2020 10:15,General Session,0,,Not Relevant,,nan,,nan,,,,,,,0,0,Not Relevant,,,,,,5,nan,nan,,,,,0,0,0
179,Basics of Ultrasound Technique,Point of Care Ultrasound for the Nephrologist,25-03-2020 13:00,Pre-Conference Course,0,,Not Relevant,,nan,,nan,,,,,,,0,0,Not Relevant,,Vena,,,,5,nan,nan,,,,,0,0,0
74,Home Dialysis vs. Transplant: Is One Always Better,Home Therapies: Best Practices,26-03-2020 10:00,General Session,0,,Not Relevant,,nan,,nan,,,,,,,0,0,Not Relevant,,,,,,5,nan,nan,,,,,0,0,0
75,A Roadmap to Overcome Home Dialysis Barriers,Home Therapies: Best Practices,26-03-2020 10:00,General Session,0,,Not Relevant,,nan,,nan,,,,,,,0,0,Not Relevant,,,,,,5,nan,nan,,,,,0,0,0
55,How Social Media Can Advance the Careers of Women in Nephrology,Social Media in Nephrology: Friend or Foe?,27-03-2020 14:00,General Session,0,,Not Relevant,,nan,,nan,,,,,,,0,0,Not Relevant,,,Duke University Medical Center,,,5,nan,nan,,,,,0,0,0
164,Rheumatologic Red Flags,Common Orthopedic Problems and Rhabdo,28-03-2020 14:00,General Session,0,,Not Relevant,,nan,,nan,,,,,,,0,0,Not Relevant,"Rhabdomyolysis, Osteoarthritis, Rheumatology",,,,,5,nan,nan,,,,,0,0,0
163,Common Orthopedic Conditions in Nephrology,Common Orthopedic Problems and Rhabdo,28-03-2020 14:00,General Session,0,,Not Relevant,,nan,,nan,,,,,,,0,0,Not Relevant,"Rhabdomyolysis, Osteoarthritis, Rheumatology",,,,,5,nan,nan,,,,,0,0,0
40,AKI in Pregnancy,Pregnancy and the Kidney,27-03-2020 16:00,General Session,0,,Not Relevant,,nan,,nan,,,,,,,0,0,Not Relevant,Pregnancy-Induced Hypertension,,,,,5,nan,nan,,,,,0,0,0
41,Hypertensive Disorders in the Pregnant Patient,Pregnancy and the Kidney,27-03-2020 16:00,General Session,0,,Not Relevant,,nan,,nan,,,,,,,0,0,Not Relevant,"Pregnancy-Induced Hypertension, Hypertensive Disorders",,,,,5,nan,nan,,,,,0,0,0
42,ESRD and Pregnancy: Outcomes and Management,Pregnancy and the Kidney,27-03-2020 16:00,General Session,0,,Not Relevant,,nan,,nan,,Not Relevant,0.0,0.0,1.0,0.0,0,0,Not Relevant,Pregnancy-Induced Hypertension,,Mayo Clinic,,,5,nan,nan,,,Mayo Clinic,,1,0,0
56,Social Media in Nephrology: Boundaries with the Clinician-Patient Relationship,Social Media in Nephrology: Friend or Foe?,27-03-2020 14:00,General Session,0,,Not Relevant,,nan,,nan,,,,,,,0,0,Not Relevant,,,Duke University Medical Center,,,5,nan,nan,,,,,0,0,0
157,What the Panel is Telling You,Deciphering Electrolytes and Acid Base,27-03-2020 16:00,General Session,0,,Not Relevant,,nan,,nan,,Low,1.0,0.0,0.0,0.0,0,0,Not Relevant,"Diabetes Insipidus, Hyponatremia, Hyperkalemia, Hypokalemia",,,Hormone,,5,nan,nan,,,,,0,0,0
186,Wrap-up and Evaluation,Point of Care Ultrasound for the Nephrologist,25-03-2020 13:00,Pre-Conference Course,0,,Not Relevant,,nan,,nan,,,,,,,0,0,Not Relevant,,Vena,,,,5,nan,nan,,,,,0,0,0
185,Group A- Hands on Lung and IVC Ultrasound  /  Group B- Image Interpretation,Point of Care Ultrasound for the Nephrologist,25-03-2020 13:00,Pre-Conference Course,0,,Not Relevant,,nan,,nan,,,,,,,0,0,Not Relevant,,Vena,,,,5,nan,nan,,,,,0,0,0
184,Introduction to Inferior Vena Cava Imaging,Point of Care Ultrasound for the Nephrologist,25-03-2020 13:00,Pre-Conference Course,0,,Not Relevant,,nan,,nan,,,,,,,0,0,Not Relevant,,"Vena, Vena",,,,5,nan,nan,,,,,0,0,0
183,Introduction to Lung Ultrasound,Point of Care Ultrasound for the Nephrologist,25-03-2020 13:00,Pre-Conference Course,0,,Not Relevant,,nan,,nan,,,,,,,0,0,Not Relevant,,Vena,,,,5,nan,nan,,,,,0,0,0
180,Introduction to Imaging the Kidney and Bladder,Point of Care Ultrasound for the Nephrologist,25-03-2020 13:00,Pre-Conference Course,0,,Not Relevant,,nan,,nan,,,,,,,0,0,Not Relevant,,Vena,,,,5,nan,nan,,,,,0,0,0
181,Group A- Hands on Kidney and Bladder Ultrasound  /  Group B- Image Interpretation of the Kidney and Bladder,Point of Care Ultrasound for the Nephrologist,25-03-2020 13:00,Pre-Conference Course,0,,Not Relevant,,nan,,nan,,,,,,,0,0,Not Relevant,,Vena,,,,5,nan,nan,,,,,0,0,0
46,Paraneoplastic Glomerular Disease,Kidney Syndromes in Cancer: A Case-Based Discussion,28-03-2020 14:00,General Session,0,,Not Relevant,,nan,,nan,,,,,,,0,0,Not Relevant,"Cancer, Hyponatremia, Thrombotic Microangiopathy, Cancer, Thrombotic Microangiopathy, Cancer",,,,,5,nan,nan,,,,,0,0,0
182,Break,Point of Care Ultrasound for the Nephrologist,25-03-2020 13:00,Pre-Conference Course,0,,Not Relevant,,nan,,nan,,,,,,,0,0,Not Relevant,,Vena,,,,5,nan,nan,,,,,0,0,0
69,Treatment of Hypertension in Diabetes,Hypertension in Special Populations,28-03-2020 16:00,General Session,0,,Not Relevant,,nan,,nan,,,,,,,0,0,Not Relevant,"Hypertension, Hypertension, Diabetes",,,,,5,nan,nan,,,,,0,0,0
158,Trouble Shooting Electrolyte Cases,Deciphering Electrolytes and Acid Base,27-03-2020 16:00,General Session,0,,Not Relevant,,nan,,nan,,Low,1.0,0.0,0.0,0.0,0,0,Not Relevant,"Diabetes Insipidus, Hyponatremia, Hyperkalemia, Hypokalemia",,,Hormone,,5,nan,nan,,,,,0,0,0
177,Wrap-up and Evaluation,Point of Care Ultrasound for the Nephrologist,25-03-2020 11:00,General Session,0,,Not Relevant,,nan,,nan,,,,,,,0,0,Not Relevant,,Vena,,,,5,nan,nan,,,,,0,0,0
54,Cystatin C as an Adjunct of Alternative to Creatinine for Drug Dosing,Novel Methods to Dose Renally-Eliminated Medications: A Case-Based Approach,27-03-2020 10:15,General Session,0,,Not Relevant,,nan,,nan,,Not Relevant,0.0,0.0,1.0,0.0,0,0,Not Relevant,,,"Mayo Clinic, Mayo Clinic",,,5,nan,nan,,,Mayo Clinic,,1,0,0
175,Introduction to Inferior Venacava Imaging,Point of Care Ultrasound for the Nephrologist,25-03-2020 11:00,General Session,0,,Not Relevant,,nan,,nan,,,,,,,0,0,Not Relevant,,Vena,,,,5,nan,nan,,,,,0,0,0
51,Patient-Oriented Research,"Highlights from AJKD in AKI, Transplantation, and Patient-Oriented Research",28-03-2020 16:00,General Session,0,,Not Relevant,,nan,,nan,,,,,,,0,0,Not Relevant,,,,,,5,nan,nan,,,,,0,0,0
174,Introduction to Lung Ultrasound,Point of Care Ultrasound for the Nephrologist,25-03-2020 11:00,General Session,0,,Not Relevant,,nan,,nan,,,,,,,0,0,Not Relevant,,Vena,,,,5,nan,nan,,,,,0,0,0
173,Break,Point of Care Ultrasound for the Nephrologist,25-03-2020 11:00,General Session,0,,Not Relevant,,nan,,nan,,,,,,,0,0,Not Relevant,,Vena,,,,5,nan,nan,,,,,0,0,0
172,Group A- Hands On Kidney and Bladder Ultrasound  /  Group B- Image Interpretation of Kidney and Bladder,Point of Care Ultrasound for the Nephrologist,25-03-2020 11:00,General Session,0,,Not Relevant,,nan,,nan,,,,,,,0,0,Not Relevant,,Vena,,,,5,nan,nan,,,,,0,0,0
171,Introduction to Imaging the Kidney and Bladder,Point of Care Ultrasound for the Nephrologist,25-03-2020 11:00,General Session,0,,Not Relevant,,nan,,nan,,,,,,,0,0,Not Relevant,,Vena,,,,5,nan,nan,,,,,0,0,0
170,Basics of Ultrasound Technique,Point of Care Ultrasound for the Nephrologist,25-03-2020 11:00,General Session,0,,Not Relevant,,nan,,nan,,,,,,,0,0,Not Relevant,,Vena,,,,5,nan,nan,,,,,0,0,0
169,Breakfast and Introductions,Point of Care Ultrasound for the Nephrologist,25-03-2020 11:00,General Session,0,,Not Relevant,,nan,,nan,,,,,,,0,0,Not Relevant,,Vena,,,,5,nan,nan,,,,,0,0,0
139,Hemo/Peritoneal Dialysis Treatment Options,Nuts and Bolts of Dialysis Rounds,26-03-2020 08:00,General Session,0,,Not Relevant,,nan,,nan,,,,,,,0,0,Not Relevant,,,,,,5,nan,nan,,,,,0,0,0
47,Dynsatremias in Cancer,Kidney Syndromes in Cancer: A Case-Based Discussion,28-03-2020 14:00,General Session,0,,Not Relevant,,nan,,nan,,,,,,,0,0,Not Relevant,"Cancer, Hyponatremia, Thrombotic Microangiopathy, Cancer, Thrombotic Microangiopathy, Cancer, Cancer",,,,,5,nan,nan,,,,,0,0,0
48,Thrombotic Microangiopathy in Cancer,Kidney Syndromes in Cancer: A Case-Based Discussion,28-03-2020 14:00,General Session,0,,Not Relevant,,nan,,nan,,,,,,,0,0,Not Relevant,"Cancer, Hyponatremia, Thrombotic Microangiopathy, Cancer, Thrombotic Microangiopathy, Cancer, Thrombotic Microangiopathy, Cancer",,,,,5,nan,nan,,,,,0,0,0
50,Transplantation,"Highlights from AJKD in AKI, Transplantation, and Patient-Oriented Research",28-03-2020 16:00,General Session,0,,Not Relevant,,nan,,nan,,,,,,,0,0,Not Relevant,,,,,,5,nan,nan,,,,,0,0,0
52,Kinetic eGFR to Assess Rapidly Changing Kidney Function,Novel Methods to Dose Renally-Eliminated Medications: A Case-Based Approach,27-03-2020 10:15,General Session,0,,Not Relevant,,nan,,nan,,,,,,,0,0,Not Relevant,,,,,,5,nan,nan,,,,,0,0,0
176,Group A- Hands on Lung and IVC Imaging  /  Group B- Image Interpretation,Point of Care Ultrasound for the Nephrologist,25-03-2020 11:00,General Session,0,,Not Relevant,,nan,,nan,,,,,,,0,0,Not Relevant,,Vena,,,,5,nan,nan,,,,,0,0,0
53,Is Real-Time GFR Measurement Ready for Primetime?,Novel Methods to Dose Renally-Eliminated Medications: A Case-Based Approach,27-03-2020 10:15,General Session,0,,Not Relevant,,nan,,nan,,,,,,,0,0,Not Relevant,,,,,,5,nan,nan,,,,,0,0,0
140,Advanced Practitioner Focused Dialysis Rounds,Nuts and Bolts of Dialysis Rounds,26-03-2020 08:00,General Session,0,,Not Relevant,,nan,,nan,,,,,,,0,0,Not Relevant,,,,,,5,nan,nan,,,,,0,0,0
141,Unusual ER Presentations in Transplant Patients,"I Got A New Kidney, Now What?",26-03-2020 10:00,General Session,0,,Not Relevant,,nan,,nan,,,,,,,0,0,Not Relevant,Infection,,,,,5,nan,nan,,,,,0,0,0
142,Medication Management in the Transplant Patient,"I Got A New Kidney, Now What?",26-03-2020 10:00,General Session,0,,Not Relevant,,nan,,nan,,,,,,,0,0,Not Relevant,Infection,,,,,5,nan,nan,,,,,0,0,0
152,Emergency Condition Management,Hemodialysis Complications and Emergencies,27-03-2020 10:15,General Session,0,,Not Relevant,,nan,,nan,,,,,,,0,0,Not Relevant,Hypotension,,,,,5,nan,nan,,,,,0,0,0
151,Complications of Hemodialysis,Hemodialysis Complications and Emergencies,27-03-2020 10:15,General Session,0,,Not Relevant,,nan,,nan,,,,,,,0,0,Not Relevant,Hypotension,,,,,5,nan,nan,,,,,0,0,0
148,CHF Management and Updates,An Ounce of Prevention: Managing Co-Morbidities,27-03-2020 08:15,General Session,0,,Not Relevant,,nan,,nan,,,,,,,0,0,Not Relevant,"Congestive Heart Failure, Infection, Cardiology, Congestive Heart Failure, Infection, Congestive Heart Failure",,,Vaccine,,5,nan,nan,,,,Vaccine,0,1,0
147,"Prevention of Infections: EVS (Environment, Vaccine, Stewardship)",An Ounce of Prevention: Managing Co-Morbidities,27-03-2020 08:15,General Session,0,,Not Relevant,,nan,,nan,,,,,,,0,0,Not Relevant,"Congestive Heart Failure, Infection, Cardiology, Congestive Heart Failure, Infection, Infection",,Baylor College of Medicine,"Vaccine, Vaccine",,5,nan,nan,,,,Vaccine,0,1,0
99,Introduction to CCRC,Providing Comprehensive Renal Care (CCRC),27-03-2020 10:15,General Session,0,,Not Relevant,,nan,,nan,,,,,,,0,0,Not Relevant,,,,,,5,nan,nan,,,,,0,0,0
146,Battling Malnutrition in the Kidney Patient,Alternative Nutrition and Malnutrition in the Renal Patient,27-03-2020 08:15,General Session,0,,Not Relevant,,nan,,nan,,,,,,,0,0,Not Relevant,,,,,,5,nan,nan,,,,,0,0,0
234,Insights of the Pathogenesis of FSGS,Pathogenesis and Management of FSGS: Current Insights,27-03-2020 12:00,General Session,0,,Not Relevant,,nan,,nan,,,,,,,0,0,Not Relevant,,,Retrophin,,,5,nan,nan,,,,,0,0,0
178,Lunch and Introductions,Point of Care Ultrasound for the Nephrologist,25-03-2020 13:00,Pre-Conference Course,0,,Not Relevant,,nan,,nan,,,,,,,0,0,Not Relevant,,Vena,,,,5,nan,nan,,,,,0,0,0
