Internal ID,value
39,Immune Checkpoint Inhibitor
37,Immune Checkpoint Inhibitor
38,Immune Checkpoint Inhibitor
166,Anticoagulant
165,Anticoagulant
144,Diuretic
248,SGLT2 inhibitors
247,SGLT2 inhibitors
246,SGLT2 inhibitors
245,SGLT2 inhibitors
244,SGLT2 inhibitors
147,Vaccine
147,Vaccine
148,Vaccine
13,ACEi
10,ACEi
11,ACEi
12,ACEi
