Internal ID,name,label
1,Breast Cancer,Disease
1,Immunotherapy,MOA
1,Breast Cancer,Disease
1,Immunotherapy,MOA
976,Xentuzumab,Drug
976,Solid Tumor,Disease
976,Abemaciclib,Drug
976,Breast Cancer,Disease
976,Eli Lilly and Company,Agency
976,Breast Cancer,Disease
974,Breast Cancer,Disease
974,Niraparib,Drug
974,GlaxoSmithKline,Agency
974,,Trial
974,,Trial
973,Patritumab,Drug
973,Paclitaxel,Drug
973,Trastuzumab,Drug
973,Breast Cancer,Disease
973,,Trial
972,Breast Cancer,Disease
972,Phosphoinositide 3-Kinase Inhibitor,MOA
971,Breast Cancer,Disease
971,Combretastatin,Drug
970,Breast Cancer,Disease
969,Triple Negative Breast cancer,Disease
968,Cirmtuzumab,Drug
968,Paclitaxel,Drug
968,Breast Cancer,Disease
967,Allergy,Disease
967,Triple Negative Breast cancer,Disease
967,CDK4/6 Inhibitor,MOA
966,Eribulin,Drug
966,Inflammatory Breast Cancer,Disease
965,Triple Negative Breast cancer,Disease
963,Breast Cancer,Disease
963,Hormone,MOA
962,Triple Negative Breast cancer,Disease
961,Breast Cancer,Disease
961,Entrectinib,Drug
961,Research Center,Agency
961,,Trial
961,,Trial
961,,Trial
960,Triple Negative Breast cancer,Disease
960,PMD-026,Drug
960,Phoenix Molecular Designs,Agency
959,Breast Cancer,Disease
959,Estradiol,Drug
958,Breast Cancer,Disease
958,Cisplatin,Drug
958,Adavosertib,Drug
958,WEE1 Inhibitor,MOA
957,Antineoplastic Agent,MOA
957,Breast Cancer,Disease
957,Docetaxel,Drug
956,Breast Cancer,Disease
956,,Trial
955,Antineoplastic Agent,MOA
955,Breast Cancer,Disease
955,Olaparib,Drug
955,,Trial
955,,Trial
954,Breast Cancer,Disease
953,Triple Negative Breast cancer,Disease
953,Tamoxifen,Drug
975,Pembrolizumab,Drug
975,Breast Cancer,Disease
975,Palbociclib,Drug
975,Letrozole,Drug
1008,Across,Agency
1008,Breast Cancer,Disease
1008,CARLSBAD,Agency
979,Triple Negative Breast cancer,Disease
979,Histone Deacetylase Inhibitor,MOA
979,,Trial
1006,Breast Cancer,Disease
1006,Overall Survival,TrialEndPoint
1006,Immune Cell,Agency
1005,Breast Cancer,Disease
1005,Tumors,Disease
1004,Breast Cancer,Disease
1003,Trastuzumab,Drug
1003,Breast Cancer,Disease
1003,Epidermal Growth Factor,Drug
1002,Breast Cancer,Disease
1002,CDK4/6 Inhibitor,MOA
1002,PD-1 Inhibitor,MOA
1002,spartalizumab,Drug
1002,Ovarian Cancer,Disease
1002,Hormone,MOA
1002,,Trial
1002,,Trial
1002,,Trial
1002,,Trial
1001,Breast Cancer,Disease
1001,Cross,Agency
1000,Ado-Trastuzumab Emtansine,Drug
1000,Trastuzumab,Drug
1000,Breast Cancer,Disease
1000,Ado-Trastuzumab Emtansine,Drug
1000,Myotonic Dystrophy Type 1,Disease
999,Breast Cancer,Disease
999,SM-08502,Drug
999,Antineoplastic Agent,MOA
999,Antineoplastic Agent,MOA
999,Samumed,Agency
998,Breast Cancer,Disease
998,AL-3818,Drug
998,Alveolar Rhabdomyosarcoma,Disease
997,Breast Cancer,Disease
997,Endocrine Therapy,MOA
997,Paclitaxel,Drug
997,Bevacizumab,Drug
997,Capecitabine,Drug
997,Hormone,MOA
996,Breast Cancer,Disease
996,Chlorogenic Acid,Drug
996,Cancer,Disease
995,Breast Cancer,Disease
995,Health Solutions,Agency
993,Breast Cancer,Disease
993,GDC-0077,Drug
993,Hormone,MOA
993,"Genentech, Inc.",Agency
993,"Genentech, Inc.",Agency
993,,Trial
992,Antineoplastic Agent,MOA
992,Breast Cancer,Disease
991,Breast Cancer,Disease
990,Breast Cancer,Disease
987,Triple Negative Breast cancer,Disease
987,Miles,Agency
987,,Trial
987,,Trial
986,Breast Cancer,Disease
986,Aromatase Inhibitor,MOA
985,ONC-201,Drug
985,Triple Negative Breast cancer,Disease
985,MEK Inhibitor,MOA
981,Breast Cancer,Disease
981,Abemaciclib,Drug
981,Antineoplastic Agent,MOA
981,Health-Related Quality of Life,TrialEndPoint
981,Fulvestrant,Drug
981,Trastuzumab,Drug
981,Eli Lilly and Company,Agency
981,,Trial
981,,Trial
980,Saracatinib,Drug
980,Breast Cancer,Disease
980,Saracatinib,Drug
952,Breast Cancer,Disease
952,University of Texas MD Anderson Cancer Center,Agency
950,Atezolizumab,Drug
950,Triple Negative Breast cancer,Disease
950,Talimogene Laherparepvec,Drug
949,Antineoplastic Agent,MOA
949,Breast Cancer,Disease
947,Breast Cancer,Disease
947,Pembrolizumab,Drug
947,Eribulin,Drug
947,Hormone,MOA
947,,Trial
947,,Trial
920,Antineoplastic Agent,MOA
920,Breast Cancer,Disease
920,Breast Cancer,Disease
919,Breast Cancer,Disease
919,Fulvestrant,Drug
919,Cross,Agency
918,Breast Cancer,Disease
916,Trastuzumab,Drug
916,Breast Cancer,Disease
916,Tumors,Disease
915,Breast Cancer,Disease
915,,Trial
915,,Trial
914,Breast Cancer,Disease
914,Endocrine Therapy,MOA
914,Hormone,MOA
913,Paclitaxel,Drug
913,Breast Cancer,Disease
913,Bevacizumab,Drug
912,Breast Cancer,Disease
910,Breast Cancer,Disease
910,Hormone,MOA
909,Triple Negative Breast cancer,Disease
909,Cancer,Disease
907,Breast Cancer,Disease
907,Lymphopenia,Disease
906,Disease-Free Survival,TrialEndPoint
906,Breast Cancer,Disease
905,Breast Cancer,Disease
905,Central Nervous System,Disease
905,Research Center,Agency
904,Breast Cancer,Disease
904,Eli Lilly and Company,Agency
903,Obesity,Disease
903,Antineoplastic Agent,MOA
903,Pathological Complete Response,TrialEndPoint
903,Breast Cancer,Disease
901,Breast Cancer,Disease
901,Tumors,Disease
900,Breast Cancer,Disease
900,Cross,Agency
898,Breast Cancer,Disease
898,Hormone,MOA
898,Research Center,Agency
897,Breast Cancer,Disease
896,Breast Cancer,Disease
921,Breast Cancer,Disease
922,Triple Negative Breast cancer,Disease
922,Tumors,Disease
923,Breast Cancer,Disease
923,Tumors,Disease
938,Breast Cancer,Disease
938,Radiation Therapy,MOA
938,Nivolumab,Drug
938,Cross,Agency
938,Research Center,Agency
946,PVX-410,Drug
946,Vaccine,MOA
946,Immune Response,Agency
946,Durvalumab,Drug
946,Triple Negative Breast cancer,Disease
945,Breast Cancer,Disease
944,Breast Cancer,Disease
944,Bintrafusp Alfa,Drug
944,Bifunctional fusion protein,MOA
944,Growth Factor,MOA
944,MSB0011359C,Drug
944,Tumors,Disease
944,EMD Serono,Agency
944,SERONO,Agency
943,Pembrolizumab,Drug
943,PD-1 Inhibitor,MOA
943,Triple Negative Breast cancer,Disease
943,Inflammatory Breast Cancer,Disease
943,Inflammatory Breast Cancer,Disease
943,,Trial
941,Breast Cancer,Disease
941,Cabozantinib,Drug
941,Nivolumab,Drug
940,Pembrolizumab,Drug
940,Breast Cancer,Disease
940,Pembrolizumab,Drug
940,Radiation Therapy,MOA
939,Breast Cancer,Disease
939,Immune Checkpoint Inhibitor,MOA
939,Tumors,Disease
939,Immunotherapy,MOA
937,Breast Cancer,Disease
937,Bifunctional fusion protein,MOA
937,Bintrafusp Alfa,Drug
937,Growth Factor,MOA
937,MSB0011359C,Drug
937,EMD Serono,Agency
924,Breast Cancer,Disease
924,Central Nervous System,Disease
936,Durvalumab,Drug
936,Paclitaxel,Drug
936,Doxorubicin,Drug
936,Cyclophosphamide,Drug
936,Triple Negative Breast cancer,Disease
935,Pembrolizumab,Drug
935,Breast Cancer,Disease
934,Breast Cancer,Disease
934,Pembrolizumab,Drug
934,Anthracycline,MOA
934,Eribulin,Drug
934,Nico,Agency
933,Breast Cancer,Disease
933,,Trial
932,Breast Cancer,Disease
931,Breast Cancer,Disease
927,Breast Cancer,Disease
927,Targeted Therapy,MOA
927,Complete Response,TrialEndPoint
926,Antineoplastic Agent,MOA
926,Breast Cancer,Disease
925,Breast Cancer,Disease
925,Overall Survival,TrialEndPoint
925,Disease-Free Survival,TrialEndPoint
925,Cancer,Disease
925,Tumors,Disease
1007,Triple Negative Breast cancer,Disease
1007,Tumors,Disease
1007,,Trial
1007,,Trial
1009,Breast Cancer,Disease
1009,Cancer,Disease
1009,Li-Fraumeni Syndrome,Disease
653,Breast Cancer,Disease
653,,Trial
653,,Trial
653,,Trial
1107,Breast Cancer,Disease
1107,Prostate Cancer,Disease
1107,Interleukin-1,Drug
1107,Breast Carcinoma,Disease
1105,Breast Cancer,Disease
1104,Breast Cancer,Disease
1103,Breast Cancer,Disease
1103,Tumors,Disease
1101,Breast Cancer,Disease
1100,Breast Cancer,Disease
1100,,Trial
1100,,Trial
1099,Breast Cancer,Disease
1099,Targeted Therapy,MOA
1099,Tumors,Disease
1099,,Trial
1098,Breast Cancer,Disease
1097,Triple Negative Breast cancer,Disease
1096,Breast Cancer,Disease
1096,Baylor College of Medicine,Agency
1096,,Trial
1095,Immune Response,Agency
1095,Breast Cancer,Disease
1094,Breast Cancer,Disease
1094,Tumors,Disease
1094,Baylor College of Medicine,Agency
1093,Breast Carcinoma,Disease
1093,,Trial
1090,Breast Cancer,Disease
1090,Progesterone,MOA
1090,Tumors,Disease
1087,Breast Cancer,Disease
1087,University of Texas MD Anderson Cancer Center,Agency
1086,Breast Cancer,Disease
1086,Aromatase Inhibitor,MOA
1085,Breast Cancer,Disease
1084,Breast Cancer,Disease
1084,,Trial
1083,Breast Cancer,Disease
1082,Breast Cancer,Disease
1080,Breast Cancer,Disease
1079,Breast Cancer,Disease
1079,Phenobarbital,Drug
1106,Phenobarbital,Drug
1106,Breast Cancer,Disease
1010,Antineoplastic Agent,MOA
1010,Breast Cancer,Disease
1108,Breast Carcinoma,Disease
1108,Tumors,Disease
1130,Breast Cancer,Disease
1130,Alpelisib,Drug
1130,Epidermal Growth Factor,Drug
1130,Hormone,MOA
1130,Bio-Medical Research,Agency
1130,Novartis,Agency
1130,Novartis Pharmaceuticals,Agency
1130,,Trial
1129,Breast Cancer,Disease
1129,Research Center,Agency
1127,Breast Cancer,Disease
1127,Antioxidant,MOA
1126,Breast Cancer,Disease
1126,Research Center,Agency
1125,Breast Cancer,Disease
1125,Tumors,Disease
1124,Breast Cancer,Disease
1124,Breast Cancer,Disease
1124,University of Texas MD Anderson Cancer Center,Agency
1122,Breast Cancer,Disease
1121,Triple Negative Breast cancer,Disease
1121,Tumors,Disease
1121,Genesis,Agency
1120,Breast Cancer,Disease
1120,Bioscience,Agency
1119,Breast Cancer,Disease
1119,,Trial
1119,,Trial
1119,,Trial
1119,,Trial
1118,Breast Cancer,Disease
1117,Breast Cancer,Disease
1117,,Trial
1116,Breast Cancer,Disease
1116,Mayo Clinic,Agency
1115,Breast Cancer,Disease
1115,Tumors,Disease
1114,Breast Cancer,Disease
1113,Breast Cancer,Disease
1113,Tumors,Disease
1112,Triple Negative Breast cancer,Disease
1112,Tumors,Disease
1111,Breast Cancer,Disease
1111,Prolactin,Drug
1110,Triple Negative Breast cancer,Disease
1110,PLK1 Inhibitor,MOA
1110,Antineoplastic Agent,MOA
1110,Tumors,Disease
1109,Breast Cancer,Disease
1109,,Trial
1078,Breast Cancer,Disease
1078,Glucocorticoid,MOA
1077,Breast Cancer,Disease
1075,Breast Cancer,Disease
1073,Breast Cancer,Disease
1073,Mucinous,Disease
1035,Breast Cancer,Disease
1035,Cepheid,Agency
1034,Breast Cancer,Disease
1034,Indocyanine,Drug
1033,Breast Cancer,Disease
1032,Breast Cancer,Disease
1032,Cancer,Disease
1029,Breast Cancer,Disease
1029,Tumors,Disease
1028,Breast Cancer,Disease
1028,Tumors,Disease
1028,,Trial
1027,Breast Cancer,Disease
1027,Epithelial Tumor,Disease
1026,Across,Agency
1026,Breast Cancer,Disease
1026,Tumors,Disease
1025,Antineoplastic Agent,MOA
1025,Breast Cancer,Disease
1025,Tumors,Disease
1024,Breast Cancer,Disease
1024,Tumors,Disease
1023,Breast Cancer,Disease
1023,Tumors,Disease
1022,Breast Cancer,Disease
1022,Tumors,Disease
1022,Epic Sciences,Agency
1021,Breast Cancer,Disease
1021,,Trial
1021,,Trial
1020,Breast Cancer,Disease
1020,,Trial
1020,,Trial
1019,Breast Cancer,Disease
1019,RAD-1901,Drug
1019,RAD-1901,Drug
1019,Tumors,Disease
1019,Hormone,MOA
1018,Breast Cancer,Disease
1018,Tumors,Disease
1016,Triple Negative Breast cancer,Disease
1016,Tumors,Disease
1016,Epic Sciences,Agency
1015,Inflammatory Breast Cancer,Disease
1015,Tumors,Disease
1015,University of Texas MD Anderson Cancer Center,Agency
1014,Breast Cancer,Disease
1014,Tumors,Disease
1013,Obesity,Disease
1013,Breast Cancer,Disease
1013,,Trial
1013,,Trial
1013,,Trial
1012,Solid Tumor,Disease
1012,Breast Cancer,Disease
1036,Antineoplastic Agent,MOA
1036,Breast Cancer,Disease
1037,Antineoplastic Agent,MOA
1037,Breast Cancer,Disease
1038,Breast Cancer,Disease
1061,Breast Cancer,Disease
1072,Breast Cancer,Disease
1072,Nike,Agency
1071,Across,Agency
1071,Breast Cancer,Disease
1071,Tumors,Disease
1071,Breast Cancer,Disease
1070,Breast Cancer,Disease
1067,Breast Cancer,Disease
1067,Foundation Medicine,Agency
1067,,Trial
1066,Breast Cancer,Disease
1065,Triple Negative Breast cancer,Disease
1064,Breast Cancer,Disease
1062,Allergy,Disease
1062,CDK4/6 Inhibitor,MOA
1062,Breast Cancer,Disease
1059,Breast Cancer,Disease
1059,Hormone,MOA
1039,Antineoplastic Agent,MOA
1039,Breast Cancer,Disease
1058,Breast Cancer,Disease
1058,HER-2 inhibitor,MOA
1058,Sun Yat-Sen University,Agency
1058,,Trial
1056,Breast Cancer,Disease
1056,Hormone,MOA
1055,Breast Cancer,Disease
1055,Cancer,Disease
1055,Bio-Medical Research,Agency
1051,Breast Cancer,Disease
1050,Breast Cancer,Disease
1047,Breast Cancer,Disease
1044,Breast Cancer,Disease
1042,Breast Cancer,Disease
1040,Breast Cancer,Disease
895,Breast Carcinoma,Disease
894,Endocrine Therapy,MOA
894,Breast Cancer,Disease
894,Tumors,Disease
894,Progression-Free Survival,TrialEndPoint
893,Breast Cancer,Disease
893,,Trial
893,,Trial
742,Locoregional,Drug
742,Breast Cancer,Disease
742,Overall Survival,TrialEndPoint
742,NOVO,Agency
742,,Trial
740,Antineoplastic Agent,MOA
740,Breast Cancer,Disease
740,,Trial
739,Antineoplastic Agent,MOA
739,Breast Cancer,Disease
739,,Trial
738,Antineoplastic Agent,MOA
738,Breast Cancer,Disease
738,,Trial
738,,Trial
736,Trastuzumab,Drug
736,NSC-125973,Drug
736,Breast Cancer,Disease
736,Cross,Agency
736,,Trial
734,Breast Carcinoma,Disease
734,,Trial
732,Antineoplastic Agent,MOA
732,Triple Negative Breast cancer,Disease
732,,Trial
731,Antineoplastic Agent,MOA
731,Breast Cancer,Disease
731,Pathological Complete Response,TrialEndPoint
731,Breast Cancer,Disease
731,,Trial
729,Antineoplastic Agent,MOA
729,Breast Cancer,Disease
729,Breast Cancer,Disease
729,Complete Response,TrialEndPoint
729,,Trial
728,Antineoplastic Agent,MOA
728,Breast Cancer,Disease
728,Tumors,Disease
728,Complete Response,TrialEndPoint
728,Inflammatory Breast Cancer,Disease
728,,Trial
727,Breast Cancer,Disease
727,Paclitaxel,Drug
727,Carboplatin,Drug
727,Antineoplastic Agent,MOA
727,,Trial
726,Antineoplastic Agent,MOA
726,Breast Cancer,Disease
726,,Trial
724,Antineoplastic Agent,MOA
724,Triple Negative Breast cancer,Disease
724,,Trial
723,Breast Cancer,Disease
723,Paclitaxel,Drug
723,Carboplatin,Drug
723,Trastuzumab,Drug
723,Pertuzumab,Drug
723,Oncology,Disease
723,Breast Cancer,Disease
723,,Trial
722,Insulin resistance,TrialEndPoint
722,Breast Cancer,Disease
722,Complete Response,TrialEndPoint
722,,Trial
721,Breast Cancer,Disease
721,,Trial
719,Breast Cancer,Disease
719,Docetaxel,Drug
719,Doxorubicin,Drug
719,Cyclophosphamide,Drug
719,Oncology,Disease
719,Bio-Medical Research,Agency
719,,Trial
718,Breast Cancer,Disease
718,Antineoplastic Agent,MOA
718,18F-FDG,Drug
718,Trastuzumab,Drug
718,Complete Response,TrialEndPoint
718,,Trial
741,Breast Cancer,Disease
741,Tumors,Disease
741,Hormone,MOA
741,,Trial
743,Neutropenia,Disease
743,Breast Cancer,Disease
743,Endocrine Therapy,MOA
743,CDK4/6 Inhibitor,MOA
743,,Trial
892,Breast Cancer,Disease
744,Breast Cancer,Disease
744,,Trial
771,Breast Cancer,Disease
771,CCL21,Drug
769,Breast Cancer,Disease
769,,Trial
769,,Trial
768,,Trial
768,Breast Cancer,Disease
768,Tumors,Disease
768,,Trial
767,Breast Cancer,Disease
766,Breast Cancer,Disease
766,,Trial
763,Breast Cancer,Disease
763,,Trial
762,Breast Cancer,Disease
762,Nerlynx,Drug
762,,Trial
761,Breast Cancer,Disease
761,Etoposide,Drug
761,Bevacizumab,Drug
761,Neoplastic Meningitis,Disease
761,Cisplatin,Drug
761,,Trial
757,Breast Cancer,Disease
757,Neratinib,Drug
757,Central Nervous System,Disease
757,,Trial
757,,Trial
757,,Trial
756,Breast Cancer,Disease
756,,Trial
755,Breast Cancer,Disease
755,,Trial
754,Breast Cancer,Disease
754,,Trial
753,Oncology,Disease
753,Antineoplastic Agent,MOA
753,Breast Cancer,Disease
753,,Trial
752,Breast Cancer,Disease
752,VALE,Agency
752,,Trial
751,Cancer,Disease
751,Breast Cancer,Disease
751,,Trial
750,Antineoplastic Agent,MOA
750,Breast Cancer,Disease
750,,Trial
749,Breast Cancer,Disease
749,Endocrine Therapy,MOA
749,Hormone,MOA
749,,Trial
748,Breast Cancer,Disease
748,,Trial
747,Bisphosphonates,Drug
747,,Trial
747,Breast Cancer,Disease
747,,Trial
746,Breast Cancer,Disease
746,Endocrine Therapy,MOA
746,Hormone,MOA
746,McMaster University,Agency
746,,Trial
745,GT-0918,Drug
745,Proxalutamide,Drug
745,Breast Cancer,Disease
745,,Trial
717,Antineoplastic Agent,MOA
717,NSC-125973,Drug
717,Breast Cancer,Disease
717,PTX,Drug
717,,Trial
716,Antineoplastic Agent,MOA
716,Breast Cancer,Disease
716,,Trial
715,Antineoplastic Agent,MOA
715,Progesterone,MOA
715,Breast Cancer,Disease
715,,Trial
714,Breast Cancer,Disease
714,Paclitaxel,Drug
714,Doxorubicin,Drug
714,Cyclophosphamide,Drug
714,Disease-Free Survival,TrialEndPoint
714,Trastuzumab,Drug
714,Pertuzumab,Drug
714,,Trial
685,Breast Cancer,Disease
685,Phenobarbital,Drug
685,,Trial
683,Antineoplastic Agent,MOA
683,Phenobarbital,Drug
683,Breast Cancer,Disease
683,,Trial
679,Antineoplastic Agent,MOA
679,Eflapegrastim,Drug
679,Breast Cancer,Disease
679,Granulocyte-Colony Stimulating Factor,Drug
679,,Trial
675,Breast Cancer,Disease
675,,Trial
674,Antineoplastic Agent,MOA
674,Overall Survival,TrialEndPoint
674,Breast Cancer,Disease
674,,Trial
673,Antineoplastic Agent,MOA
673,Breast Cancer,Disease
673,,Trial
672,Breast Cancer,Disease
672,,Trial
671,Antineoplastic Agent,MOA
671,Breast Cancer,Disease
671,,Trial
670,Antineoplastic Agent,MOA
670,Triple Negative Breast cancer,Disease
670,,Trial
668,Breast Cancer,Disease
668,,Trial
667,Breast Cancer,Disease
667,,Trial
666,Breast Cancer,Disease
666,,Trial
666,,Trial
665,Breast Cancer,Disease
665,,Trial
664,Breast Cancer,Disease
664,Fertility,Agency
664,,Trial
663,Breast Cancer,Disease
663,,Trial
661,Breast Cancer,Disease
661,,Trial
660,Breast Cancer,Disease
660,,Trial
659,Breast Cancer,Disease
659,,Trial
658,Breast Cancer,Disease
658,Cancer,Disease
658,,Trial
656,Breast Cancer,Disease
656,Cancer,Disease
656,,Trial
655,Breast Cancer,Disease
655,Endocrine Therapy,MOA
655,,Trial
687,Breast Cancer,Disease
687,,Trial
687,,Trial
688,Antineoplastic Agent,MOA
688,Breast Cancer,Disease
688,,Trial
690,Antineoplastic Agent,MOA
690,Breast Cancer,Disease
690,,Trial
702,Breast Cancer,Disease
702,Bevacizumab,Drug
702,Eribulin,Drug
702,Cross,Agency
702,Kurobe,Agency
702,,Trial
713,Anthracycline,MOA
713,Triple Negative Breast cancer,Disease
713,Cancer,Disease
713,Antineoplastic Agent,MOA
713,,Trial
712,Breast Cancer,Disease
712,,Trial
712,,Trial
711,Paclitaxel,Drug
711,Breast Cancer,Disease
711,Eribulin,Drug
711,,Trial
711,,Trial
710,Antineoplastic Agent,MOA
710,Breast Cancer,Disease
710,Complete Response,TrialEndPoint
710,,Trial
709,Antineoplastic Agent,MOA
709,Breast Cancer,Disease
709,,Trial
707,Carboplatin,Drug
707,Triple Negative Breast cancer,Disease
707,Tumors,Disease
707,Docetaxel,Drug
707,,Trial
705,Gemcitabine,Drug
705,Nedaplatin,Drug
705,Breast Cancer,Disease
705,,Trial
704,Antineoplastic Agent,MOA
704,Breast Cancer,Disease
704,,Trial
704,,Trial
704,,Trial
704,,Trial
703,Antineoplastic Agent,MOA
703,Breast Cancer,Disease
703,Eisai,Agency
703,,Trial
701,Breast Cancer,Disease
701,Doxorubicin,Drug
701,Paclitaxel,Drug
701,,Trial
691,Breast Cancer,Disease
691,Endocrine Therapy,MOA
691,Paclitaxel,Drug
691,Bevacizumab,Drug
691,,Trial
700,Capecitabine,Drug
700,Utidelone,Drug
700,Breast Cancer,Disease
700,,Trial
700,,Trial
699,Breast Cancer,Disease
699,Corticosteroid,MOA
699,Hoffmann-La Roche,Agency
699,,Trial
698,Breast Cancer,Disease
698,Eribulin,Drug
698,,Trial
697,Breast Cancer,Disease
697,Paclitaxel,Drug
697,Quality of Life,TrialEndPoint
697,,Trial
696,Breast Cancer,Disease
696,,Trial
696,,Trial
695,Breast Cancer,Disease
695,,Trial
694,Breast Cancer,Disease
694,Paclitaxel,Drug
694,Cross,Agency
694,,Trial
693,Annamycin,Drug
693,Breast Cancer,Disease
693,University of Texas MD Anderson Cancer Center,Agency
693,,Trial
692,Breast Cancer,Disease
692,,Trial
692,,Trial
772,Breast Cancer,Disease
773,Triple Negative Breast cancer,Disease
775,Breast Cancer,Disease
775,Triple Negative Breast cancer,Disease
775,Mortality,TrialEndPoint
839,Triple Negative Breast cancer,Disease
839,Tumors,Disease
839,,Trial
862,Breast Cancer,Disease
860,Breast Cancer,Disease
859,Breast Cancer,Disease
858,Breast Cancer,Disease
857,Breast Cancer,Disease
856,Breast Cancer,Disease
855,Breast Cancer,Disease
854,Antineoplastic Agent,MOA
854,Breast Cancer,Disease
854,Pathological Complete Response,TrialEndPoint
852,Antineoplastic Agent,MOA
852,Breast Cancer,Disease
852,Breast Cancer,Disease
851,Breast Cancer,Disease
851,Mortality,TrialEndPoint
851,Breast Cancer,Disease
850,Biguanide,MOA
850,Breast Cancer,Disease
849,Breast Cancer,Disease
848,Triple Negative Breast cancer,Disease
848,,Trial
846,Src Inhibitor,MOA
846,Triple Negative Breast cancer,Disease
845,Breast Cancer,Disease
844,Triple Negative Breast cancer,Disease
844,Vorinostat,Drug
844,Targeted Therapy,MOA
844,Temozolomide,Drug
843,Breast Cancer,Disease
842,CDK4/6 Inhibitor,MOA
842,Endocrine Therapy,MOA
842,Breast Cancer,Disease
841,Breast Cancer,Disease
841,Tumors,Disease
863,Triple Negative Breast cancer,Disease
864,Antineoplastic Agent,MOA
864,Breast Cancer,Disease
877,Breast Cancer,Disease
877,Tumors,Disease
889,Breast Cancer,Disease
888,Breast Cancer,Disease
888,CDK4/6 Inhibitor,MOA
887,Breast Cancer,Disease
887,,Trial
885,Breast Cancer,Disease
885,Cerebrotendinous Xanthomatosis,Disease
884,Breast Cancer,Disease
883,Breast Cancer,Disease
881,Breast Cancer,Disease
881,Aromatase Inhibitor,MOA
880,Breast Cancer,Disease
880,Ductal Carcinoma in Situ,Disease
879,Antineoplastic Agent,MOA
879,Immunology,Disease
879,Breast Cancer,Disease
879,Eli Lilly and Company,Agency
876,Breast Cancer,Disease
876,Tumors,Disease
866,Breast Cancer,Disease
875,Breast Cancer,Disease
874,Antineoplastic Agent,MOA
874,Breast Cancer,Disease
873,Breast Cancer,Disease
873,,Trial
872,Breast Cancer,Disease
872,Growth Factor,MOA
871,Breast Cancer,Disease
871,Tumors,Disease
871,Karolinska Institutet,Agency
870,Cancer,Disease
870,Breast Cancer,Disease
869,Antineoplastic Agent,MOA
869,Triple Negative Breast cancer,Disease
868,Breast Cancer,Disease
867,Breast Cancer,Disease
840,Triple Negative Breast cancer,Disease
840,Chronic Bacterial Prostatitis,Disease
835,Cannabidiol,Drug
835,Breast Cancer,Disease
835,Tamoxifen,Drug
834,Breast Cancer,Disease
801,Breast Cancer,Disease
801,HER-2 inhibitor,MOA
801,,Trial
800,Triple Negative Breast cancer,Disease
800,Cancer,Disease
798,Breast Cancer,Disease
797,Breast Cancer,Disease
796,Breast Cancer,Disease
794,Breast Cancer,Disease
792,Triple Negative Breast cancer,Disease
792,Tumors,Disease
791,Triple Negative Breast cancer,Disease
789,Breast Cancer,Disease
789,Breast Cancer,Disease
788,Breast Cancer,Disease
787,Breast Cancer,Disease
787,,Trial
786,Inflammatory Breast Cancer,Disease
786,University of Texas MD Anderson Cancer Center,Agency
785,Breast Cancer,Disease
785,Tumors,Disease
784,Inflammatory Breast Cancer,Disease
784,Tumors,Disease
783,Breast Cancer,Disease
782,Decorin,Drug
782,Inflammatory Breast Cancer,Disease
782,University of Texas MD Anderson Cancer Center,Agency
782,,Trial
782,,Trial
781,Breast Cancer,Disease
780,Breast Cancer,Disease
780,Inflammation,Disease
780,Duke University Medical Center,Agency
778,Breast Cancer,Disease
777,Breast Cancer,Disease
804,Triple Negative Breast cancer,Disease
804,Tumors,Disease
805,Triple Negative Breast cancer,Disease
805,Breast Cancer,Disease
805,Glutamine,Drug
820,Breast Cancer,Disease
820,Dey,Agency
831,Antineoplastic Agent,MOA
831,Triple Negative Breast cancer,Disease
831,,Trial
831,,Trial
830,Triple Negative Breast cancer,Disease
830,Imipramine,Drug
828,Breast Cancer,Disease
828,Tumors,Disease
827,Triple Negative Breast cancer,Disease
826,Breast Cancer,Disease
825,Breast Cancer,Disease
824,Breast Cancer,Disease
824,Dey,Agency
822,Triple Negative Breast cancer,Disease
821,Triple Negative Breast cancer,Disease
821,Antidepressant,MOA
821,Imipramine,Drug
819,Breast Cancer,Disease
819,Baylor College of Medicine,Agency
806,Triple Negative Breast cancer,Disease
806,Tumors,Disease
818,Breast Cancer,Disease
816,Breast Cancer,Disease
815,Inflammatory Breast Cancer,Disease
815,University of Texas MD Anderson Cancer Center,Agency
814,Breast Cancer,Disease
814,Hormone,MOA
813,Allergy,Disease
813,Breast Cancer,Disease
813,CIS,Agency
813,Eli Lilly and Company,Agency
813,,Trial
811,Breast Cancer,Disease
810,GLP-1,Drug
810,Breast Cancer,Disease
810,Diabetes,Disease
809,Breast Cancer,Disease
809,Glutamine,Drug
809,Phenobarbital,Drug
808,Antineoplastic Agent,MOA
808,Breast Cancer,Disease
1133,Breast Cancer,Disease
1133,Eribulin,Drug
1133,,Trial
1133,,Trial
1134,Diarrhea,Disease
1134,Pertuzumab,Drug
1134,Breast Cancer,Disease
1134,Skin Rash,Disease
1138,Antineoplastic Agent,MOA
1138,Durvalumab,Drug
1138,Triple Negative Breast cancer,Disease
1138,Tumors,Disease
1501,Breast Cancer,Disease
1501,ATHENA,Agency
1497,Breast Cancer,Disease
1496,Breast Cancer,Disease
1496,Endocrine Therapy,MOA
1495,Breast Cancer,Disease
1494,AZD-9496,Drug
1494,Breast Cancer,Disease
1494,Fulvestrant,Drug
1494,AstraZeneca,Agency
1493,Breast Cancer,Disease
1493,Glucocorticoid,MOA
1493,ORIC-101,Drug
1493,Oric Pharmaceuticals,Agency
1491,Trastuzumab,Drug
1491,Breast Cancer,Disease
1491,Cancer,Disease
1491,,Trial
1490,Breast Cancer,Disease
1490,Taxane,Drug
1489,Breast Cancer,Disease
1489,Neratinib,Drug
1488,STAT 3,Drug
1488,Breast Cancer,Disease
1487,Breast Cancer,Disease
1487,Tamoxifen,Drug
1487,,Trial
1487,,Trial
1486,Antineoplastic Agent,MOA
1486,Triple Negative Breast cancer,Disease
1486,Histone Deacetylase Inhibitor,MOA
1484,Breast Cancer,Disease
1484,Cancer,Disease
1483,Breast Cancer,Disease
1483,Hormone,MOA
1481,Triple Negative Breast cancer,Disease
1481,anti-androgen,MOA
1480,Antineoplastic Agent,MOA
1480,Breast Cancer,Disease
1478,Palbociclib,Drug
1478,Breast Cancer,Disease
1478,Endocrine Therapy,MOA
1478,,Trial
1473,Breast Cancer,Disease
1471,Breast Cancer,Disease
1468,Antineoplastic Agent,MOA
1468,Triple Negative Breast cancer,Disease
1468,Apparent Diffusion Coefficient,TrialEndPoint
1468,Tumors,Disease
1468,University of Texas MD Anderson Cancer Center,Agency
1468,Antibody Drug Conjugate,MOA
1466,Breast Cancer,Disease
1464,Breast Cancer,Disease
1464,ACE Inhibitor,MOA
1464,Cardiovascular Disease,Disease
1464,Anthracycline,MOA
1464,Beta Adrenergic Blocking Drug,MOA
1464,Acceleron Pharma,Agency
1499,Breast Cancer,Disease
1499,Rela,Drug
1499,Endoxifen,Drug
1499,Mayo Clinic,Agency
1502,Breast Cancer,Disease
1502,Estrogen Antagonist,MOA
1397,Breast Cancer,Disease
1503,Breast Cancer,Disease
1503,Tamoxifen,Drug
1532,Inflammatory Breast Cancer,Disease
1532,Tumors,Disease
1529,Breast Cancer,Disease
1527,Breast Cancer,Disease
1527,Tamoxifen,Drug
1526,Triple Negative Breast cancer,Disease
1526,Progesterone,MOA
1525,Breast Cancer,Disease
1524,Breast Cancer,Disease
1522,Breast Cancer,Disease
1522,Alpha-2,Drug
1521,Breast Cancer,Disease
1521,Hormone,MOA
1521,Steroid,MOA
1521,Research Center,Agency
1520,Triple Negative Breast cancer,Disease
1519,Breast Cancer,Disease
1518,Breast Cancer,Disease
1518,Glucocorticoid,MOA
1516,Hormone,MOA
1516,Breast Cancer,Disease
1516,Epidermal Growth Factor,Drug
1514,Breast Cancer,Disease
1514,Endocrine Therapy,MOA
1514,Hormone,MOA
1512,Breast Cancer,Disease
1511,Breast Cancer,Disease
1511,Endocrine Therapy,MOA
1511,Equol,Drug
1511,Letrozole,Drug
1511,Allergy,Disease
1510,Breast Cancer,Disease
1510,Tamoxifen,Drug
1509,Breast Cancer,Disease
1508,Breast Cancer,Disease
1508,Glucocorticoid,MOA
1508,Cancer,Disease
1508,Mayo Clinic,Agency
1506,Breast Cancer,Disease
1505,Breast Cancer,Disease
1504,STAT 3,Drug
1504,Breast Cancer,Disease
1463,Antineoplastic Agent,MOA
1463,Alopecia,Disease
1463,Breast Cancer,Disease
1462,Breast Cancer,Disease
1462,Endocrine Agent,MOA
1462,Epidermal Growth Factor,Drug
1462,Hormone,MOA
1461,Antineoplastic Agent,MOA
1461,Breast Cancer,Disease
1459,Cardiotoxicity,Disease
1459,Antineoplastic Agent,MOA
1459,Doxorubicin,Drug
1459,Breast Cancer,Disease
1426,CYP2D6,Drug
1426,Breast Cancer,Disease
1426,Endoxifen,Drug
1426,Tamoxifen,Drug
1425,Breast Cancer,Disease
1425,Endocrine Therapy,MOA
1425,Diabetes,Disease
1422,Breast Cancer,Disease
1422,Endocrine Therapy,MOA
1422,Letrozole,Drug
1422,Breast Cancer,Disease
1422,,Trial
1420,Antineoplastic Agent,MOA
1420,Breast Cancer,Disease
1420,Endocrine Therapy,MOA
1420,Progression-Free Survival,TrialEndPoint
1419,Breast Cancer,Disease
1419,Fulvestrant,Drug
1419,Hormone,MOA
1418,Breast Cancer,Disease
1418,Hormone,MOA
1417,Palbociclib,Drug
1417,Breast Cancer,Disease
1417,Endocrine Therapy,MOA
1416,Breast Cancer,Disease
1416,Letrozole,Drug
1416,,Trial
1415,Epidermal Growth Factor,Drug
1415,Breast Cancer,Disease
1415,Hormone,MOA
1415,,Trial
1414,Estetrol,Drug
1414,Breast Cancer,Disease
1413,Palbociclib,Drug
1413,Exemestane,Drug
1413,Anastrozole,Drug
1413,Breast Cancer,Disease
1413,,Trial
1412,Breast Cancer,Disease
1412,Fulvestrant,Drug
1412,Cross,Agency
1411,Breast Cancer,Disease
1411,Ethynil Estradiol,Drug
1410,Allergy,Disease
1410,Breast Cancer,Disease
1410,Hormone,MOA
1410,Cross,Agency
1409,Abemaciclib,Drug
1409,Breast Cancer,Disease
1409,Palbociclib,Drug
1409,,Trial
1409,,Trial
1408,Breast Cancer,Disease
1408,Cancer,Disease
1406,Breast Cancer,Disease
1406,"Genentech, Inc.",Agency
1405,Breast Cancer,Disease
1405,Endocrine Therapy,MOA
1405,TTC-352,Drug
1403,Palbociclib,Drug
1403,Breast Cancer,Disease
1403,CDK4/6 Inhibitor,MOA
1403,Exemestane,Drug
1403,Everolimus,Drug
1403,Hormone,MOA
1403,,Trial
1403,,Trial
1401,Breast Cancer,Disease
1401,Epidermal Growth Factor,Drug
1401,Selective Estrogen Receptor Down Regulator,MOA
1401,SAR-439859,Drug
1427,Breast Cancer,Disease
1427,Endocrine Therapy,MOA
1427,McMaster University,Agency
1428,Adverse Events,TrialEndPoint
1428,Breast Cancer,Disease
1428,Aromatase Inhibitor,MOA
1429,Breast Cancer,Disease
1429,Endocrine Therapy,MOA
1443,Prophylaxis,Disease
1443,Diarrhea,Disease
1443,Neratinib,Drug
1443,Breast Cancer,Disease
1443,University of Texas MD Anderson Cancer Center,Agency
1443,,Trial
1443,,Trial
1458,Breast Cancer,Disease
1453,Palbociclib,Drug
1453,Breast Cancer,Disease
1453,Letrozole,Drug
1451,Trastuzumab,Drug
1451,Breast Cancer,Disease
1449,Antineoplastic Agent,MOA
1449,Breast Cancer,Disease
1449,Febrile Neutropenia,Disease
1449,Breast Cancer,Disease
1448,Palbociclib,Drug
1448,Breast Cancer,Disease
1448,Endocrine Therapy,MOA
1447,Breast Cancer,Disease
1447,Anthracycline,MOA
1447,NEPA,Drug
1447,Cyclophosphamide,Drug
1447,Nausea,Disease
1447,Antiemetic Agent,MOA
1447,Emesis,Disease
1447,Prophylaxis,Disease
1447,Antineoplastic Agent,MOA
1447,Adenosquamous Carcinoma,Disease
1447,Alveolar Rhabdomyosarcoma,Disease
1446,Trastuzumab,Drug
1446,Cardiotoxicity,Disease
1446,Breast Cancer,Disease
1446,Anthracycline,MOA
1445,Abemaciclib,Drug
1445,Breast Cancer,Disease
1445,Hormone,MOA
1445,Eli Lilly and Company,Agency
1441,Breast Cancer,Disease
1441,Neuropathy,Disease
1441,Eribulin,Drug
1430,Enzalutamide,Drug
1430,Triple Negative Breast cancer,Disease
1438,Epidermal Growth Factor,Drug
1438,Breast Cancer,Disease
1438,Hormone,MOA
1437,Breast Cancer,Disease
1437,Endocrine Therapy,MOA
1437,Phenobarbital,Drug
1436,Breast Cancer,Disease
1436,Aromatase Inhibitor,MOA
1436,Everolimus,Drug
1436,mTOR Kinase Inhibitor,MOA
1436,Hormone,MOA
1435,Selective Estrogen Receptor Modulator,MOA
1435,Breast Cancer,Disease
1435,Alcoholic Fatty Liver,Disease
1434,Breast Cancer,Disease
1434,Aromatase Inhibitor,MOA
1433,Breast Cancer,Disease
1433,Aromatase Inhibitor,MOA
1433,Breast Cancer,Disease
1432,Breast Cancer,Disease
1431,Breast Cancer,Disease
1431,Anastrozole,Drug
1431,Tamoxifen,Drug
1431,,Trial
1535,Breast Cancer,Disease
1535,Growth Factor,MOA
1537,Inflammatory Breast Cancer,Disease
1537,Tumors,Disease
1538,Breast Cancer,Disease
1538,,Trial
1618,Triple Negative Breast cancer,Disease
1640,HIV,Disease
1640,Breast Cancer,Disease
1639,Breast Cancer,Disease
1638,Breast Cancer,Disease
1638,,Trial
1637,NOVO,Agency
1637,Breast Cancer,Disease
1637,Overall Survival,TrialEndPoint
1636,Breast Cancer,Disease
1635,Breast Cancer,Disease
1634,Breast Cancer,Disease
1633,Breast Cancer,Disease
1632,NOVO,Agency
1632,Breast Cancer,Disease
1631,Trastuzumab,Drug
1631,Breast Cancer,Disease
1630,Antineoplastic Agent,MOA
1630,Breast Cancer,Disease
1630,Health-Related Quality of Life,TrialEndPoint
1630,,Trial
1629,Breast Cancer,Disease
1628,Breast Cancer,Disease
1628,Tumors,Disease
1627,Breast Cancer,Disease
1626,HIV,Disease
1626,Breast Cancer,Disease
1625,Breast Cancer,Disease
1624,Aromatase Inhibitor,MOA
1624,Breast Cancer,Disease
1623,Breast Cancer,Disease
1621,Breast Cancer,Disease
1621,Triple Negative Breast cancer,Disease
1621,,Trial
1620,Triple Negative Breast cancer,Disease
1620,Bioscience,Agency
1620,Novo Nordisk A/S,Agency
1641,Breast Cancer,Disease
1643,Breast Cancer,Disease
1643,Formalin,Drug
1643,FRED'S,Agency
1644,Oncology,Disease
1644,Breast Cancer,Disease
1644,Cross,Agency
1644,Bioscience,Agency
1664,Breast Cancer,Disease
1664,Analgesic,MOA
1664,Olaparib,Drug
1664,Antineoplastic Agent,MOA
1664,,Trial
1684,Inflammatory Breast Cancer,Disease
1684,University of Texas MD Anderson Cancer Center,Agency
1683,Inflammatory Breast Cancer,Disease
1682,Tumors,Disease
1682,Inflammatory Breast Cancer,Disease
1681,Inflammatory Breast Cancer,Disease
1681,Inflammatory Breast Cancer,Disease
1680,Inflammatory Breast Cancer,Disease
1667,Breast Cancer,Disease
1667,,Trial
1666,Breast Cancer,Disease
1666,Artemether and Lumefantrine,Drug
1665,Breast Cancer,Disease
1662,Breast Cancer,Disease
1645,Breast Cancer,Disease
1661,Trastuzumab,Drug
1661,Breast Cancer,Disease
1661,Roche Pharma AG,Agency
1660,Trastuzumab,Drug
1660,Ado-Trastuzumab Emtansine,Drug
1660,Breast Cancer,Disease
1660,Ado-Trastuzumab Emtansine,Drug
1660,IQVIA,Agency
1660,Hoffmann-La Roche,Agency
1660,Myotonic Dystrophy Type 1,Disease
1660,,Trial
1655,Breast Cancer,Disease
1655,,Trial
1655,,Trial
1654,Breast Cancer,Disease
1653,Breast Cancer,Disease
1653,Cancer,Disease
1652,Breast Cancer,Disease
1649,Breast Cancer,Disease
1648,Breast Cancer,Disease
1648,Cancer,Disease
1647,Breast Cancer,Disease
1619,Breast Cancer,Disease
1619,Tumors,Disease
1617,Breast Cancer,Disease
1617,Tumors,Disease
1540,Breast Cancer,Disease
1540,Tumors,Disease
1615,Breast Cancer,Disease
1615,Tumors,Disease
1574,Breast Cancer,Disease
1574,Breast Cancer,Disease
1574,,Trial
1574,,Trial
1573,Breast Cancer,Disease
1573,Cancer,Disease
1571,Breast Cancer,Disease
1571,Li-Fraumeni Syndrome,Disease
1571,,Trial
1570,Breast Cancer,Disease
1567,Breast Cancer,Disease
1564,Breast Cancer,Disease
1564,,Trial
1563,Breast Cancer,Disease
1563,,Trial
1562,Breast Cancer,Disease
1562,,Trial
1561,Breast Cancer,Disease
1561,,Trial
1560,Breast Cancer,Disease
1559,Ductal Carcinoma in Situ,Disease
1559,Breast Cancer,Disease
1559,University of Texas MD Anderson Cancer Center,Agency
1554,Breast Cancer,Disease
1554,Mayo Clinic,Agency
1553,Breast Cancer,Disease
1551,Breast Cancer,Disease
1550,Breast Cancer,Disease
1549,Paclitaxel,Drug
1549,Triple Negative Breast cancer,Disease
1549,Eribulin,Drug
1547,Acute Promyelocytic Leukemia,Disease
1547,Breast Cancer,Disease
1547,Tumors,Disease
1547,Sun Yat-Sen University,Agency
1547,Progressive Multifocal Leukoencephalopathy,Disease
1545,Breast Cancer,Disease
1545,Resveratrol,Drug
1545,Ava,Agency
1544,Breast Cancer,Disease
1543,Breast Cancer,Disease
1541,Anti-Inflammatory Agent,MOA
1541,Breast Cancer,Disease
1577,Pancreatic Cancer,Disease
1577,Breast Cancer,Disease
1578,Breast Cancer,Disease
1578,Breast Cancer,Disease
1599,Breast Cancer,Disease
1599,Tumors,Disease
1599,,Trial
1599,,Trial
1599,,Trial
1599,,Trial
1614,Antineoplastic Agent,MOA
1614,Breast Cancer,Disease
1611,Breast Cancer,Disease
1610,Immune Response,Agency
1610,Breast Cancer,Disease
1610,Research Center,Agency
1610,,Trial
1607,Breast Cancer,Disease
1604,Breast Cancer,Disease
1604,Tumors,Disease
1603,Breast Cancer,Disease
1603,Immuno,Agency
1603,Immune Cell,Agency
1603,Oncology,Disease
1603,Tumors,Disease
1603,Breast Cancer,Disease
1602,Breast Cancer,Disease
1602,Hormone,MOA
1602,,Trial
1602,,Trial
1601,Breast Cancer,Disease
1598,Breast Cancer,Disease
1598,Breast Cancer,Disease
1597,Antineoplastic Agent,MOA
1597,Triple Negative Breast cancer,Disease
1597,Mayo Clinic,Agency
1590,Breast Cancer,Disease
1587,Breast Cancer,Disease
1587,Tumors,Disease
1587,Cancer,Disease
1586,Oncology,Disease
1586,Breast Cancer,Disease
1585,Breast Cancer,Disease
1582,Breast Cancer,Disease
1581,Breast Cancer,Disease
1581,Research Center,Agency
1579,Breast Cancer,Disease
1579,University of Texas MD Anderson Cancer Center,Agency
1400,Breast Cancer,Disease
1400,selective androgen receptor Modulator,MOA
1400,Epidermal Growth Factor,Drug
1400,RAD-140,Drug
1395,Breast Cancer,Disease
1395,Cancer,Disease
1395,Breast Cancer,Disease
1140,Trastuzumab,Drug
1140,Breast Cancer,Disease
1242,Breast Cancer,Disease
1240,Breast Cancer,Disease
1240,Tumors,Disease
1239,Breast Cancer,Disease
1239,,Trial
1239,Letrozole,Drug
1239,Novartis,Agency
1238,Breast Cancer,Disease
1237,RAD-1901,Drug
1237,Selective Estrogen Receptor Down Regulator,MOA
1237,Breast Cancer,Disease
1237,Tumors,Disease
1236,Breast Cancer,Disease
1236,Tumors,Disease
1235,Breast Cancer,Disease
1235,Research Center,Agency
1234,Breast Cancer,Disease
1233,Breast Cancer,Disease
1233,Tumors,Disease
1233,Cancer,Disease
1231,Breast Cancer,Disease
1231,Endocrine Therapy,MOA
1231,Letrozole,Drug
1230,Breast Cancer,Disease
1230,Tumors,Disease
1230,,Trial
1229,Allergy,Disease
1229,Breast Cancer,Disease
1229,HER-2 inhibitor,MOA
1228,Breast Cancer,Disease
1228,Doxorubicin,Drug
1228,Cyclophosphamide,Drug
1228,Cisplatin,Drug
1228,University of Texas MD Anderson Cancer Center,Agency
1228,,Trial
1228,,Trial
1228,,Trial
1226,Paclitaxel,Drug
1226,Breast Cancer,Disease
1226,Neuropathy,Disease
1224,Breast Cancer,Disease
1224,SPM-924,Drug
1224,,Trial
1223,Breast Cancer,Disease
1222,Breast Cancer,Disease
1221,Breast Cancer,Disease
1220,Breast Cancer,Disease
1220,Cancer,Disease
1219,Breast Cancer,Disease
1219,Cancer,Disease
1217,Palbociclib,Drug
1217,Breast Cancer,Disease
1217,Hormone,MOA
1216,Breast Cancer,Disease
1241,Antineoplastic Agent,MOA
1241,Triple Negative Breast cancer,Disease
1244,Palbociclib,Drug
1244,Breast Cancer,Disease
1244,Thymidine,Drug
1244,Endocrine Therapy,MOA
1245,Breast Cancer,Disease
1275,Breast Cancer,Disease
1275,Tumors,Disease
1272,Breast Cancer,Disease
1271,Across,Agency
1271,Breast Cancer,Disease
1271,Philips Research,Agency
1269,Breast Cancer,Disease
1268,Breast Cancer,Disease
1268,Tumors,Disease
1267,Breast Cancer,Disease
1267,Overall Survival,TrialEndPoint
1267,Tumors,Disease
1267,Indoleamine-2,Drug
1265,Breast Cancer,Disease
1265,Philips Research,Agency
1264,Breast Cancer,Disease
1264,Pathology,Disease
1263,Breast Cancer,Disease
1260,Breast Cancer,Disease
1257,Breast Cancer,Disease
1257,Berg,Agency
1254,Breast Cancer,Disease
1254,Tumors,Disease
1253,Breast Cancer,Disease
1253,Tumors,Disease
1253,Hormone,MOA
1253,,Trial
1253,,Trial
1252,Breast Cancer,Disease
1251,Antineoplastic Agent,MOA
1251,Breast Cancer,Disease
1251,Tumors,Disease
1250,Breast Cancer,Disease
1249,Breast Cancer,Disease
1249,Tumors,Disease
1248,Breast Cancer,Disease
1248,Breast Carcinoma,Disease
1247,Breast Cancer,Disease
1247,CDK4/6 Inhibitor,MOA
1246,Breast Cancer,Disease
1246,Tumors,Disease
1246,Hormone,MOA
1213,Breast Cancer,Disease
1212,Breast Cancer,Disease
1212,Cancer,Disease
1211,Breast Cancer,Disease
1211,,Trial
1209,Breast Cancer,Disease
1163,Capecitabine,Drug
1163,Triple Negative Breast cancer,Disease
1162,Breast Cancer,Disease
1162,Radiation Therapy,MOA
1162,,Trial
1162,,Trial
1161,Breast Cancer,Disease
1160,Palbociclib,Drug
1160,Breast Cancer,Disease
1160,Concomitant,Drug
1160,Radiation Therapy,MOA
1159,Breast Cancer,Disease
1159,,Trial
1159,,Trial
1158,Breast Cancer,Disease
1157,Breast Cancer,Disease
1157,Radiation Therapy,MOA
1157,Tumors,Disease
1157,Nivolumab,Drug
1157,Cross,Agency
1157,Research Center,Agency
1157,,Trial
1156,Trastuzumab,Drug
1156,Breast Carcinoma,Disease
1156,,Trial
1155,Breast Cancer,Disease
1155,Breast Cancer,Disease
1154,Breast Cancer,Disease
1154,Tumors,Disease
1153,Trastuzumab,Drug
1153,Breast Cancer,Disease
1151,Palbociclib,Drug
1151,Breast Cancer,Disease
1151,Tumors,Disease
1150,Breast Cancer,Disease
1150,Hormone,MOA
1149,Trastuzumab,Drug
1149,Breast Cancer,Disease
1149,Health Solutions,Agency
1149,,Trial
1147,Paclitaxel,Drug
1147,Breast Cancer,Disease
1147,Ipatasertib,Drug
1147,,Trial
1146,Breast Cancer,Disease
1146,HER-2 inhibitor,MOA
1146,University of Texas MD Anderson Cancer Center,Agency
1144,Allergy,Disease
1144,Capivasertib,Drug
1144,Breast Cancer,Disease
1144,AKT Inhibitor,MOA
1144,,Trial
1143,Breast Cancer,Disease
1143,Breast Cancer,Disease
1141,Palbociclib,Drug
1141,Breast Cancer,Disease
1141,Endocrine Therapy,MOA
1141,Bio-Medical Research,Agency
1141,,Trial
1164,Triple Negative Breast cancer,Disease
1164,Tumors,Disease
1164,Radiation Therapy,MOA
1164,Research Center,Agency
1166,Breast Cancer,Disease
1167,Breast Cancer,Disease
1167,Radiation Therapy,MOA
1199,Antineoplastic Agent,MOA
1199,Breast Cancer,Disease
1208,Antineoplastic Agent,MOA
1208,Breast Cancer,Disease
1208,Hepatitis C,Disease
1208,Infection,Disease
1207,Cancer Vaccine,MOA
1207,Breast Cancer,Disease
1206,Antineoplastic Agent,MOA
1206,Breast Cancer,Disease
1206,,Trial
1205,Triple Negative Breast cancer,Disease
1205,Platinum Based Chemotherapy,MOA
1204,Breast Cancer,Disease
1204,Apatinib,Drug
1204,Docetaxel,Drug
1203,Breast Cancer,Disease
1203,Hormone,MOA
1202,Breast Cancer,Disease
1201,Oncology,Disease
1201,Breast Cancer,Disease
1200,Breast Cancer,Disease
1200,Cancer,Disease
1193,Breast Cancer,Disease
1193,Radiation Therapy,MOA
1193,,Trial
1168,Breast Cancer,Disease
1168,Hormone,MOA
1192,Breast Cancer,Disease
1190,Breast Cancer,Disease
1185,Breast Cancer,Disease
1184,Breast Cancer,Disease
1183,Breast Cancer,Disease
1183,Radiation Therapy,MOA
1178,Breast Cancer,Disease
1176,Cancer,Disease
1176,Breast Cancer,Disease
1176,Hypofractionated,Disease
1173,Antineoplastic Agent,MOA
1173,Breast Cancer,Disease
1170,Breast Cancer,Disease
1170,Radiation Therapy,MOA
1276,Breast Cancer,Disease
1276,Cancer,Disease
1277,Breast Cancer,Disease
1278,Breast Cancer,Disease
1278,,Trial
1278,,Trial
1334,Breast Cancer,Disease
1334,Endocrine Therapy,MOA
1360,Breast Cancer,Disease
1360,Pathology,Disease
1360,,Trial
1359,Triple Negative Breast cancer,Disease
1359,Metabolic Syndrome,Disease
1358,Triple Negative Breast cancer,Disease
1357,Mucinous,Disease
1357,Breast Carcinoma,Disease
1356,Breast Cancer,Disease
1356,Overall Survival,TrialEndPoint
1356,Hormone,MOA
1355,Breast Cancer,Disease
1355,,Trial
1355,,Trial
1354,Breast Cancer,Disease
1353,Breast Cancer,Disease
1353,Cancer,Disease
1352,Breast Cancer,Disease
1352,Immune Checkpoint Inhibitor,MOA
1349,Breast Cancer,Disease
1348,Breast Cancer,Disease
1348,,Trial
1346,Breast Cancer,Disease
1345,Triple Negative Breast cancer,Disease
1345,Sun Yat-Sen University,Agency
1344,Antineoplastic Agent,MOA
1344,Breast Cancer,Disease
1344,,Trial
1342,Breast Cancer,Disease
1342,,Trial
1342,,Trial
1342,,Trial
1340,Triple Negative Breast cancer,Disease
1339,Breast Cancer,Disease
1339,Mortality,TrialEndPoint
1338,Breast Cancer,Disease
1338,Cancer,Disease
1338,Antineoplastic Agent,MOA
1338,Hormone,MOA
1338,,Trial
1337,Breast Cancer,Disease
1337,Thymidine,Drug
1337,Hormone,MOA
1337,Breast Cancer,Disease
1336,Inflammatory Breast Cancer,Disease
1336,Cancer,Disease
1336,University of Texas MD Anderson Cancer Center,Agency
1336,,Trial
1361,Breast Cancer,Disease
1362,Breast Cancer,Disease
1362,Mortality,TrialEndPoint
1362,Tumors,Disease
1365,Breast Cancer,Disease
1365,Overall Survival,TrialEndPoint
1365,Progression-Free Survival,TrialEndPoint
1365,,Trial
1365,,Trial
1380,Breast Cancer,Disease
1394,Breast Cancer,Disease
1393,Breast Carcinoma,Disease
1391,Breast Cancer,Disease
1389,Breast Cancer,Disease
1388,Breast Cancer,Disease
1386,Breast Cancer,Disease
1386,Epidermal Growth Factor,Drug
1386,Mortality,TrialEndPoint
1386,Hormone,MOA
1386,Eli Lilly and Company,Agency
1384,Breast Cancer,Disease
1382,Liver Fibrosis,Disease
1382,Breast Cancer,Disease
1382,Fatty Liver Disease,Disease
1381,Breast Cancer,Disease
1378,Breast Cancer,Disease
1367,Breast Cancer,Disease
1377,Triple Negative Breast cancer,Disease
1377,,Trial
1376,Breast Cancer,Disease
1375,Breast Cancer,Disease
1375,Mayo Clinic,Agency
1373,Breast Cancer,Disease
1373,,Trial
1372,Breast Cancer,Disease
1371,Breast Cancer,Disease
1370,Breast Cancer,Disease
1370,ATHENA,Agency
1370,Thresholds,Agency
1370,ATHENA,Agency
1369,Breast Cancer,Disease
1369,Chronic Kidney Disease,Disease
1368,Breast Cancer,Disease
1335,Breast Cancer,Disease
1335,University of Texas MD Anderson Cancer Center,Agency
1333,Desloratadine,Drug
1333,Loratadine,Drug
1333,Breast Cancer,Disease
1279,Breast Cancer,Disease
1279,Mayo Clinic,Agency
1332,Antineoplastic Agent,MOA
1332,Breast Cancer,Disease
1332,Breast Cancer,Disease
1301,Triple Negative Breast cancer,Disease
1301,Sulindac,Drug
1300,Breast Cancer,Disease
1300,Immune Cell,Agency
1298,Breast Cancer,Disease
1298,Mortality,TrialEndPoint
1297,Breast Cancer,Disease
1297,Mayo Clinic,Agency
1296,Breast Cancer,Disease
1296,Tumors,Disease
1295,Immuno,Agency
1295,Triple Negative Breast cancer,Disease
1295,Tumors,Disease
1295,Oncology,Disease
1295,Tumors,Disease
1294,Breast Cancer,Disease
1294,Tumors,Disease
1293,Breast Cancer,Disease
1293,Hormone,MOA
1292,Antineoplastic Agent,MOA
1292,Breast Cancer,Disease
1291,Triple Negative Breast cancer,Disease
1291,Mayo Clinic,Agency
1290,Breast Cancer,Disease
1290,Immunotherapy,MOA
1289,Breast Cancer,Disease
1289,Tumors,Disease
1288,Breast Cancer,Disease
1288,Tumors,Disease
1287,Inflammatory Breast Cancer,Disease
1287,Tumors,Disease
1287,,Trial
1286,Breast Cancer,Disease
1286,Cross,Agency
1285,Breast Cancer,Disease
1285,haNK,Drug
1285,Immunotherapy,MOA
1285,NantKwest,Agency
1284,Breast Cancer,Disease
1284,Tumors,Disease
1284,,Trial
1284,,Trial
1284,,Trial
1283,Inflammatory Breast Cancer,Disease
1283,Inflammatory Breast Cancer,Disease
1282,Breast Cancer,Disease
1282,,Trial
1282,,Trial
1280,Breast Cancer,Disease
1302,Breast Cancer,Disease
1302,Progesterone,MOA
1303,Breast Cancer,Disease
1304,Breast Cancer,Disease
1318,Breast Cancer,Disease
1331,Breast Cancer,Disease
1328,Antineoplastic Agent,MOA
1328,Breast Cancer,Disease
1328,HER-2 inhibitor,MOA
1328,Complete Response,TrialEndPoint
1328,Hoffmann-La Roche,Agency
1327,Breast Cancer,Disease
1326,Breast Cancer,Disease
1324,Breast Cancer,Disease
1324,Targeted Therapy,MOA
1324,AL-101,Drug
1323,Triple Negative Breast cancer,Disease
1323,Bioscience,Agency
1322,Breast Cancer,Disease
1322,STAT3 Inhibitor,MOA
1322,Tumors,Disease
1320,Triple Negative Breast cancer,Disease
1320,,Trial
1317,Triple Negative Breast cancer,Disease
1305,Breast Cancer,Disease
1305,Tumors,Disease
1316,Breast Cancer,Disease
1315,Triple Negative Breast cancer,Disease
1315,Antineoplastic Agent,MOA
1315,Cancer,Disease
1313,Estrogen Antagonist,MOA
1313,Breast Cancer,Disease
1312,RAD-140,Drug
1312,Breast Cancer,Disease
1312,selective androgen receptor Modulator,MOA
1312,Radius Health,Agency
1311,Breast Cancer,Disease
1310,Triple Negative Breast cancer,Disease
1310,,Trial
1309,Breast Cancer,Disease
1309,Tine,Agency
1308,Breast Cancer,Disease
1308,Tumors,Disease
1306,Breast Cancer,Disease
1306,Tumors,Disease
654,Breast Cancer,Disease
654,,Trial
1693,Breast Cancer,Disease
1693,,Trial
412,Trastuzumab and Hyaluronidase-Oysk,Drug
412,Pertuzumab,Drug
412,Breast Cancer,Disease
412,Docetaxel,Drug
412,Hoffmann-La Roche,Agency
412,Alveolar Rhabdomyosarcoma,Disease
426,Trastuzumab,Drug
426,Breast Cancer,Disease
426,,Trial
430,Breast Cancer,Disease
430,HER-2 inhibitor,MOA
89,GDC-0084,Drug
89,Trastuzumab,Drug
89,Breast Cancer,Disease
89,"Genentech, Inc.",Agency
89,,Trial
90,Breast Cancer,Disease
90,Eribulin,Drug
90,CXCR4 inhibitor,MOA
90,balixafortide,Drug
90,,Trial
90,,Trial
428,Breast Cancer,Disease
428,Neratinib,Drug
428,Phenobarbital,Drug
427,Breast Cancer,Disease
167,Palbociclib,Drug
167,Breast Cancer,Disease
167,Letrozole,Drug
425,Epidermal Growth Factor,Drug
425,Breast Cancer,Disease
425,Hormone,MOA
91,Tesetaxel,Drug
91,Capecitabine,Drug
91,Breast Cancer,Disease
91,Taxane,Drug
91,,Trial
91,,Trial
91,,Trial
424,Breast Cancer,Disease
424,Targeted Therapy,MOA
423,Antibody Drug Conjugate,MOA
423,ARX-788,Drug
423,Breast Cancer,Disease
422,Breast Cancer,Disease
422,Pertuzumab,Drug
422,Bedford Pharmaceuticals,Agency
422,"Taiho Oncology, Inc.",Agency
421,Breast Cancer,Disease
421,Pertuzumab,Drug
421,Hoffmann-La Roche,Agency
420,Trastuzumab,Drug
420,Targeted Therapy,MOA
420,Breast Cancer,Disease
419,Breast Cancer,Disease
419,Trastuzumab Deruxtecan,Drug
419,Trastuzumab Deruxtecan,Drug
419,SANKYO,Agency
431,Ado-Trastuzumab Emtansine,Drug
431,Breast Cancer,Disease
431,Ado-Trastuzumab Emtansine,Drug
431,Myotonic Dystrophy Type 1,Disease
168,Abemaciclib,Drug
168,Antineoplastic Agent,MOA
168,Breast Cancer,Disease
168,Fulvestrant,Drug
168,Eli Lilly and Company,Agency
432,Trastuzumab,Drug
432,Breast Cancer,Disease
432,Radiation Therapy,MOA
169,Palbociclib,Drug
169,Breast Cancer,Disease
169,Endocrine Therapy,MOA
169,Phenobarbital,Drug
169,Trastuzumab,Drug
169,Hormone,MOA
169,Nico,Agency
169,,Trial
434,EZH2 Inhibitor,MOA
434,Breast Cancer,Disease
170,Palbociclib,Drug
170,Breast Cancer,Disease
170,Fulvestrant,Drug
170,Hormone,MOA
435,Cardiotoxicity,Disease
435,Breast Cancer,Disease
435,Trastuzumab,Drug
435,Myocet,Drug
435,Carboplatin,Drug
435,Antineoplastic Agent,MOA
435,Pertuzumab,Drug
87,Adagloxad Simolenin,Drug
87,Breast Cancer,Disease
87,OBI-822,Drug
87,OBI Pharma,Agency
87,Research Center,Agency
87,OBI Pharma,Agency
87,OBI Pharma,Agency
87,,Trial
437,Trastuzumab,Drug
437,Pertuzumab,Drug
437,Breast Cancer,Disease
437,Aromatase Inhibitor,MOA
437,,Trial
86,Breast Cancer,Disease
86,L-Asparaginase,Drug
86,Gemcitabine,Drug
86,,Trial
86,Carboplatin,Drug
86,Antineoplastic Agent,MOA
86,,Trial
85,Breast Cancer,Disease
85,Entinostat,Drug
85,Ado-Trastuzumab Emtansine,Drug
85,Bintrafusp Alfa,Drug
85,MSB0011359C,Drug
85,Ado-Trastuzumab Emtansine,Drug
85,Zimmer,Agency
85,Myotonic Dystrophy Type 1,Disease
84,Antibody Drug Conjugate,MOA
84,Breast Cancer,Disease
84,Trastuzumab Deruxtecan,Drug
84,Trastuzumab Deruxtecan,Drug
84,SANKYO,Agency
440,Breast Cancer,Disease
440,Vinorelbine,Drug
440,Taxane,Drug
440,Trastuzumab,Drug
440,Pertuzumab,Drug
440,,Trial
441,Trastuzumab,Drug
441,Pertuzumab,Drug
441,Breast Cancer,Disease
171,Breast Cancer,Disease
171,Endocrine Therapy,MOA
443,Breast Cancer,Disease
443,Epidermal Growth Factor,Drug
443,Sun Yat-Sen University,Agency
83,Antibody Drug Conjugate,MOA
83,Breast Cancer,Disease
83,Trastuzumab Deruxtecan,Drug
83,Taxane,Drug
83,Ado-Trastuzumab Emtansine,Drug
83,Trastuzumab Deruxtecan,Drug
83,Trastuzumab,Drug
83,Ado-Trastuzumab Emtansine,Drug
83,SANKYO,Agency
83,Myotonic Dystrophy Type 1,Disease
418,Breast Cancer,Disease
418,Ado-Trastuzumab Emtansine,Drug
418,Hoffmann-La Roche,Agency
417,Breast Cancer,Disease
417,Medicon,Agency
417,,Trial
178,Palbociclib,Drug
178,Breast Cancer,Disease
178,Abemaciclib,Drug
178,Anastrozole,Drug
178,Nivolumab,Drug
178,Tilman,Agency
178,,Trial
178,,Trial
98,Breast Cancer,Disease
98,Immunotherapy,MOA
98,Breast Cancer,Disease
98,Doxorubicin,Drug
98,Cyclophosphamide,Drug
98,Ado-Trastuzumab Emtansine,Drug
98,Atezolizumab,Drug
98,Trastuzumab,Drug
98,Pertuzumab,Drug
98,Hoffmann-La Roche,Agency
164,Trastuzumab,Drug
164,Breast Cancer,Disease
97,Breast Cancer,Disease
97,Immunotherapy,MOA
97,Breast Cancer,Disease
97,Taxane,Drug
97,Indoleamine-2,Drug
97,Indoximod,Drug
97,Antineoplastic Agent,MOA
97,,Trial
97,,Trial
408,Breast Cancer,Disease
408,Pathological Complete Response,TrialEndPoint
408,Targeted Therapy,MOA
408,Hoffmann-La Roche,Agency
406,Breast Cancer,Disease
405,Breast Cancer,Disease
99,Breast Cancer,Disease
99,Immunotherapy,MOA
99,Pembrolizumab,Drug
99,Breast Cancer,Disease
99,Ladiratuzumab,Drug
92,Tesetaxel,Drug
92,Breast Cancer,Disease
92,,Trial
92,,Trial
92,,Trial
403,Breast Cancer,Disease
403,Bristol-Myers Squibb,Agency
402,Breast Cancer,Disease
401,Breast Cancer,Disease
100,Breast Cancer,Disease
100,Immunotherapy,MOA
100,Breast Cancer,Disease
100,Hoffmann-La Roche,Agency
400,Breast Cancer,Disease
409,Trastuzumab,Drug
409,Antineoplastic Agent,MOA
409,Breast Cancer,Disease
410,Trastuzumab,Drug
410,Pertuzumab,Drug
410,Breast Cancer,Disease
410,Central Nervous System,Disease
410,,Trial
410,,Trial
411,Breast Cancer,Disease
411,Margetuximab,Drug
411,Antineoplastic Agent,MOA
411,Trastuzumab,Drug
411,HER-2 inhibitor,MOA
411,Research Center,Agency
411,,Trial
96,Breast Cancer,Disease
96,Immunotherapy,MOA
96,Breast Cancer,Disease
96,Paclitaxel,Drug
96,Bevacizumab,Drug
96,Nivolumab,Drug
96,Kobe University,Agency
96,Research Center,Agency
221,Palbociclib,Drug
221,Breast Cancer,Disease
221,Epidermal Growth Factor,Drug
221,Quality of Life,TrialEndPoint
221,Hormone,MOA
221,Health Solutions,Agency
221,PATH,Agency
95,Breast Cancer,Disease
95,Immunotherapy,MOA
95,Pembrolizumab,Drug
95,Beta-Glucans,Drug
95,PD-1 Inhibitor,MOA
95,Triple Negative Breast cancer,Disease
95,Antineoplastic Agent,MOA
95,,Trial
413,Breast Cancer,Disease
413,Hormone,MOA
413,Research Center,Agency
94,Breast Cancer,Disease
94,Immunotherapy,MOA
94,Durvalumab,Drug
94,Paclitaxel,Drug
94,Durvalumab,Drug
94,Doxorubicin,Drug
94,Cyclophosphamide,Drug
94,Triple Negative Breast cancer,Disease
165,Breast Cancer,Disease
165,Endocrine Therapy,MOA
165,Hormone,MOA
415,Trastuzumab Biosimilar,Drug
415,Breast Cancer,Disease
415,Overall Survival,TrialEndPoint
415,Trazimera,Drug
416,Breast Cancer,Disease
416,Tucatinib,Drug
416,Antibody Drug Conjugate,MOA
416,Tyrosine Kinase Inhibitor,MOA
416,Trastuzumab,Drug
416,Tumors,Disease
416,"Seattle Genetics, Inc.",Agency
166,Breast Cancer,Disease
166,Endocrine Therapy,MOA
166,Abemaciclib,Drug
166,Epidermal Growth Factor,Drug
166,Hormone,MOA
166,Eli Lilly and Company,Agency
166,,Trial
93,Breast Cancer,Disease
93,Tesetaxel,Drug
93,Taxane,Drug
93,Capecitabine,Drug
93,Hormone,MOA
93,,Trial
93,,Trial
93,,Trial
445,Palbociclib,Drug
445,Breast Cancer,Disease
445,Overall Survival,TrialEndPoint
445,Letrozole,Drug
445,University of Texas MD Anderson Cancer Center,Agency
446,Avelumab,Drug
446,Breast Cancer,Disease
446,,Trial
290,Breast Cancer,Disease
290,Hyperplasia,Disease
290,Ductal Carcinoma in Situ,Disease
476,Epidermal Growth Factor,Drug
476,Breast Cancer,Disease
476,Hormone,MOA
476,,Trial
479,Breast Cancer,Disease
479,Endocrine Therapy,MOA
479,CDK4/6 Inhibitor,MOA
479,Novartis,Agency
478,Breast Cancer,Disease
280,Breast Cancer,Disease
281,Breast Cancer,Disease
281,Nova,Agency
73,ABP-980,Drug
73,Breast Cancer,Disease
73,Pathology,Disease
73,Amgen,Agency
282,Fluoroestradiol,Drug
282,Breast Cancer,Disease
282,Fluorodeoxyglucose,Drug
282,Research Center,Agency
475,Antineoplastic Agent,MOA
475,Breast Cancer,Disease
475,Aromatase Inhibitor,MOA
82,Gene Therapy,MOA
82,Lymfactin,Drug
82,Breast Cancer,Disease
82,Gene Therapy,MOA
82,Lymphedema,Disease
283,Breast Cancer,Disease
283,Hypoxia,Disease
474,Trastuzumab,Drug
474,Breast Cancer,Disease
474,Ruxolitinib,Drug
474,,Trial
474,,Trial
473,Letrozole,Drug
473,Breast Cancer,Disease
473,LEE-011,Drug
174,Fever,Disease
174,Breast Cancer,Disease
174,Olaparib,Drug
174,,Trial
74,Endocrine Therapy,MOA
74,Hormone,MOA
74,Tamoxifen,Drug
74,Breast Cancer,Disease
74,Aromatase Inhibitor,MOA
74,Sun Yat-Sen University,Agency
74,,Trial
472,Palbociclib,Drug
472,Hormone,MOA
472,Breast Cancer,Disease
472,Tamoxifen,Drug
279,Trastuzumab,Drug
279,Breast Cancer,Disease
279,Chitosan,Drug
72,Breast Cancer,Disease
71,Antineoplastic Agent,MOA
71,Breast Cancer,Disease
71,JANSSEN LP,Agency
71,,Trial
71,,Trial
71,,Trial
144,Breast Cancer,Disease
144,Targeted Therapy,MOA
144,Bio-Medical Research,Agency
144,BRISTOL,Agency
144,,Trial
144,,Trial
175,Breast Cancer,Disease
175,PARP Inhibitor,MOA
175,,Trial
175,,Trial
175,,Trial
175,,Trial
484,CDK4/6 Inhibitor,MOA
484,Breast Cancer,Disease
484,Mayo Clinic,Agency
484,,Trial
484,,Trial
485,Palbociclib,Drug
485,Breast Cancer,Disease
485,Exemestane,Drug
485,Fulvestrant,Drug
485,Everolimus,Drug
485,,Trial
485,,Trial
486,Palbociclib,Drug
486,Breast Cancer,Disease
486,Fulvestrant,Drug
69,Antineoplastic Agent,MOA
69,Atorvastatin,Drug
69,University of Texas MD Anderson Cancer Center,Agency
69,Inflammatory Breast Cancer,Disease
68,Breast Cancer,Disease
68,Atorvastatin,Drug
68,,Trial
278,Antineoplastic Agent,MOA
278,Anthracycline,MOA
278,Breast Cancer,Disease
488,Palbociclib,Drug
488,Breast Cancer,Disease
488,GDC-0077,Drug
488,Letrozole,Drug
488,"Genentech, Inc.",Agency
488,,Trial
489,NOVO,Agency
489,Breast Cancer,Disease
176,Avelumab,Drug
176,Breast Cancer,Disease
176,,Trial
277,Antineoplastic Agent,MOA
277,Breast Cancer,Disease
277,Complete Response,TrialEndPoint
276,Breast Cancer,Disease
177,Pembrolizumab,Drug
177,Paclitaxel,Drug
177,Inflammatory Breast Cancer,Disease
177,,Trial
75,Endocrine Therapy,MOA
75,Breast Cancer,Disease
75,Endocrine Therapy,MOA
75,,Trial
284,Breast Cancer,Disease
76,Endocrine Therapy,MOA
76,Exemestane,Drug
76,Breast Cancer,Disease
459,Breast Cancer,Disease
459,Lerociclib,Drug
459,CDK4/6 Inhibitor,MOA
459,G1T38,Drug
459,Fulvestrant,Drug
459,Bio-Medical Research,Agency
448,AZD-5363,Drug
448,Capivasertib,Drug
448,Fulvestrant,Drug
448,Breast Cancer,Disease
448,AstraZeneca,Agency
449,Breast Cancer,Disease
449,Endocrine Therapy,MOA
449,University of Texas MD Anderson Cancer Center,Agency
449,,Trial
450,Breast Cancer,Disease
450,Neratinib,Drug
450,Fulvestrant,Drug
450,Bio-Medical Research,Agency
450,BRISTOL,Agency
450,,Trial
451,Breast Cancer,Disease
451,Fulvestrant,Drug
451,Trastuzumab,Drug
451,Neratinib,Drug
451,Hormone,MOA
451,Nico,Agency
451,University of Texas MD Anderson Cancer Center,Agency
451,,Trial
451,,Trial
452,Breast Cancer,Disease
452,Aromatase Inhibitor,MOA
452,Abemaciclib,Drug
452,Tumors,Disease
452,Hormone,MOA
452,Eli Lilly and Company,Agency
452,Mayo Clinic,Agency
452,,Trial
81,Antineoplastic Agent,MOA
81,Breast Cancer,Disease
81,Paclitaxel,Drug
81,,Trial
81,Liporaxel,Drug
81,Paclitaxel,Drug
453,Breast Cancer,Disease
453,Endocrine Therapy,MOA
453,Abemaciclib,Drug
453,Epidermal Growth Factor,Drug
453,Hormone,MOA
453,Eli Lilly and Company,Agency
453,,Trial
454,Breast Cancer,Disease
454,Capivasertib,Drug
454,Fulvestrant,Drug
454,Bio-Medical Research,Agency
454,BRISTOL,Agency
454,,Trial
455,Breast Cancer,Disease
455,Exemestane,Drug
455,Everolimus,Drug
455,Targeted Therapy,MOA
455,Hormone,MOA
456,Palbociclib,Drug
456,Breast Cancer,Disease
456,Hormone,MOA
456,,Trial
456,,Trial
289,Breast Cancer,Disease
288,Antineoplastic Agent,MOA
288,Breast Cancer,Disease
172,Breast Cancer,Disease
172,Trimebutine,Drug
172,Abemaciclib,Drug
172,Diarrhea,Disease
172,,Trial
458,Palbociclib,Drug
458,Breast Cancer,Disease
458,Endocrine Therapy,MOA
458,Epidermal Growth Factor,Drug
458,Hormone,MOA
173,Triple Negative Breast cancer,Disease
173,Radiation Therapy,MOA
173,Olaparib,Drug
173,,Trial
470,Triple Negative Breast cancer,Disease
470,Bio-Medical Research,Agency
287,Antineoplastic Agent,MOA
287,Activated Charcoal,Drug
287,Breast Cancer,Disease
286,Antineoplastic Agent,MOA
286,Breast Cancer,Disease
286,Complete Response,TrialEndPoint
286,,Trial
461,Breast Cancer,Disease
461,,Trial
79,Endocrine Therapy,MOA
79,Breast Cancer,Disease
462,Palbociclib,Drug
462,Breast Cancer,Disease
462,Neutropenia,Disease
462,Hormone,MOA
462,,Trial
463,Breast Cancer,Disease
463,Letrozole,Drug
464,Everolimus,Drug
464,Breast Cancer,Disease
464,Phenobarbital,Drug
465,Palbociclib,Drug
465,Breast Cancer,Disease
465,Hormone,MOA
466,Trastuzumab,Drug
466,Copanlisib,Drug
466,Breast Cancer,Disease
466,Systems Medicine,Agency
78,Endocrine Therapy,MOA
78,Palbociclib,Drug
78,Selective Estrogen Receptor Down Regulator,MOA
78,Breast Cancer,Disease
78,SAR-439859,Drug
467,Capecitabine,Drug
467,Triple Negative Breast cancer,Disease
467,Tumors,Disease
77,Endocrine Therapy,MOA
77,Breast Cancer,Disease
77,Endocrine Therapy,MOA
77,CDK4/6 Inhibitor,MOA
77,RAD-1901,Drug
77,RAD-1901,Drug
77,Selective Estrogen Receptor Down Regulator,MOA
77,,Trial
285,Breast Cancer,Disease
285,Antibody,MOA
469,Ricolinostat,Drug
469,Breast Cancer,Disease
469,Paclitaxel,Drug
469,Ricolinostat,Drug
469,,Trial
469,,Trial
399,Cardiotoxicity,Disease
399,Antineoplastic Agent,MOA
399,Breast Cancer,Disease
163,Breast Cancer,Disease
163,PATH,Agency
163,Docetaxel,Drug
163,Atezolizumab,Drug
163,Herceptin,Drug
163,Antineoplastic Agent,MOA
163,Pertuzumab,Drug
163,,Trial
162,Breast Cancer,Disease
162,Endocrine Therapy,MOA
162,Trastuzumab,Drug
162,Targeted Therapy,MOA
162,Pertuzumab,Drug
162,Hormone,MOA
130,Breast Cancer,Disease
130,Pembrolizumab,Drug
130,Antineoplastic Agent,MOA
130,Tumors,Disease
350,Breast Cancer,Disease
350,Pathological Complete Response,TrialEndPoint
350,Tumors,Disease
349,Breast Cancer,Disease
349,Breast Cancer,Disease
149,Breast Cancer,Disease
149,Breast Cancer,Disease
149,Baylor College of Medicine,Agency
149,,Trial
128,Triple Negative Breast cancer,Disease
129,Triple Negative Breast cancer,Disease
129,Cancer Immunotherapy,MOA
129,,Trial
148,Breast Cancer,Disease
148,Cancer,Disease
148,,Trial
123,Breast Cancer,Disease
123,Antineoplastic Agent,MOA
123,Monoclonal Antibody,MOA
123,Leronlimab,Drug
123,CCR5,Drug
123,Research Center,Agency
347,Pathological Complete Response,TrialEndPoint
347,Triple Negative Breast cancer,Disease
347,Carboplatin,Drug
347,Antineoplastic Agent,MOA
347,Tumors,Disease
346,Breast Cancer,Disease
131,Breast Cancer,Disease
131,Tumors,Disease
131,"Hisamitsu Pharmaceutical Co., Inc.",Agency
345,Breast Cancer,Disease
345,Disease-Free Survival,TrialEndPoint
344,Anthracycline,MOA
344,Breast Cancer,Disease
147,Breast Cancer,Disease
147,Breast Cancer,Disease
315,Breast Cancer,Disease
315,Tumors,Disease
315,Immune Cell,Agency
351,Antineoplastic Agent,MOA
351,Breast Cancer,Disease
351,,Trial
351,,Trial
352,Breast Cancer,Disease
352,Breast Cancer,Disease
354,Antineoplastic Agent,MOA
354,Breast Cancer,Disease
314,Breast Cancer,Disease
355,Antineoplastic Agent,MOA
355,Breast Cancer,Disease
313,Triple Negative Breast cancer,Disease
356,Triple Negative Breast cancer,Disease
356,Tumors,Disease
356,Complete Response,TrialEndPoint
312,Breast Cancer,Disease
357,Breast Cancer,Disease
357,Tumors,Disease
311,Breast Cancer,Disease
125,Antineoplastic Agent,MOA
125,Trastuzumab,Drug
125,Pertuzumab,Drug
125,Breast Cancer,Disease
125,Hoffmann-La Roche,Agency
125,Oncologie,Agency
125,Alveolar Rhabdomyosarcoma,Disease
358,Antineoplastic Agent,MOA
358,Breast Cancer,Disease
150,Breast Cancer,Disease
150,Baylor College of Medicine,Agency
150,,Trial
124,Breast Cancer,Disease
124,RC48-ADC,Drug
124,Antibody Drug Conjugate,MOA
341,Breast Cancer,Disease
341,Paclitaxel,Drug
341,Cyclophosphamide,Drug
341,Epirubicin,Drug
341,Triple Negative Breast cancer,Disease
341,Carboplatin,Drug
341,Antineoplastic Agent,MOA
133,Triple Negative Breast cancer,Disease
133,Tumors,Disease
320,Breast Cancer,Disease
321,Triple Negative Breast cancer,Disease
321,PARP Inhibitor,MOA
321,,Trial
321,,Trial
142,Atezolizumab,Drug
142,Breast Cancer,Disease
142,Complete Response,TrialEndPoint
142,,Trial
142,,Trial
145,Breast Cancer,Disease
145,Bio-Medical Research,Agency
145,,Trial
145,,Trial
324,Breast Cancer,Disease
324,Cross,Agency
325,Breast Cancer,Disease
326,Breast Cancer,Disease
327,Breast Cancer,Disease
327,Cholinergic Agent,MOA
327,Ava,Agency
327,,Trial
328,Breast Cancer,Disease
328,Aromatase Inhibitor,MOA
141,Breast Cancer,Disease
141,Pembrolizumab,Drug
141,Cancer,Disease
141,Antineoplastic Agent,MOA
141,Complete Response,TrialEndPoint
141,Karolinska Institutet,Agency
141,,Trial
140,Antineoplastic Agent,MOA
140,Durvalumab,Drug
140,Immuno,Agency
140,Breast Cancer,Disease
140,,Trial
330,Breast Cancer,Disease
331,Breast Carcinoma,Disease
331,Quantified,Agency
139,Paclitaxel,Drug
139,Antineoplastic Agent,MOA
139,Denosumab,Drug
139,Breast Cancer,Disease
139,,Trial
139,,Trial
138,Breast Cancer,Disease
138,Hoffmann-La Roche,Agency
138,Sarah Cannon,Agency
138,,Trial
138,,Trial
333,Breast Cancer,Disease
333,Tumors,Disease
316,Breast Cancer,Disease
319,Breast Cancer,Disease
319,Sun Yat-Sen University,Agency
137,Trastuzumab,Drug
137,Endocrine Therapy,MOA
137,Breast Cancer,Disease
137,Ado-Trastuzumab Emtansine,Drug
137,Hannover Medical School,Agency
137,"Genentech, Inc.",Agency
137,Roche Pharma AG,Agency
137,Myotonic Dystrophy Type 1,Disease
146,Breast Cancer,Disease
146,Research Center,Agency
146,,Trial
146,,Trial
334,Tumors,Disease
334,Breast Cancer,Disease
318,Breast Cancer,Disease
335,Breast Cancer,Disease
335,Tumors,Disease
335,Targeted Therapy,MOA
317,Breast Cancer,Disease
336,Breast Cancer,Disease
336,CARLSBAD,Agency
336,Novartis,Agency
336,,Trial
337,Paclitaxel,Drug
337,Antineoplastic Agent,MOA
337,Breast Cancer,Disease
338,Breast Cancer,Disease
135,Antineoplastic Agent,MOA
135,Breast Cancer,Disease
135,Tumors,Disease
135,,Trial
340,Antineoplastic Agent,MOA
340,Breast Cancer,Disease
340,Tumors,Disease
134,Antineoplastic Agent,MOA
134,Breast Cancer,Disease
134,CARLSBAD,Agency
310,Breast Cancer,Disease
122,Breast Cancer,Disease
122,Overall Survival,TrialEndPoint
122,Olaparib,Drug
122,Antineoplastic Agent,MOA
122,,Trial
122,,Trial
122,,Trial
122,,Trial
398,Breast Cancer,Disease
385,Breast Cancer,Disease
385,Cancer,Disease
157,Antineoplastic Agent,MOA
157,Phenobarbital,Drug
157,Breast Cancer,Disease
157,,Trial
109,Breast Cancer,Disease
109,Hormone,MOA
109,Bio-Medical Research,Agency
109,,Trial
388,Breast Cancer,Disease
388,Research Center,Agency
110,Breast Cancer,Disease
110,Hormone,MOA
110,Eli Lilly and Company,Agency
110,,Trial
110,,Trial
296,Breast Cancer,Disease
156,Breast Cancer,Disease
156,BRISTOL,Agency
298,Antineoplastic Agent,MOA
298,Breast Cancer,Disease
361,Paclitaxel,Drug
361,Breast Cancer,Disease
361,Bevacizumab,Drug
384,Breast Cancer,Disease
384,McMaster University,Agency
111,Allergy,Disease
111,Breast Cancer,Disease
383,Trastuzumab,Drug
383,Ado-Trastuzumab Emtansine,Drug
383,Ado-Trastuzumab Emtansine,Drug
383,Breast Cancer,Disease
383,,Trial
299,Inflammatory Breast Cancer,Disease
299,Tumors,Disease
382,Breast Cancer,Disease
154,Triple Negative Breast cancer,Disease
154,University of Texas MD Anderson Cancer Center,Agency
295,Breast Cancer,Disease
295,Tumors,Disease
108,Breast Cancer,Disease
108,Cyclin Dependent Kinase Inhibitor,MOA
158,Breast Cancer,Disease
158,,Trial
158,,Trial
106,Abemaciclib,Drug
106,Breast Cancer,Disease
106,Palbociclib,Drug
106,University of Texas MD Anderson Cancer Center,Agency
106,,Trial
392,Breast Cancer,Disease
392,Quality of Life,TrialEndPoint
159,Breast Cancer,Disease
159,,Trial
160,Tucatinib,Drug
160,Breast Cancer,Disease
160,Myotonic Dystrophy Type 1,Disease
394,Breast Cancer,Disease
394,Health-Related Quality of Life,TrialEndPoint
161,Trastuzumab,Drug
161,Capecitabine,Drug
161,Tucatinib,Drug
161,Breast Cancer,Disease
104,Breast Cancer,Disease
104,Allergy,Disease
104,CDK4/6 Inhibitor,MOA
396,Health-Related Quality of Life,TrialEndPoint
396,Breast Cancer,Disease
396,Taxane,Drug
396,Peripheral Neuropathy,Disease
103,CDK4/6 Inhibitor,MOA
103,Breast Cancer,Disease
103,,Trial
103,,Trial
102,Breast Cancer,Disease
102,CDK4/6 Inhibitor,MOA
102,Research Center,Agency
101,Breast Cancer,Disease
101,Immunotherapy,MOA
101,Triple Negative Breast cancer,Disease
101,Mayo Clinic,Agency
397,Antineoplastic Agent,MOA
397,Breast Cancer,Disease
397,Cognitive Impairment,Disease
112,Breast Cancer,Disease
112,Hope Cancer Institute,Agency
113,Breast Cancer,Disease
113,Hope Cancer Institute,Agency
380,Breast Cancer,Disease
152,Oncology,Disease
152,Breast Cancer,Disease
152,Immuno,Agency
152,Immunotherapy,MOA
362,Antineoplastic Agent,MOA
362,Interleukin-11,Drug
362,Breast Cancer,Disease
362,Tumors,Disease
362,Karolinska Institutet,Agency
151,Oncology,Disease
151,Breast Cancer,Disease
151,Immuno,Agency
151,Breast Cancer,Disease
151,Immunotherapy,MOA
308,Breast Cancer,Disease
308,Cancer,Disease
364,Antineoplastic Agent,MOA
364,Breast Cancer,Disease
365,Antineoplastic Agent,MOA
365,Breast Cancer,Disease
365,Research Center,Agency
366,Breast Cancer,Disease
366,Eribulin,Drug
307,Breast Cancer,Disease
307,Tumors,Disease
367,Breast Cancer,Disease
367,University of Texas MD Anderson Cancer Center,Agency
120,Breast Cancer,Disease
120,Paclitaxel,Drug
120,Veliparib,Drug
120,Carboplatin,Drug
368,Breast Cancer,Disease
368,Selective Progesterone Receptor Modulator,MOA
369,Breast Cancer,Disease
369,Prolactin,Drug
369,Hormone,MOA
305,Breast Cancer,Disease
370,Oxyphenbutazone,Drug
370,Breast Cancer,Disease
370,Research Center,Agency
153,Breast Cancer,Disease
153,Endocrine Therapy,MOA
153,Aromatase Inhibitor,MOA
153,Letrozole,Drug
153,Hormone,MOA
153,Breast Cancer,Disease
300,Breast Cancer,Disease
300,Bevacizumab,Drug
300,Tumors,Disease
300,,Trial
304,Breast Cancer,Disease
304,Tumors,Disease
304,,Trial
303,Breast Cancer,Disease
303,Aromatase Inhibitor,MOA
303,Anti-Inflammatory Agent,MOA
372,Breast Cancer,Disease
372,Metformin Orotate,Drug
373,Breast Cancer,Disease
373,Omega-3 Fatty Acid,Drug
117,Breast Cancer,Disease
117,Duavee,Drug
117,Bazedoxifene,Drug
375,Breast Cancer,Disease
377,Breast Cancer,Disease
377,Cancer,Disease
377,,Trial
116,Breast Cancer,Disease
378,Breast Cancer,Disease
378,,Trial
302,Inflammatory Breast Cancer,Disease
302,Tumors,Disease
302,Hormone,MOA
301,Triple Negative Breast cancer,Disease
379,Across,Agency
379,Deficiency,Disease
379,Inflammatory Breast Cancer,Disease
114,Breast Cancer,Disease
114,Estimate,Agency
114,Endocrine Therapy,MOA
114,Quality of Life,TrialEndPoint
490,Breast Cancer,Disease
482,Breast Cancer,Disease
482,Apatinib,Drug
492,Breast Cancer,Disease
596,Breast Cancer,Disease
596,,Trial
203,Selective Estrogen Receptor Down Regulator,MOA
203,Breast Cancer,Disease
203,GDC-9545,Drug
203,INCLIVA,Agency
203,"Genentech, Inc.",Agency
586,Breast Cancer,Disease
586,,Trial
243,Breast Cancer,Disease
588,Breast Cancer,Disease
588,Bio-Medical Research,Agency
588,,Trial
589,Breast Cancer,Disease
589,,Trial
204,Breast Cancer,Disease
204,Endoxifen,Drug
204,Tamoxifen,Drug
204,,Trial
591,Breast Cancer,Disease
591,Tumors,Disease
591,,Trial
242,Breast Cancer,Disease
205,Breast Cancer,Disease
205,RAD-1901,Drug
205,Epidermal Growth Factor,Drug
205,RAD-1901,Drug
205,Selective Estrogen Receptor Down Regulator,MOA
18,Breast Cancer,Disease
18,Breast Cancer,Disease
18,Cancer,Disease
592,Breast Cancer,Disease
592,,Trial
593,Triple Negative Breast cancer,Disease
593,,Trial
595,Breast Cancer,Disease
595,,Trial
17,Breast Cancer,Disease
15,Breast Cancer,Disease
15,Hormone,MOA
15,Breast Cancer,Disease
15,Hormone,MOA
597,Breast Cancer,Disease
597,,Trial
206,Everolimus,Drug
206,Breast Cancer,Disease
206,Sun Yat-Sen University,Agency
206,Research Center,Agency
206,,Trial
598,Breast Cancer,Disease
598,,Trial
599,Breast Cancer,Disease
599,ATHENA,Agency
599,,Trial
600,Breast Cancer,Disease
600,,Trial
600,,Trial
16,Breast Cancer,Disease
16,Breast Cancer,Disease
601,Breast Cancer,Disease
601,Cardiovascular Disease,Disease
601,Aromatase Inhibitor,MOA
601,,Trial
602,Breast Cancer,Disease
602,,Trial
603,Breast Cancer,Disease
603,,Trial
605,Breast Cancer,Disease
605,Baylor College of Medicine,Agency
605,,Trial
207,Selective Estrogen Receptor Down Regulator,MOA
207,Breast Cancer,Disease
207,Endocrine Therapy,MOA
207,LSZ-102,Drug
207,Bio-Medical Research,Agency
207,,Trial
606,Breast Cancer,Disease
606,Cross,Agency
606,,Trial
585,Breast Cancer,Disease
585,Cancer,Disease
585,,Trial
584,Breast Cancer,Disease
584,Berg,Agency
584,,Trial
583,Breast Cancer,Disease
583,,Trial
21,Cancer,Disease
21,Breast Cancer,Disease
565,Breast Cancer,Disease
565,,Trial
251,Breast Cancer,Disease
251,,Trial
566,Breast Cancer,Disease
566,,Trial
37,Trastuzumab,Drug
37,Capecitabine,Drug
37,Tucatinib,Drug
37,Breast Cancer,Disease
37,,Trial
197,Breast Cancer,Disease
197,Tumors,Disease
568,Breast Cancer,Disease
568,,Trial
249,Breast Cancer,Disease
249,ATHENA,Agency
248,Breast Cancer,Disease
248,,Trial
571,Triple Negative Breast cancer,Disease
571,,Trial
572,Breast Cancer,Disease
572,,Trial
572,,Trial
573,Breast Cancer,Disease
573,,Trial
247,Antineoplastic Agent,MOA
247,Breast Cancer,Disease
247,Sun Yat-Sen University,Agency
247,,Trial
247,,Trial
247,,Trial
574,Trastuzumab,Drug
574,Breast Cancer,Disease
574,,Trial
575,Breast Cancer,Disease
575,Roche Pharma AG,Agency
575,,Trial
32,PARP 1,Drug
32,Breast Cancer,Disease
32,Hormone,MOA
32,Cancer,Disease
67,Immunotherapy,MOA
67,Breast Cancer,Disease
67,Dendritic Cell Vaccine,Drug
200,Inflammatory Breast Cancer,Disease
200,University of Texas MD Anderson Cancer Center,Agency
246,Breast Cancer,Disease
246,Sun Yat-Sen University,Agency
246,,Trial
246,,Trial
246,,Trial
576,Prophylaxis,Disease
576,Antineoplastic Agent,MOA
576,Febrile Neutropenia,Disease
576,Breast Cancer,Disease
576,Research Center,Agency
576,,Trial
577,Breast Cancer,Disease
577,Disease-Free Survival,TrialEndPoint
577,,Trial
201,Breast Cancer,Disease
201,Endocrine Therapy,MOA
201,Baylor College of Medicine,Agency
27,Breast Cancer,Disease
26,Breast Cancer,Disease
26,Pfizer,Agency
26,Epigenomics,Agency
245,Breast Cancer,Disease
245,Aromatase Inhibitor,MOA
579,Breast Cancer,Disease
579,,Trial
580,Antineoplastic Agent,MOA
580,Breast Cancer,Disease
580,Cancer,Disease
580,,Trial
23,Endocrine Therapy,MOA
23,Breast Cancer,Disease
23,Endocrine Therapy,MOA
581,NOVO,Agency
581,Breast Cancer,Disease
581,,Trial
202,Breast Cancer,Disease
202,Growth Factor,MOA
208,Paclitaxel,Drug
208,Breast Cancer,Disease
208,Alisertib,Drug
208,MOUNTAIN,Agency
14,Breast Cancer,Disease
14,Hormone,MOA
38,Breast Cancer,Disease
38,Margetuximab,Drug
38,Antineoplastic Agent,MOA
38,Overall Survival,TrialEndPoint
38,Trastuzumab,Drug
38,HER-2 inhibitor,MOA
38,Sarah Cannon,Agency
38,,Trial
3,Breast Cancer,Disease
3,Immunotherapy,MOA
3,Breast Cancer,Disease
3,Immunotherapy,MOA
3,,Trial
214,Breast Cancer,Disease
233,Antineoplastic Agent,MOA
233,Breast Cancer,Disease
233,Complete Response,TrialEndPoint
215,Breast Cancer,Disease
215,Alternative splicing,MOA
216,Breast Cancer,Disease
232,Antineoplastic Agent,MOA
232,Breast Cancer,Disease
232,Tumors,Disease
217,Breast Cancer,Disease
231,Breast Cancer,Disease
231,Cancer,Disease
637,Cognitive Impairment,Disease
637,Breast Cancer,Disease
637,Tumors,Disease
637,,Trial
230,Breast Cancer,Disease
230,Bio-Medical Research,Agency
230,Research Center,Agency
5,Breast Cancer,Disease
228,Antineoplastic Agent,MOA
228,Breast Cancer,Disease
639,Cross,Agency
639,Breast Cancer,Disease
639,Endocrine Therapy,MOA
639,Hormone,MOA
639,,Trial
218,Tumors,Disease
218,Breast Cancer,Disease
641,Breast Cancer,Disease
641,Olanzapine,Drug
641,Nausea,Disease
641,Emesis,Disease
641,Antineoplastic Agent,MOA
641,,Trial
609,Breast Cancer,Disease
609,Ava,Agency
609,Optum,Agency
609,UnitedHealth Group,Agency
609,,Trial
2,Breast Cancer,Disease
2,Immunotherapy,MOA
2,Immunotherapy,MOA
642,Breast Cancer,Disease
642,,Trial
642,,Trial
643,Goserelin,Drug
643,Antineoplastic Agent,MOA
643,Breast Cancer,Disease
643,Quality of Life,TrialEndPoint
643,,Trial
643,,Trial
643,,Trial
227,Breast Cancer,Disease
645,Breast Cancer,Disease
645,,Trial
219,Antineoplastic Agent,MOA
219,Breast Cancer,Disease
219,,Trial
219,,Trial
646,Antineoplastic Agent,MOA
646,Alopecia,Disease
646,Breast Cancer,Disease
646,,Trial
647,Breast Cancer,Disease
647,Lymphedema,Disease
647,,Trial
648,Breast Cancer,Disease
648,Quality of Life,TrialEndPoint
648,,Trial
648,,Trial
648,,Trial
224,Breast Cancer,Disease
223,Breast Cancer,Disease
222,Breast Cancer,Disease
222,Tumors,Disease
222,Research Center,Agency
650,Breast Cancer,Disease
650,,Trial
651,Breast Cancer,Disease
651,Osteoporosis,Disease
651,,Trial
213,Breast Cancer,Disease
213,Tumors,Disease
635,Antineoplastic Agent,MOA
635,Breast Cancer,Disease
635,Quality of Life,TrialEndPoint
635,,Trial
7,Breast Cancer,Disease
7,Breast Cancer,Disease
610,Breast Cancer,Disease
610,,Trial
209,Breast Cancer,Disease
13,Breast Cancer,Disease
13,Hormone,MOA
13,Breast Cancer,Disease
13,Hormone,MOA
611,Breast Cancer,Disease
611,,Trial
613,Breast Cancer,Disease
613,Phenobarbital,Drug
613,Immune Response,Agency
613,Letrozole,Drug
613,Antineoplastic Agent,MOA
613,Nico,Agency
613,,Trial
613,,Trial
613,,Trial
614,Breast Cancer,Disease
614,Endocrine Therapy,MOA
614,,Trial
615,Breast Cancer,Disease
615,,Trial
616,Breast Cancer,Disease
616,Endocrine Therapy,MOA
616,Allergy,Disease
616,Antineoplastic Agent,MOA
616,Hormone,MOA
616,,Trial
210,Breast Cancer,Disease
211,Breast Cancer,Disease
618,Breast Cancer,Disease
618,Endocrine Therapy,MOA
618,,Trial
212,Breast Cancer,Disease
212,Hormone,MOA
212,Intercept Pharmaceuticals,Agency
620,Aromatase Inhibitor,MOA
620,Breast Cancer,Disease
620,Endocrine Therapy,MOA
620,Baylor College of Medicine,Agency
620,,Trial
12,Endocrine Therapy,MOA
12,Breast Cancer,Disease
621,Breast Cancer,Disease
621,,Trial
237,Breast Cancer,Disease
237,Triple Negative Breast cancer,Disease
237,Osteogenesis Imperfecta,Disease
622,Breast Cancer,Disease
622,,Trial
624,Breast Cancer,Disease
624,Oxyphenbutazone,Drug
624,Endoxifen,Drug
624,Tamoxifen,Drug
624,CYP2D6,Drug
624,,Trial
626,Endocrine Agent,MOA
626,Breast Cancer,Disease
626,,Trial
627,Breast Cancer,Disease
627,,Trial
628,Triple Negative Breast cancer,Disease
628,,Trial
629,Breast Cancer,Disease
629,Endocrine Therapy,MOA
629,Tumor Shrinkage,TrialEndPoint
629,,Trial
630,Breast Cancer,Disease
630,,Trial
631,Breast Cancer,Disease
631,,Trial
9,Breast Cancer,Disease
9,Tamoxifen,Drug
8,Breast Cancer,Disease
634,Breast Cancer,Disease
634,Netupitant,Drug
634,Antineoplastic Agent,MOA
634,Quality of Life,TrialEndPoint
634,Nausea,Disease
634,Emesis,Disease
634,Palonosetron,Drug
634,NEPA,Drug
634,,Trial
564,Abemaciclib,Drug
564,Breast Cancer,Disease
564,Eli Lilly and Company,Agency
564,,Trial
199,Breast Cancer,Disease
563,Breast Cancer,Disease
563,Diabetes,Disease
563,,Trial
51,Breast Cancer,Disease
51,Breast Cancer,Disease
51,,Trial
518,Breast Cancer,Disease
519,Breast Cancer,Disease
520,Lobular Breast Carcinoma,Disease
521,Breast Cancer,Disease
521,Tumors,Disease
54,Breast Cancer,Disease
54,Phenobarbital,Drug
54,Baylor College of Medicine,Agency
54,,Trial
53,Breast Cancer,Disease
53,,Trial
268,Quality of Life,TrialEndPoint
268,Breast Cancer,Disease
184,Atezolizumab,Drug
184,Antineoplastic Agent,MOA
184,Triple Negative Breast cancer,Disease
184,,Trial
523,Palbociclib,Drug
523,Breast Cancer,Disease
52,Breast Cancer,Disease
52,Breast Cancer,Disease
52,,Trial
185,Alpelisib,Drug
185,Triple Negative Breast cancer,Disease
185,Paclitaxel,Drug
185,Anthracycline,MOA
185,,Trial
525,Breast Cancer,Disease
525,,Trial
526,Triple Negative Breast cancer,Disease
526,,Trial
186,Breast Cancer,Disease
186,Gedatolisib,Drug
186,,Trial
537,Breast Cancer,Disease
537,Tumors,Disease
537,Research Center,Agency
537,,Trial
266,Breast Cancer,Disease
265,Palbociclib,Drug
265,Breast Cancer,Disease
265,Endocrine Therapy,MOA
265,Quality of Life,TrialEndPoint
264,Breast Cancer,Disease
264,,Trial
530,Breast Cancer,Disease
530,,Trial
531,Breast Cancer,Disease
531,,Trial
187,TAS-120,Drug
187,Growth Factor,MOA
187,futibatinib,Drug
187,Breast Cancer,Disease
187,University of Texas MD Anderson Cancer Center,Agency
187,"Taiho Oncology, Inc.",Agency
187,,Trial
187,,Trial
263,Breast Cancer,Disease
188,Breast Cancer,Disease
188,Endocrine Therapy,MOA
188,Ipatasertib,Drug
188,Tumors,Disease
188,Hormone,MOA
188,AKT Inhibitor,MOA
188,,Trial
188,,Trial
188,,Trial
188,,Trial
534,Breast Cancer,Disease
534,,Trial
535,Breast Cancer,Disease
535,,Trial
536,Breast Cancer,Disease
536,Tumors,Disease
536,,Trial
262,Antineoplastic Agent,MOA
262,Breast Cancer,Disease
262,Quality of Life,TrialEndPoint
262,,Trial
50,Breast Cancer,Disease
50,,Trial
183,Breast Cancer,Disease
183,Endocrine Therapy,MOA
183,Abemaciclib,Drug
183,Epidermal Growth Factor,Drug
183,Hormone,MOA
183,Nivolumab,Drug
183,Research Center,Agency
183,,Trial
183,,Trial
55,NOVO,Agency
55,CDK4/6 Inhibitor,MOA
55,Breast Cancer,Disease
55,Eli Lilly and Company,Agency
515,Breast Cancer,Disease
56,Breast Cancer,Disease
66,Immunotherapy,MOA
66,Breast Cancer,Disease
66,Paclitaxel,Drug
66,Immunotherapy,MOA
66,Eftilagimod,Drug
66,Hormone,MOA
66,Immutep,Agency
65,Immunotherapy,MOA
65,Triple Negative Breast cancer,Disease
65,Ipilimumab,Drug
65,Antineoplastic Agent,MOA
65,Nivolumab,Drug
65,,Trial
494,Breast Cancer,Disease
494,Tumors,Disease
494,Cancer,Disease
494,,Trial
64,Immunotherapy,MOA
64,Breast Cancer,Disease
64,Tumors,Disease
63,Immunotherapy,MOA
63,Pembrolizumab,Drug
63,Antineoplastic Agent,MOA
63,Breast Cancer,Disease
63,Decitabine,Drug
179,Antineoplastic Agent,MOA
179,Endocrine Therapy,MOA
179,Breast Cancer,Disease
179,Nivolumab,Drug
179,,Trial
179,,Trial
274,Breast Cancer,Disease
274,,Trial
62,Immunotherapy,MOA
62,Talimogene Laherparepvec,Drug
62,Breast Cancer,Disease
62,Atezolizumab,Drug
62,Antineoplastic Agent,MOA
62,Talimogene Laherparepvec,Drug
495,Breast Cancer,Disease
495,,Trial
273,Tumors,Disease
273,Breast Cancer,Disease
498,Breast Cancer,Disease
499,NOVO,Agency
499,Breast Cancer,Disease
61,Palbociclib,Drug
61,Aromatase Inhibitor,MOA
61,Breast Cancer,Disease
61,Endocrine Therapy,MOA
61,Epidermal Growth Factor,Drug
61,Capecitabine,Drug
61,INCLIVA,Agency
61,Nico,Agency
61,Breast Cancer,Disease
61,,Trial
61,,Trial
61,,Trial
61,,Trial
61,,Trial
61,,Trial
61,,Trial
500,Breast Cancer,Disease
500,,Trial
500,,Trial
501,Breast Cancer,Disease
181,Pembrolizumab,Drug
181,Breast Cancer,Disease
181,Carboplatin,Drug
181,,Trial
181,,Trial
181,,Trial
182,Pembrolizumab,Drug
182,Triple Negative Breast cancer,Disease
182,Ruxolitinib,Drug
182,Mayo Clinic,Agency
182,,Trial
506,Breast Cancer,Disease
507,NOVO,Agency
507,Breast Cancer,Disease
507,Research Center,Agency
508,Breast Cancer,Disease
508,,Trial
60,Antineoplastic Agent,MOA
60,Phenobarbital,Drug
60,Breast Cancer,Disease
60,Letrozole,Drug
60,Nico,Agency
60,CERES,Agency
60,Alveolar Rhabdomyosarcoma,Disease
60,,Trial
60,,Trial
510,Breast Cancer,Disease
510,Lymphedema,Disease
271,Antineoplastic Agent,MOA
271,Breast Cancer,Disease
270,Breast Cancer,Disease
269,Antineoplastic Agent,MOA
269,Optima,Drug
269,Breast Cancer,Disease
269,Bio-Medical Research,Agency
269,BRISTOL,Agency
513,Disease-Free Survival,TrialEndPoint
513,Breast Cancer,Disease
513,Tumors,Disease
58,Breast Cancer,Disease
58,Endocrine Therapy,MOA
58,Karolinska Institutet,Agency
57,Breast Cancer,Disease
49,Breast Cancer,Disease
49,,Trial
49,,Trial
529,Breast Cancer,Disease
529,,Trial
261,Habit,Agency
261,Breast Cancer,Disease
261,,Trial
546,Breast Cancer,Disease
546,University of Texas MD Anderson Cancer Center,Agency
546,,Trial
190,Breast Cancer,Disease
190,Endocrine Therapy,MOA
190,Eribulin,Drug
44,Breast Cancer,Disease
44,Docetaxel,Drug
44,Epirubicin,Drug
44,Cyclophosphamide,Drug
44,Capecitabine,Drug
259,Breast Cancer,Disease
259,CNS Disorder,Disease
548,Breast Cancer,Disease
548,,Trial
550,PARP 1,Drug
550,Breast Cancer,Disease
550,Cancer,Disease
550,,Trial
550,,Trial
191,Breast Cancer,Disease
191,Quality of Life,TrialEndPoint
191,,Trial
193,Breast Cancer,Disease
193,Cancer,Disease
194,Breast Cancer,Disease
41,Breast Cancer,Disease
41,Paclitaxel,Drug
41,Ado-Trastuzumab Emtansine,Drug
41,Ado-Trastuzumab Emtansine,Drug
41,Trastuzumab,Drug
41,MOUNTAIN,Agency
41,Breast Cancer,Disease
41,Myotonic Dystrophy Type 1,Disease
552,Breast Cancer,Disease
552,,Trial
552,,Trial
554,Locoregional,Drug
554,Breast Cancer,Disease
554,,Trial
253,Breast Cancer,Disease
253,,Trial
555,Breast Cancer,Disease
555,,Trial
40,Breast Cancer,Disease
40,Antineoplastic Agent,MOA
40,Overall Survival,TrialEndPoint
40,Trastuzumab,Drug
40,Pertuzumab,Drug
40,Hoffmann-La Roche,Agency
40,,Trial
40,,Trial
40,,Trial
557,Breast Cancer,Disease
557,Tumors,Disease
557,,Trial
252,Breast Cancer,Disease
252,Tumors,Disease
252,Cancer,Disease
252,,Trial
558,Breast Cancer,Disease
558,,Trial
558,,Trial
559,Breast Cancer,Disease
559,,Trial
560,Triple Negative Breast cancer,Disease
560,Roche Pharma AG,Agency
560,,Trial
561,Antineoplastic Agent,MOA
561,Triple Negative Breast cancer,Disease
561,,Trial
562,Breast Cancer,Disease
562,Endocrine Therapy,MOA
562,Hormone,MOA
562,,Trial
39,Breast Cancer,Disease
39,Trastuzumab Deruxtecan,Drug
39,Trastuzumab Deruxtecan,Drug
39,Ado-Trastuzumab Emtansine,Drug
39,SANKYO,Agency
39,Myotonic Dystrophy Type 1,Disease
547,Breast Cancer,Disease
547,CYT-0851,Drug
547,PARP Inhibitor,MOA
547,Cancer,Disease
547,Cyteir Therapeutics,Agency
547,,Trial
547,,Trial
258,Breast Cancer,Disease
258,Nivolumab,Drug
323,Breast Cancer,Disease
323,Tumors,Disease
545,Breast Cancer,Disease
545,Fertility,Agency
545,,Trial
260,Breast Cancer,Disease
260,Breast Cancer,Disease
260,Breast Cancer,Disease
541,Breast Cancer,Disease
541,,Trial
540,Breast Cancer,Disease
540,Progesterone,MOA
540,,Trial
543,Breast Cancer,Disease
543,,Trial
539,Triple Negative Breast cancer,Disease
539,,Trial
45,Breast Cancer,Disease
45,Endocrine Therapy,MOA
45,Epidermal Growth Factor,Drug
45,Hormone,MOA
45,Mitaka,Agency
189,Paclitaxel,Drug
189,Breast Cancer,Disease
189,Capivasertib,Drug
189,AstraZeneca,Agency
189,,Trial
48,Breast Cancer,Disease
48,Cancer,Disease
48,,Trial
48,,Trial
1390,,
1329,Hoffmann-La Roche,Agency
195,Oncology,Disease
1363,,
1364,Taxane,Drug
1364,Peripheral Neuropathy,Disease
1299,Cancer,Disease
1350,,Trial
1351,,
1325,Antimetabolite,MOA
1314,Antineoplastic Agent,MOA
1314,Eribulin,Drug
220,Ado-Trastuzumab Emtansine,Drug
220,Paclitaxel,Drug
220,Trastuzumab,Drug
220,Ado-Trastuzumab Emtansine,Drug
220,MOUNTAIN,Agency
220,Myotonic Dystrophy Type 1,Disease
196,Ductal Carcinoma in Situ,Disease
196,Baylor College of Medicine,Agency
1330,,
180,Pembrolizumab,Drug
180,Targeted Therapy,MOA
180,Immunotherapy,MOA
180,,Trial
198,,
1392,,
1347,Research Center,Agency
1347,Progressive Multifocal Leukoencephalopathy,Disease
1398,,
1383,,
1396,Anthracycline,MOA
1396,Antineoplastic Agent,MOA
1396,Alopecia,Disease
1385,,
1402,,
1307,,
1319,Trastuzumab Biosimilar,Drug
1319,Trastuzumab,Drug
1319,Pertuzumab,Drug
1387,Endometrial Cancer,Disease
155,Hormone,MOA
155,,Trial
155,,Trial
1343,,
1404,Oncology,Disease
1404,Tamoxifen,Drug
1399,,
1379,,
192,Narcotic Agonist,MOA
192,,Trial
1407,"Genentech, Inc.",Agency
1321,,
1341,Disease-Free Survival,TrialEndPoint
1341,Ductal Carcinoma in Situ,Disease
1374,Ductal Carcinoma in Situ,Disease
1366,STAT 3,Drug
143,Immuno,Agency
143,,Trial
1609,Metabolic Syndrome,Disease
1600,Antineoplastic Agent,MOA
1600,Targeted Therapy,MOA
1600,,Trial
47,Myocardial Infarction,Disease
46,5-Fluorouracil,Drug
43,Capecitabine,Drug
43,Antineoplastic Agent,MOA
1605,,
1606,Ductal Carcinoma in Situ,Disease
42,,
1608,,
1612,Ductal Carcinoma in Situ,Disease
1612,Hackensack Meridian Health,Agency
1612,,Trial
1613,Ductal Carcinoma in Situ,Disease
1616,Ductal Carcinoma in Situ,Disease
1616,Growth Factor,MOA
36,Tumors,Disease
36,for ag-221,Drug
35,,
1622,,Trial
34,,
1596,,Trial
1595,,
1568,Cancer,Disease
1569,,
1572,Ovarian Cancer,Disease
59,,
1575,Cancer,Disease
1576,,
1580,,
1583,Across,Agency
1583,,Trial
1583,,Trial
1584,Cancer,Disease
1588,,
1589,,
1591,Ovarian Cancer,Disease
1592,Across,Agency
1592,Cancer,Disease
1592,Progenity,Agency
1593,Ovarian Cancer,Disease
1593,Tumors,Disease
1594,,
33,PARP 1,Drug
33,PARP 1,Drug
1565,Cancer,Disease
1565,,Trial
1679,Research Center,Agency
1668,,
1669,,
1670,,
1671,,
1672,,Trial
1673,,Trial
1674,Antineoplastic Agent,MOA
1674,,Trial
1675,Infection,Disease
1676,,
1677,,
1678,Research Center,Agency
6,University of Texas MD Anderson Cancer Center,Agency
31,PARP 1,Drug
31,PARP 1,Drug
4,,
1685,,
1686,McMaster University,Agency
1687,Endocrine Therapy,MOA
1688,,
1689,Endocrine Therapy,MOA
1690,Ductal Carcinoma in Situ,Disease
1691,Ductal Carcinoma,Disease
1691,Endocrine Therapy,MOA
1691,Cancer,Disease
1691,,Trial
1692,,
1663,Tumors,Disease
1663,FRED'S,Agency
10,Endocrine Therapy,MOA
10,Baylor College of Medicine,Agency
11,Endocrine Therapy,MOA
11,Endocrine Therapy,MOA
30,Complete Response,TrialEndPoint
29,,
28,,
25,,
24,Endocrine Therapy,MOA
24,Endocrine Therapy,MOA
22,Endocrine Therapy,MOA
22,Endocrine Therapy,MOA
20,Cancer,Disease
19,Cancer,Disease
1642,,
1646,,
1650,,Trial
1651,,
1656,,Trial
1657,Oncology,Disease
1658,Cancer,Disease
1659,,
1566,Ava,Agency
1456,Sandoz,Agency
1456,Pegfilgrastim,Drug
121,Solid Tumor,Disease
121,CX-5461,Drug
121,Deficiency,Disease
1450,Ado-Trastuzumab Emtansine,Drug
1450,FRED'S,Agency
119,Aromatase Inhibitor,MOA
119,Sulindac,Drug
1452,Pegfilgrastim,Drug
118,Tamoxifen,Drug
1454,HER-2 inhibitor,MOA
1454,Mayo Clinic,Agency
1455,Ado-Trastuzumab Emtansine,Drug
1455,Peripheral Neuropathy,Disease
1455,FRED'S,Agency
1457,Side Effects,TrialEndPoint
1457,Letrozole,Drug
1457,Mayo Clinic,Agency
1472,,
1460,Edema,Disease
1460,Ado-Trastuzumab Emtansine,Drug
1460,Myotonic Dystrophy Type 1,Disease
115,Lobular Carcinoma,Disease
1465,Paclitaxel,Drug
1465,Peripheral Neuropathy,Disease
1467,Tumors,Disease
1467,,Trial
1469,,Trial
1421,Palbociclib,Drug
1421,,Trial
1421,,Trial
1423,,
1424,Endocrine Therapy,MOA
1424,Cancer,Disease
136,Antineoplastic Agent,MOA
136,,Trial
132,Tumors,Disease
132,Research Center,Agency
127,SBT-6050,Drug
127,TLR8 Agonist,MOA
127,Tumors,Disease
127,Antibody,MOA
127,HER-2 inhibitor,MOA
126,Paclitaxel,Drug
126,Trastuzumab,Drug
126,,Trial
1439,,
1440,,
1442,Antineoplastic Agent,MOA
1442,Peripheral Neuropathy,Disease
1442,Cancer,Disease
1444,University of Texas MD Anderson Cancer Center,Agency
1470,,Trial
1474,HER-2 inhibitor,MOA
1474,Cancer,Disease
1474,Bio-Medical Research,Agency
1474,INCLIVA,Agency
80,Antineoplastic Agent,MOA
80,Prophylaxis,Disease
80,Pegfilgrastim,Drug
80,Antineoplastic Agent,MOA
80,Febrile Neutropenia,Disease
80,MOUNTAIN,Agency
80,OBI Pharma,Agency
80,,Trial
1533,Cancer,Disease
1534,,
1536,Ductal Carcinoma,Disease
1536,Ductal Carcinoma in Situ,Disease
1539,,
1542,Tumors,Disease
1546,Metaplastic Breast Cancer,Disease
1475,Allergy,Disease
1475,Targeted Therapy,MOA
1548,Sun Yat-Sen University,Agency
70,Antineoplastic Agent,MOA
1552,,
1555,Lynch Syndrome,Disease
1556,Ovarian Cancer,Disease
1557,Lobular Carcinoma,Disease
1557,Cancer,Disease
1558,,
1531,,
1530,,
1528,Antineoplastic Agent,MOA
1528,CUDC-101,Drug
1528,Mayo Clinic,Agency
1476,Mayo Clinic,Agency
1477,Mayo Clinic,Agency
1479,,
107,Abemaciclib,Drug
107,Non Steroidal Aromatase Inhibitor,MOA
107,Tumors,Disease
107,Eli Lilly and Company,Agency
107,,Trial
1482,,
105,Abemaciclib,Drug
105,CDK4/6 Inhibitor,MOA
1485,,
1492,,
1498,,
1500,Aromatase Inhibitor,MOA
1500,,Trial
1507,AZD-9496,Drug
1507,Selective Estrogen Receptor Down Regulator,MOA
1507,Fulvestrant,Drug
1507,AstraZeneca,Agency
1513,,
1515,Endocrine Therapy,MOA
1515,,Trial
88,Solid Tumor,Disease
88,PI3K inhibitor,MOA
88,GDC-0077,Drug
88,"Genentech, Inc.",Agency
88,,Trial
1517,Allergy,Disease
1517,PI3K inhibitor,MOA
1517,Endocrine Therapy,MOA
1517,Estrogen Antagonist,MOA
1517,,Trial
1523,,
294,Research Center,Agency
294,,Trial
497,Antibiotic,MOA
497,Surgical Site Infection,Disease
496,Narcotic Agonist,MOA
496,,Trial
878,,
493,Cancer,Disease
882,Cancer,Disease
882,Atengenal,Drug
491,,
886,Cancer,Disease
886,Ductal Carcinoma in Situ,Disease
886,Cancer,Disease
487,,
890,Metaplastic Breast Cancer,Disease
891,Antineoplastic Agent,MOA
891,Peripheral Neuropathy,Disease
483,Depression,Disease
483,Health Solutions,Agency
481,Novartis,Agency
480,Novartis,Agency
899,,Trial
902,Melanoma,Disease
502,,
833,Bioscience,Agency
528,Cross,Agency
528,,Trial
836,Ductal Carcinoma in Situ,Disease
837,,
838,,
527,Antineoplastic Agent,MOA
527,Pathological Complete Response,TrialEndPoint
527,,Trial
524,Quality of Life,TrialEndPoint
522,Tumors,Disease
522,Cancer,Disease
847,,
503,,
517,,
516,,
853,,
514,Fibromatoses,Disease
512,,
511,,
861,,Trial
861,,Trial
509,,
505,,
504,,
477,Health Solutions,Agency
829,,
908,,
433,Ado-Trastuzumab Emtansine,Drug
433,FRED'S,Agency
429,Ductal Carcinoma,Disease
429,Cancer,Disease
964,,
977,ABBV-321,Drug
977,Navitoclax,Drug
977,Navitoclax,Drug
977,ABT-414,Drug
977,AbbVie,Agency
977,AbbVie,Agency
977,,Trial
977,,Trial
978,Reparixin,Drug
978,Paclitaxel,Drug
978,Dompe Farmaceutici S.p.A,Agency
414,Antineoplastic Agent,MOA
414,Herceptin,Drug
982,Solid Tumor,Disease
982,Minerva,Agency
982,,Trial
982,,Trial
983,PARP Inhibitor,MOA
983,Roche Pharma AG,Agency
983,,Trial
984,Methionine,Drug
984,Alpelisib,Drug
984,Aminopeptidase,Drug
984,SDX-7320,Drug
984,Piqray,Drug
984,Tumors,Disease
988,,
989,Carboplatin,Drug
989,Veliparib,Drug
989,Dasatinib,Drug
989,Tumors,Disease
994,Ado-Trastuzumab Emtansine,Drug
994,Taxane,Drug
994,Peripheral Neuropathy,Disease
994,Cancer,Disease
407,,
404,Cancer,Disease
404,Thrivors,Agency
436,Pertuzumab,Drug
951,,
438,,
471,Cancer,Disease
471,University of Texas MD Anderson Cancer Center,Agency
911,Cancer,Disease
468,CDK4/6 Inhibitor,MOA
468,,Trial
468,,Trial
917,,
460,Letrozole,Drug
460,Cancer,Disease
460,Everolimus,Drug
460,Trastuzumab,Drug
460,Hormone,MOA
460,University of Texas MD Anderson Cancer Center,Agency
439,,
457,Capivasertib,Drug
457,Bio-Medical Research,Agency
457,BRISTOL,Agency
457,,Trial
457,,Trial
928,,
929,Antineoplastic Agent,MOA
929,Anthracycline,MOA
930,Metaplastic Breast Cancer,Disease
447,Fulvestrant,Drug
447,Bio-Medical Research,Agency
447,BRISTOL,Agency
447,,Trial
942,,
444,Sun Yat-Sen University,Agency
442,MT-5111,Drug
442,Targeted Therapy,MOA
442,Molecular Templates,Agency
948,Pembrolizumab,Drug
832,,
633,,Trial
632,Endocrine Therapy,MOA
632,,Trial
625,Lobular Carcinoma,Disease
625,,Trial
623,Tamoxifen,Drug
623,,Trial
706,,Trial
708,BRISTOL,Agency
708,,Trial
619,Palbociclib,Drug
619,Tumors,Disease
619,,Trial
619,,Trial
619,,Trial
619,,Trial
619,,Trial
619,,Trial
617,GDC-9545,Drug
617,Endocrine Agent,MOA
617,"Genentech, Inc.",Agency
617,,Trial
612,,Trial
720,Bio-Medical Research,Agency
720,,Trial
608,,Trial
607,Ovarian Cancer,Disease
607,Origin,Agency
607,,Trial
607,,Trial
607,,Trial
725,,Trial
604,Antineoplastic Agent,MOA
604,Complete Response Rate,TrialEndPoint
604,Retinal Occlusion,Disease
604,,Trial
730,Antineoplastic Agent,MOA
730,Lobular Carcinoma,Disease
730,Research Center,Agency
730,,Trial
733,Oncology,Disease
733,,Trial
735,Pathological Complete Response,TrialEndPoint
735,Anthracycline,MOA
735,Targeted Therapy,MOA
735,,Trial
737,Antineoplastic Agent,MOA
737,Phenobarbital,Drug
737,,Trial
594,,Trial
689,,Trial
640,ATHENA,Agency
640,ATHENA,Agency
640,,Trial
649,Paclitaxel,Drug
649,Trastuzumab,Drug
649,Ado-Trastuzumab Emtansine,Drug
649,Ado-Trastuzumab Emtansine,Drug
649,Amenorrhea,Disease
649,Antineoplastic Agent,MOA
649,MOUNTAIN,Agency
649,Myotonic Dystrophy Type 1,Disease
649,,Trial
657,,Trial
662,,Trial
662,,Trial
662,,Trial
662,,Trial
644,Nausea,Disease
644,Antineoplastic Agent,MOA
644,,Trial
669,,Trial
638,Oncology,Disease
638,Quality of Life,TrialEndPoint
638,,Trial
636,Anthracycline,MOA
636,Cyclophosphamide,Drug
636,Nausea,Disease
636,Emesis,Disease
636,HT3,Drug
636,Antineoplastic Agent,MOA
636,NEPA,Drug
636,Adenosquamous Carcinoma,Disease
636,,Trial
636,,Trial
676,,Trial
677,Antineoplastic Agent,MOA
677,,Trial
678,,Trial
680,Lobular Carcinoma,Disease
680,Endocrine Therapy,MOA
680,,Trial
681,Antineoplastic Agent,MOA
681,Mortality,TrialEndPoint
681,,Trial
682,,Trial
684,Tegafur,Drug
684,,Trial
686,,Trial
590,,Trial
532,Allergy,Disease
532,,Trial
587,,Trial
793,,
795,,
553,,Trial
799,,
551,Phenobarbital,Drug
551,,Trial
802,,
803,,
549,Cisplatin,Drug
549,,Trial
807,,Trial
544,,Trial
812,Ductal Carcinoma in Situ,Disease
542,,Trial
817,Metaplastic Breast Cancer,Disease
817,,Trial
538,,Trial
823,Obesity,Disease
823,Tumors,Disease
823,,Trial
823,,Trial
823,,Trial
533,,Trial
556,Ductal Carcinoma in Situ,Disease
556,,Trial
556,,Trial
790,,
765,,Trial
582,,Trial
758,,Trial
759,,Trial
760,Artemisinin,Drug
760,,Trial
578,Mortality,TrialEndPoint
578,Ductal Carcinoma in Situ,Disease
578,,Trial
764,,Trial
764,,Trial
770,Cancer,Disease
774,,
570,,Trial
569,,Trial
776,,
567,,Trial
779,,
1227,,
1187,Lobular Carcinoma,Disease
1187,Cancer,Disease
1188,,
1189,,
1191,,Trial
1194,,
1195,,
1196,,
1197,,Trial
1198,Palbociclib,Drug
1198,Fulvestrant,Drug
1198,Trastuzumab,Drug
1198,Pertuzumab,Drug
1198,Tumors,Disease
1198,,Trial
1210,Cross,Agency
1210,ATHENA,Agency
275,,Trial
1214,Oncology,Disease
1215,Cancer,Disease
1218,,
272,Tumors,Disease
272,Tumors,Disease
272,,Trial
272,,Trial
1225,,
1186,,Trial
1171,Radiation Therapy,MOA
1165,,
297,,
1169,Hypofractionated,Disease
1169,Radiation Therapy,MOA
1169,Cancer,Disease
1172,,Trial
291,,
652,MOUNTAIN,Agency
652,,Trial
1174,,
1175,,
293,,
1177,,
292,,
1179,Estimate,Agency
1179,Cancer,Disease
1180,,
1181,,
1182,,
267,Afimoxifene,Drug
1266,,
241,,
240,CDK4/6 Inhibitor,MOA
239,,Trial
239,,Trial
1270,Cancer,Disease
238,Cancer,Disease
238,,Trial
238,,Trial
1273,,
1274,Ataxia Telangiectasia,Disease
1274,Cancer,Disease
236,Complete Response,TrialEndPoint
235,Antineoplastic Agent,MOA
235,Tumors,Disease
235,Complete Response,TrialEndPoint
235,Baylor College of Medicine,Agency
234,Antineoplastic Agent,MOA
234,Cancer,Disease
234,University of Texas MD Anderson Cancer Center,Agency
1281,Ovarian Cancer,Disease
229,Cancer,Disease
229,,Trial
226,Aromatase Inhibitor,MOA
226,Research Center,Agency
225,Endocrine Therapy,MOA
244,Antineoplastic Agent,MOA
1262,Ductal Carcinoma in Situ,Disease
254,Ava,Agency
254,ATHENA,Agency
1232,Radiation Therapy,MOA
257,Ductal Carcinoma in Situ,Disease
257,,Trial
257,,Trial
1243,Allergy,Disease
256,,Trial
256,,Trial
256,,Trial
256,,Trial
255,Ductal Carcinoma in Situ,Disease
255,FRED'S,Agency
1261,Ductal Carcinoma in Situ,Disease
1261,University of Texas MD Anderson Cancer Center,Agency
1261,Tilman,Agency
250,,Trial
1255,,
1256,Cancer,Disease
1258,Baylor College of Medicine,Agency
1258,McMaster University,Agency
1258,Tilman,Agency
1259,Pathology,Disease
1259,Hyperplasia,Disease
306,Palbociclib,Drug
306,Allergy,Disease
306,Phenobarbital,Drug
1152,VEGF Inhibitor,MOA
1152,Secondary Hypertension,Disease
1152,,Trial
1030,,
1031,Fluorescein,Drug
376,,Trial
374,,
1041,Antineoplastic Agent,MOA
1041,Pathological Complete Response,TrialEndPoint
1041,,Trial
1041,,Trial
1043,,
371,Anthracycline,MOA
371,Allergy,Disease
371,Antineoplastic Agent,MOA
1045,,
1046,Antineoplastic Agent,MOA
1048,,
1049,,
1052,,
1053,,
1054,,
1057,,
1060,Palbociclib,Drug
1060,CDK4/6 Inhibitor,MOA
363,Karolinska Institutet,Agency
1063,,
360,,
359,Antineoplastic Agent,MOA
359,Pathological Complete Response,TrialEndPoint
381,,
1017,Ductal Carcinoma,Disease
1017,Lobular Carcinoma,Disease
1017,Tumors,Disease
1011,,
395,,
393,,
391,,
390,Ductal Carcinoma in Situ,Disease
389,,
387,Acute Ischemic Stroke,Disease
387,,Trial
386,,
1068,Allergy,Disease
1068,Cancer,Disease
1069,Acinar Cell Carcinoma,Disease
1069,,Trial
332,,
329,Omega-3 Fatty Acid,Drug
329,,Trial
1123,,
322,,
1128,,Trial
1131,Trastuzumab,Drug
1131,Pertuzumab,Drug
1131,Tumors,Disease
1132,Tumors,Disease
1132,LSZ-102,Drug
1132,Bio-Medical Research,Agency
1132,,Trial
1132,,Trial
1135,,Trial
1135,,Trial
1136,Targeted Therapy,MOA
1136,Tumors,Disease
1137,Antineoplastic Agent,MOA
1137,,Trial
1137,,Trial
1139,Skin Rash,Disease
1142,Endocrine Therapy,MOA
1145,,Trial
309,Cancer,Disease
1148,CDK4/6 Inhibitor,MOA
1074,Epithelial Cancer,Disease
1076,,
353,Antineoplastic Agent,MOA
1081,Cancer,Disease
348,,
1088,University of Texas MD Anderson Cancer Center,Agency
1089,Cancer,Disease
1091,Tumors,Disease
1092,,
343,Ductal Carcinoma in Situ,Disease
342,Antineoplastic Agent,MOA
342,Tumors,Disease
342,,Trial
1102,,
339,,
865,Overall Survival,TrialEndPoint
865,Eli Lilly and Company,Agency
865,,Trial
