k_drug_id,k_drug
DRU026156,Trastuzumab
DRU003404,Abemaciclib
DRU004190,Paclitaxel
DRU003254,Letrozole
DRU005954,ABBV-321
DRU026496,Epidermal Growth Factor
DRU003404,Abemaciclib
DRU005180,Tamoxifen
DRU004322,Pertuzumab
DRU003934,Niraparib
DRU003254,Letrozole
DRU021132,PMD-026
DRU026156,Trastuzumab
DRU003404,Abemaciclib
DRU003955,Nivolumab
DRU027317,haNK
DRU004356,Phenobarbital
DRU026496,Epidermal Growth Factor
DRU026831,Bintrafusp Alfa
DRU011028,GDC-9545
DRU002641,Fulvestrant
DRU004195,Palbociclib
DRU004195,Palbociclib
DRU003254,Letrozole
DRU026156,Trastuzumab
DRU026831,Bintrafusp Alfa
DRU000250,AL-3818
DRU004190,Paclitaxel
DRU026496,Epidermal Growth Factor
DRU023460,CYP2D6
DRU004884,Saracatinib
DRU003955,Nivolumab
DRU004190,Paclitaxel
DRU013467,LSZ-102
DRU004195,Palbociclib
DRU001202,Cabozantinib
DRU003764,Atezolizumab
DRU023185,PVX-410
DRU002641,Fulvestrant
DRU001527,Cirmtuzumab
DRU003075,Ipilimumab
,Endoxifen
DRU004195,Palbociclib
DRU026156,Trastuzumab
DRU002017,Docetaxel
DRU003865,Neratinib
DRU004269,Pembrolizumab
DRU003404,Abemaciclib
DRU019241,TTC-352
DRU004356,Phenobarbital
DRU003441,Margetuximab
DRU004269,Pembrolizumab
DRU001531,Cisplatin
DRU002269,Eribulin
DRU026156,Trastuzumab
DRU004269,Pembrolizumab
DRU019845,Xentuzumab
DRU003404,Abemaciclib
DRU004049,Olanzapine
DRU009146,CYT-0851
DRU000679,Avelumab
DRU004269,Pembrolizumab
DRU004190,Paclitaxel
DRU002386,Everolimus
DRU010049,Eflapegrastim
DRU004356,Phenobarbital
DRU026450,Lymfactin
DRU011498,GT-0918
DRU004195,Palbociclib
DRU004195,Palbociclib
DRU026786,Tucatinib
DRU026156,Trastuzumab
DRU004195,Palbociclib
DRU004190,Paclitaxel
DRU003441,Margetuximab
DRU002017,Docetaxel
DRU004269,Pembrolizumab
DRU004269,Pembrolizumab
DRU023644,Trastuzumab Biosimilar
DRU002086,Durvalumab
DRU004195,Palbociclib
DRU001245,Capecitabine
DRU004190,Paclitaxel
DRU002269,Eribulin
DRU004190,Paclitaxel
DRU004190,Paclitaxel
DRU002054,Doxorubicin
DRU002700,Gemcitabine
DRU003254,Letrozole
DRU002386,Everolimus
DRU004195,Palbociclib
DRU026156,Trastuzumab
DRU004195,Palbociclib
,Trimebutine
DRU026156,Trastuzumab
DRU026156,Trastuzumab
DRU026156,Trastuzumab
DRU004686,RAD-1901
DRU011012,GDC-0084
DRU026156,Trastuzumab
DRU019105,Trastuzumab and Hyaluronidase-Oysk
DRU016819,RAD-140
DRU026786,Tucatinib
DRU004322,Pertuzumab
,AZD-9496
DRU018647,Taxane
DRU000519,Apatinib
DRU004686,RAD-1901
DRU003764,Atezolizumab
DRU002054,Doxorubicin
DRU026156,Trastuzumab
DRU000199,Ado-Trastuzumab Emtansine
DRU013414,Locoregional
DRU005453,Trastuzumab Deruxtecan
DRU026496,Epidermal Growth Factor
DRU006882,ARX-788
DRU004190,Paclitaxel
DRU002219,Entinostat
DRU006196,Adagloxad Simolenin
DRU026156,Trastuzumab
DRU003404,Abemaciclib
DRU005453,Trastuzumab Deruxtecan
DRU026156,Trastuzumab
DRU004322,Pertuzumab
DRU005453,Trastuzumab Deruxtecan
DRU004269,Pembrolizumab
,Combretastatin
DRU007243,AZD-5363
DRU027171,spartalizumab
,Patritumab
DRU003254,Letrozole
DRU004195,Palbociclib
DRU008144,Capivasertib
DRU002641,Fulvestrant
DRU022528,Indoleamine-2
DRU002054,Doxorubicin
DRU013467,LSZ-102
DRU020139,Olaparib
DRU003764,Atezolizumab
DRU004195,Palbociclib
DRU004195,Palbociclib
DRU004269,Pembrolizumab
DRU002269,Eribulin
DRU002017,Docetaxel
DRU026156,Trastuzumab
DRU026156,Trastuzumab
DRU004195,Palbociclib
DRU018647,Taxane
DRU003865,Neratinib
DRU008144,Capivasertib
DRU004195,Palbociclib
DRU017112,Ricolinostat
DRU004190,Paclitaxel
DRU026496,Epidermal Growth Factor
DRU003404,Abemaciclib
DRU002269,Eribulin
DRU004190,Paclitaxel
DRU003865,Neratinib
DRU005453,Trastuzumab Deruxtecan
DRU003955,Nivolumab
DRU004356,Phenobarbital
DRU003070,Ipatasertib
DRU004195,Palbociclib
DRU004195,Palbociclib
DRU004190,Paclitaxel
DRU004190,Paclitaxel
DRU004195,Palbociclib
DRU004686,RAD-1901
DRU011011,GDC-0077
DRU004195,Palbociclib
DRU004195,Palbociclib
DRU002695,Gedatolisib
DRU026156,Trastuzumab
DRU003404,Abemaciclib
DRU028287,Tesetaxel
DRU028287,Tesetaxel
DRU013036,L-Asparaginase
DRU026156,Trastuzumab
DRU003404,Abemaciclib
DRU002222,Entrectinib
DRU026156,Trastuzumab
DRU020139,Olaparib
DRU004356,Phenobarbital
DRU004356,Phenobarbital
DRU000335,Alpelisib
DRU018630,TAS-120
DRU004190,Paclitaxel
DRU000519,Apatinib
DRU028287,Tesetaxel
DRU003404,Abemaciclib
DRU002269,Eribulin
DRU026496,Epidermal Growth Factor
DRU026156,Trastuzumab
DRU005180,Tamoxifen
,Decorin
DRU004195,Palbociclib
DRU002393,Exemestane
DRU004195,Palbociclib
DRU003865,Neratinib
,Lerociclib
,SPM-924
DRU026156,Trastuzumab
,ABP-980
DRU026156,Trastuzumab
,Fluoroestradiol
DRU002086,Durvalumab
DRU000199,Ado-Trastuzumab Emtansine
DRU003254,Letrozole
DRU004195,Palbociclib
DRU000653,Atorvastatin
DRU026156,Trastuzumab
DRU006411,AL-101
DRU003955,Nivolumab
DRU004195,Palbociclib
DRU001245,Capecitabine
DRU018889,Thymidine
DRU026156,Trastuzumab
DRU004195,Palbociclib
DRU004190,Paclitaxel
DRU001840,Desloratadine
DRU005118,Sulindac
DRU026496,Epidermal Growth Factor
DRU004195,Palbociclib
DRU004174,Oxyphenbutazone
DRU026156,Trastuzumab
DRU021899,PARP 1
DRU009377,Dendritic Cell Vaccine
DRU015488,Optima
DRU013414,Locoregional
DRU005180,Tamoxifen
DRU014927,Netupitant
DRU004195,Palbociclib
DRU004269,Pembrolizumab
DRU005169,Talimogene Laherparepvec
DRU004190,Paclitaxel
DRU004190,Paclitaxel
DRU016878,RC48-ADC
,Activated Charcoal
DRU026156,Trastuzumab
DRU004269,Pembrolizumab
DRU003246,Leronlimab
DRU001279,Carboplatin
DRU002393,Exemestane
DRU018647,Taxane
,Interleukin-11
DRU002269,Eribulin
,Prolactin
DRU004174,Oxyphenbutazone
DRU003254,Letrozole
DRU003556,Metformin Orotate
DRU015370,Omega-3 Fatty Acid
DRB000701,Duavee
,Prolactin
DRU012317,Indocyanine
DRU004356,Phenobarbital
DRU004356,Phenobarbital
DRU004269,Pembrolizumab
DRU002086,Durvalumab
,Interleukin-1
DRU004190,Paclitaxel
DRU004190,Paclitaxel
DRU020643,18F-FDG
DRU021261,CCL21
DRB003056,Nerlynx
DRU005691,Etoposide
DRU020509,NSC-125973
DRU004686,RAD-1901
DRU026156,Trastuzumab
DRU008144,Capivasertib
DRU000335,Alpelisib
DRU001000,Bisphosphonates
DRU002285,Estradiol
DRU002017,Docetaxel
DRU005180,Tamoxifen
DRU026156,Trastuzumab
DRU000199,Ado-Trastuzumab Emtansine
DRU018048,SM-08502
DRU004190,Paclitaxel
DRU008494,Chlorogenic Acid
DRU004085,ONC-201
DRU002641,Fulvestrant
DRU026156,Trastuzumab
DRU020478,Bevacizumab
DRU004269,Pembrolizumab
DRU004269,Pembrolizumab
DRU004269,Pembrolizumab
DRU020703,Goserelin
DRU004190,Paclitaxel
DRU001245,Capecitabine
DRU000482,Anastrozole
DRU004195,Palbociclib
DRU005669,Vinorelbine
DRU000653,Atorvastatin
DRU003404,Abemaciclib
DRU020139,Olaparib
DRU000679,Avelumab
DRU020139,Olaparib
DRU021899,PARP 1
DRU020139,Olaparib
DRU004190,Paclitaxel
DRU004195,Palbociclib
DRU004195,Palbociclib
,NEPA
DRU026156,Trastuzumab
DRU002269,Eribulin
DRU002225,Enzalutamide
DRU026496,Epidermal Growth Factor
DRU002386,Everolimus
DRU026156,Trastuzumab
DRU026496,Epidermal Growth Factor
DRU005180,Tamoxifen
DRU005180,Tamoxifen
,Alpha-2
DRU026496,Epidermal Growth Factor
DRU002260,Equol
DRU005180,Tamoxifen
DRU022142,STAT 3
DRU026496,Epidermal Growth Factor
DRU002054,Doxorubicin
,Estetrol
DRU002641,Fulvestrant
,Ethynil Estradiol
DRU004190,Paclitaxel
DRU004740,Resveratrol
DRU026156,Trastuzumab
DRU002606,Formalin
DRU000594,Artemether and Lumefantrine
DRU004356,Phenobarbital
DRU026156,Trastuzumab
,Rela
DRU005688,Vorinostat
DRU006706,Annamycin
DRU001279,Carboplatin
DRU020478,Bevacizumab
DRU004195,Palbociclib
,Imipramine
,Imipramine
DRU002754,Glutamine
DRU023822,GLP-1
DRU022142,STAT 3
DRU003865,Neratinib
DRU015518,ORIC-101
DRU002086,Durvalumab
DRU002754,Glutamine
DRU001331,Cannabidiol
DRU005180,Tamoxifen
DRU004190,Paclitaxel
,Tegafur
DRU001709,Cyclophosphamide
DRU001531,Cisplatin
,Artemisinin
DRU004356,Phenobarbital
DRB004108,Herceptin
DRU004322,Pertuzumab
DRU000199,Ado-Trastuzumab Emtansine
DRU001279,Carboplatin
DRU000010,Methionine
DRU000199,Ado-Trastuzumab Emtansine
DRU004356,Phenobarbital
DRU003254,Letrozole
DRU011028,GDC-9545
DRU005180,Tamoxifen
DRU016973,Reparixin
DRU004269,Pembrolizumab
DRU026485,MT-5111
DRU004195,Palbociclib
DRU026615,Fluorescein
DRU026156,Trastuzumab
DRU004195,Palbociclib
DRU000225,Afimoxifene
,for ag-221
DRU001245,Capecitabine
DRU000043,5-Fluorouracil
DRU022142,STAT 3
DRU021899,PARP 1
DRU011011,GDC-0077
DRU004195,Palbociclib
DRU004269,Pembrolizumab
DRU004255,Pegfilgrastim
DRU015370,Omega-3 Fatty Acid
DRU023644,Trastuzumab Biosimilar
DRU000199,Ado-Trastuzumab Emtansine
DRU002269,Eribulin
DRU018647,Taxane
DRU021899,PARP 1
,AZD-9496
DRU003404,Abemaciclib
,CUDC-101
,Atengenal
DRU004255,Pegfilgrastim
DRU009107,CX-5461
DRU004190,Paclitaxel
,SBT-6050
DRU004190,Paclitaxel
DRU000199,Ado-Trastuzumab Emtansine
DRU003254,Letrozole
DRU000199,Ado-Trastuzumab Emtansine
DRU005180,Tamoxifen
DRU004255,Pegfilgrastim
DRU005118,Sulindac
DRU000199,Ado-Trastuzumab Emtansine
DRU001245,Capecitabine
DRU001821,Denosumab
DRU003234,LEE-011
DRU003837,Navitoclax
DRU004322,Pertuzumab
DRU002641,Fulvestrant
DRU014586,MSB0011359C
DRU026156,Trastuzumab
DRU002393,Exemestane
DRU026496,Epidermal Growth Factor
DRU000199,Ado-Trastuzumab Emtansine
DRU014586,MSB0011359C
DRU020478,Bevacizumab
,Endoxifen
DRU004884,Saracatinib
DRU000303,Alisertib
DRU003955,Nivolumab
DRU005169,Talimogene Laherparepvec
DRU002086,Durvalumab
DRU004190,Paclitaxel
DRU003955,Nivolumab
DRU005180,Tamoxifen
DRU004356,Phenobarbital
DRU000199,Ado-Trastuzumab Emtansine
DRU003764,Atezolizumab
DRU002998,Ruxolitinib
DRU026496,Epidermal Growth Factor
DRU026156,Trastuzumab
DRU004195,Palbociclib
DRU006201,Adavosertib
DRU003404,Abemaciclib
DRU002269,Eribulin
DRU005638,Veliparib
DRU026605,Granulocyte-Colony Stimulating Factor
DRU016559,Proxalutamide
DRU003254,Letrozole
DRU005180,Tamoxifen
DRU026156,Trastuzumab
DRU004322,Pertuzumab
DRU026496,Epidermal Growth Factor
DRU020478,Bevacizumab
DRU026156,Trastuzumab
DRU002054,Doxorubicin
DRU013058,Ladiratuzumab
DRB000183,Trazimera
DRU002641,Fulvestrant
DRU020478,Bevacizumab
DRU004190,Paclitaxel
DRU003848,Nedaplatin
DRU004356,Phenobarbital
DRU001651,Copanlisib
DRU017594,SAR-439859
DRU003404,Abemaciclib
DRU000199,Ado-Trastuzumab Emtansine
DRU001245,Capecitabine
DRU026156,Trastuzumab
DRU004322,Pertuzumab
DRU002641,Fulvestrant
DRU026496,Epidermal Growth Factor
DRU001709,Cyclophosphamide
DRU020509,NSC-125973
DRU018647,Taxane
DRU000199,Ado-Trastuzumab Emtansine
DRU023893,OBI-822
DRU014716,Myocet
DRU002641,Fulvestrant
DRU005453,Trastuzumab Deruxtecan
DRU005453,Trastuzumab Deruxtecan
DRU004190,Paclitaxel
DRU008144,Capivasertib
DRU004190,Paclitaxel
DRU001709,Cyclophosphamide
DRU002641,Fulvestrant
DRU002269,Eribulin
DRU002243,Epirubicin
DRU002998,Ruxolitinib
DRU004322,Pertuzumab
DRU002393,Exemestane
DRU022528,Indoleamine-2
DRU002641,Fulvestrant
DRU002641,Fulvestrant
DRU004190,Paclitaxel
DRU000199,Ado-Trastuzumab Emtansine
DRU016819,RAD-140
DRU004195,Palbociclib
DRU005453,Trastuzumab Deruxtecan
DRU026496,Epidermal Growth Factor
DRU002393,Exemestane
DRU002134,Eftilagimod
DRU008144,Capivasertib
DRU003404,Abemaciclib
DRU004686,RAD-1901
DRU011011,GDC-0077
DRU026496,Epidermal Growth Factor
DRU018647,Taxane
DRU002700,Gemcitabine
DRU004322,Pertuzumab
DRU004322,Pertuzumab
DRU003254,Letrozole
DRU003254,Letrozole
DRU026496,Epidermal Growth Factor
DRU027089,futibatinib
DRU013338,Liporaxel
DRU002017,Docetaxel
DRU001245,Capecitabine
DRU026496,Epidermal Growth Factor
DRU028392,balixafortide
DRU003254,Letrozole
DRU004356,Phenobarbital
DRU023518,G1T38
DRU002565,Fluorodeoxyglucose
DRU004190,Paclitaxel
DRU000199,Ado-Trastuzumab Emtansine
DRU002641,Fulvestrant
DRU001422,Chitosan
DRU024015,Concomitant
DRU003070,Ipatasertib
DRU003359,Loratadine
DRU018889,Thymidine
,Endoxifen
DRU004201,Palonosetron
DRU001780,Decitabine
DRU003764,Atezolizumab
DRU001709,Cyclophosphamide
DRU020478,Bevacizumab
DRU004322,Pertuzumab
DRU021207,CCR5
DRU002386,Everolimus
DRU000780,Bazedoxifene
DRU004269,Pembrolizumab
DRU004190,Paclitaxel
DRU001279,Carboplatin
DRU001279,Carboplatin
DRU026156,Trastuzumab
DRU020478,Bevacizumab
DRU024155,PTX
DRU004686,RAD-1901
DRU004190,Paclitaxel
DRU026496,Epidermal Growth Factor
DRU026156,Trastuzumab
DRU020478,Bevacizumab
DRU000897,Beta-Glucans
DRU001279,Carboplatin
DRU002269,Eribulin
DRU026599,Utidelone
DRU005180,Tamoxifen
DRU018647,Taxane
DRU004195,Palbociclib
DRU002054,Doxorubicin
DRU003254,Letrozole
DRU001709,Cyclophosphamide
DRU017594,SAR-439859
DRU003254,Letrozole
DRU002269,Eribulin
,Endoxifen
DRU005240,Temozolomide
DRU002017,Docetaxel
DRU002269,Eribulin
DRU004356,Phenobarbital
DRU005180,Tamoxifen
DRU026156,Trastuzumab
,HT3
DRU018647,Taxane
DRU005638,Veliparib
DRU000335,Alpelisib
DRU002386,Everolimus
DRU004190,Paclitaxel
DRU004322,Pertuzumab
DRU004356,Phenobarbital
DRU021899,PARP 1
DRU026156,Trastuzumab
DRU004190,Paclitaxel
DRU021899,PARP 1
DRU002641,Fulvestrant
DRU026156,Trastuzumab
DRU026786,Tucatinib
DRU003837,Navitoclax
DRU026156,Trastuzumab
DRU003865,Neratinib
DRU000482,Anastrozole
DRU000199,Ado-Trastuzumab Emtansine
DRU005180,Tamoxifen
DRU026156,Trastuzumab
DRU000199,Ado-Trastuzumab Emtansine
DRB004108,Herceptin
DRU003955,Nivolumab
DRU003254,Letrozole
DRU001279,Carboplatin
DRU003955,Nivolumab
DRU001709,Cyclophosphamide
DRU026786,Tucatinib
DRU002017,Docetaxel
DRU004686,RAD-1901
DRU000199,Ado-Trastuzumab Emtansine
DRU000199,Ado-Trastuzumab Emtansine
DRU026831,Bintrafusp Alfa
DRU001279,Carboplatin
DRU002641,Fulvestrant
DRU026156,Trastuzumab
DRU001531,Cisplatin
DRU026156,Trastuzumab
DRU001709,Cyclophosphamide
DRU002641,Fulvestrant
DRU003021,Indoximod
DRU017112,Ricolinostat
DRU000199,Ado-Trastuzumab Emtansine
DRU000199,Ado-Trastuzumab Emtansine
DRU001245,Capecitabine
DRU002386,Everolimus
DRU000482,Anastrozole
DRU003254,Letrozole
DRU001245,Capecitabine
DRU001279,Carboplatin
DRU004190,Paclitaxel
DRU018647,Taxane
DRU002641,Fulvestrant
DRU002086,Durvalumab
DRU005180,Tamoxifen
,NEPA
DRU005169,Talimogene Laherparepvec
DRU002243,Epirubicin
DRU002054,Doxorubicin
DRU026156,Trastuzumab
DRU001531,Cisplatin
DRU000199,Ado-Trastuzumab Emtansine
DRU001245,Capecitabine
DRU026156,Trastuzumab
DRU001709,Cyclophosphamide
DRU000199,Ado-Trastuzumab Emtansine
,NEPA
DRU001768,Dasatinib
DRU000415,Aminopeptidase
DRU026156,Trastuzumab
DRU004322,Pertuzumab
DRU026156,Trastuzumab
DRU006014,ABT-414
DRU004322,Pertuzumab
DRU003764,Atezolizumab
DRU005453,Trastuzumab Deruxtecan
DRU014586,MSB0011359C
DRU004322,Pertuzumab
DRU004322,Pertuzumab
DRU001245,Capecitabine
DRU002386,Everolimus
DRU026156,Trastuzumab
DRU003955,Nivolumab
DRU002054,Doxorubicin
DRU023460,CYP2D6
DRU001279,Carboplatin
DRU001709,Cyclophosphamide
DRU004322,Pertuzumab
DRU004322,Pertuzumab
DRU026156,Trastuzumab
DRU000199,Ado-Trastuzumab Emtansine
DRU017769,SDX-7320
DRU000199,Ado-Trastuzumab Emtansine
DRU026156,Trastuzumab
DRU026156,Trastuzumab
DRU000199,Ado-Trastuzumab Emtansine
DRU001709,Cyclophosphamide
DRU004322,Pertuzumab
DRB000181,Piqray
DRU004322,Pertuzumab
DRU000199,Ado-Trastuzumab Emtansine
