Internal ID,FilteredAppendedFirm
1,Voyager Therapeutics
2,nan
3,nan
4,nan
5,nan
6,nan
7,nan
8,nan
9,nan
10,Precision BioSciences
11,nan
12,nan
13,nan
14,nan
15,nan
16,nan
17,Pfizer
18,nan
19,nan
20,nan
21,nan
22,nan
23,nan
24,nan
25,nan
26,nan
27,nan
28,nan
29,nan
30,nan
31,Editas
32,nan
33,nan
34,nan
35,nan
36,nan
37,Regenxbio
38,Ultragenyx Pharmaceutical
39,nan
40,nan
41,UniQure
42,nan
43,nan
44,Prevail Therapeutics
45,nan
46,Precision BioSciences
47,nan
48,nan
49,nan
50,nan
51,nan
52,nan
53,nan
54,nan
55,nan
56,nan
57,nan
58,nan
59,Novartis
60,Novartis
61,nan
62,nan
63,nan
64,nan
65,nan
66,nan
67,nan
68,nan
69,nan
70,nan
71,nan
72,nan
73,"Regeneron Pharmaceuticals, Intellia Therapeutics"
74,nan
75,nan
76,nan
77,nan
78,nan
79,nan
80,nan
81,Regenxbio
82,nan
83,nan
84,nan
85,nan
86,nan
87,nan
88,Precision BioSciences
89,nan
90,nan
91,nan
92,nan
93,nan
94,nan
95,nan
96,nan
97,nan
98,nan
99,UniQure
100,nan
101,nan
102,Audentes Therapeutics
103,nan
104,nan
105,nan
106,Spark Therapeutics
107,nan
108,nan
109,PTC Therapeutics
110,Precision BioSciences
111,nan
112,nan
113,Novartis
114,nan
115,nan
116,nan
117,Intellia Therapeutics
118,Precision BioSciences
119,nan
120,nan
121,nan
122,nan
123,nan
124,nan
125,AskBio
126,nan
127,nan
128,nan
129,nan
130,nan
131,nan
132,nan
133,nan
134,nan
135,nan
136,nan
137,nan
138,nan
139,nan
140,nan
141,nan
142,Editas
143,nan
144,nan
145,nan
146,nan
147,nan
148,nan
149,nan
150,Adverum Biotechnologies
151,Ultragenyx Pharmaceutical
152,nan
153,nan
154,Voyager Therapeutics
155,Asklepios Biopharmaceutical
156,nan
157,nan
158,nan
159,nan
160,nan
161,nan
162,nan
163,nan
164,nan
165,nan
166,nan
167,nan
168,nan
169,nan
170,nan
171,nan
172,nan
173,nan
174,nan
175,nan
176,nan
177,Asklepios Biopharmaceutical
178,nan
179,nan
180,Regeneron Pharmaceuticals
181,nan
182,Precision BioSciences
183,Precision BioSciences
184,Precision BioSciences
185,Precision BioSciences
186,Precision BioSciences
187,Precision BioSciences
188,Precision BioSciences
189,Precision BioSciences
190,nan
191,nan
192,nan
193,nan
194,nan
195,nan
196,nan
197,nan
198,nan
199,nan
200,Solid Biosciences
201,nan
202,nan
203,nan
204,nan
205,UniQure
206,nan
207,nan
208,nan
209,nan
210,Ultragenyx Pharmaceutical
211,nan
212,Precision BioSciences
213,Ultragenyx Pharmaceutical
214,nan
215,nan
216,nan
217,nan
218,Intellia Therapeutics
219,nan
220,Regenxbio
221,nan
222,nan
223,Prevail Therapeutics
224,"Pfizer, AskBio"
225,Voyager Therapeutics
226,Regenxbio
227,nan
228,nan
229,nan
230,nan
231,nan
232,nan
233,UniQure
234,nan
235,nan
236,Sarepta Therapeutics
237,nan
238,Ultragenyx Pharmaceutical
239,nan
240,nan
241,nan
242,nan
243,nan
244,Pfizer
245,nan
246,Adverum Biotechnologies
247,nan
248,nan
249,nan
250,Pfizer
251,nan
252,Voyager Therapeutics
253,nan
254,nan
255,nan
256,Solid Biosciences
257,nan
258,nan
259,nan
260,nan
261,AskBio
262,Regenxbio
263,nan
264,nan
265,nan
266,nan
267,nan
268,nan
269,nan
270,nan
271,nan
272,nan
273,nan
274,nan
275,nan
276,nan
277,nan
278,nan
279,nan
280,nan
281,nan
282,nan
283,Precision BioSciences
284,nan
285,nan
286,nan
287,nan
288,nan
289,nan
290,nan
291,nan
292,nan
293,nan
294,nan
295,nan
296,nan
297,nan
298,nan
299,nan
300,nan
301,nan
302,nan
303,nan
304,nan
305,nan
306,nan
307,nan
308,nan
309,nan
310,Precision BioSciences
311,Novartis
312,nan
313,nan
314,nan
315,Novartis
316,nan
317,nan
318,nan
319,nan
320,nan
321,nan
322,nan
323,nan
324,nan
325,nan
326,Precision BioSciences
327,nan
328,Asklepios Biopharmaceutical
329,nan
330,nan
331,Sangamo Therapeutics
332,Precision BioSciences
333,nan
334,nan
335,nan
336,nan
337,nan
338,nan
339,Precision BioSciences
340,nan
341,Precision BioSciences
342,nan
343,nan
344,nan
345,nan
346,nan
347,Precision BioSciences
348,nan
349,nan
350,Pfizer
351,nan
352,nan
353,nan
354,nan
355,nan
356,nan
357,Genethon
358,nan
359,nan
360,nan
361,UniQure
362,nan
363,Pfizer
364,nan
365,nan
366,nan
367,nan
368,nan
369,nan
370,nan
371,nan
372,Precision BioSciences
373,nan
374,Pfizer
375,nan
376,nan
377,nan
378,nan
379,nan
380,nan
381,nan
382,nan
383,nan
384,nan
385,nan
386,nan
387,nan
388,nan
389,nan
390,"Genethon, Spark Therapeutics"
391,nan
392,nan
393,nan
394,nan
395,nan
396,nan
397,nan
398,nan
399,nan
400,nan
401,nan
402,nan
403,nan
404,Genethon
405,nan
406,nan
407,nan
408,nan
409,nan
410,nan
411,nan
412,nan
413,nan
414,Editas
415,nan
416,nan
417,nan
418,Sangamo Therapeutics
419,nan
420,nan
421,nan
422,nan
423,nan
424,Voyager Therapeutics
425,nan
426,nan
427,Biogen
428,nan
429,nan
430,nan
431,nan
432,nan
433,Amicus Therapeutics
434,nan
435,nan
436,nan
437,nan
438,nan
439,nan
440,nan
441,nan
442,nan
443,nan
444,nan
445,nan
446,nan
447,Precision BioSciences
448,nan
449,nan
450,nan
451,nan
452,nan
453,nan
454,nan
455,nan
456,nan
457,nan
458,nan
459,nan
460,nan
461,UniQure
462,nan
463,nan
464,nan
465,nan
466,StrideBio
467,nan
468,nan
469,nan
470,UniQure
471,nan
472,nan
473,nan
474,nan
475,nan
476,nan
477,nan
478,nan
479,nan
480,nan
481,nan
482,nan
483,nan
484,nan
485,nan
486,"Amicus Therapeutics, Vertex Pharmaceuticals Incorporated, Asklepios Biopharmaceutical, Sarepta Therapeutics"
487,Biogen
488,nan
489,nan
490,nan
491,nan
492,nan
493,AveXis
494,Novartis
495,nan
496,Novartis
497,nan
498,"Sarepta Therapeutics, AveXis, Vertex Pharmaceuticals Incorporated"
499,nan
500,nan
501,nan
502,nan
503,nan
504,nan
505,nan
506,nan
507,nan
508,nan
509,nan
510,nan
511,nan
512,nan
513,nan
514,Pfizer
515,nan
516,nan
517,nan
518,nan
519,nan
520,nan
521,nan
522,nan
523,nan
524,nan
525,Novartis
526,Encoded Therapeutics
527,nan
528,nan
529,nan
530,nan
531,nan
532,nan
533,nan
534,nan
535,Precision BioSciences
536,nan
537,nan
538,nan
539,nan
540,nan
541,"Precision BioSciences, UniQure"
542,nan
543,nan
544,nan
545,nan
546,nan
547,nan
548,nan
549,Precision BioSciences
550,Precision BioSciences
551,nan
552,nan
553,nan
554,nan
555,nan
556,nan
557,nan
558,nan
559,nan
560,nan
561,nan
562,nan
563,nan
564,Pfizer
565,nan
566,nan
567,nan
568,nan
569,nan
570,nan
571,nan
572,nan
573,nan
574,Editas
575,nan
576,nan
577,nan
578,nan
579,nan
580,nan
581,nan
582,nan
583,nan
584,nan
585,nan
586,nan
587,Sangamo Therapeutics
588,nan
589,nan
590,nan
591,nan
592,nan
593,nan
594,nan
595,Precision BioSciences
596,Pfizer
597,nan
598,nan
599,Precision BioSciences
600,nan
601,nan
602,nan
603,nan
604,nan
605,nan
606,nan
607,nan
608,nan
609,nan
610,nan
611,nan
612,nan
613,nan
614,nan
615,nan
616,nan
617,nan
618,nan
619,Biogen
620,Precision BioSciences
621,nan
622,nan
623,Regeneron Pharmaceuticals
624,nan
625,nan
626,nan
627,nan
628,nan
629,nan
630,nan
631,nan
632,nan
633,nan
634,nan
635,nan
636,Genethon
637,nan
638,nan
639,nan
640,nan
641,nan
642,nan
643,Sarepta Therapeutics
644,Genethon
645,nan
646,nan
647,nan
648,nan
649,nan
650,nan
651,nan
652,nan
653,nan
654,nan
655,nan
656,nan
657,nan
658,nan
659,nan
660,nan
661,Pfizer
662,nan
663,nan
664,nan
665,PTC Therapeutics
666,nan
667,nan
668,UniQure
669,nan
670,nan
671,nan
672,nan
673,nan
674,Editas
675,Pfizer
676,nan
677,nan
678,nan
679,nan
680,nan
681,nan
682,Editas
683,Precision BioSciences
684,nan
685,nan
686,Ultragenyx Pharmaceutical
687,nan
688,nan
689,nan
690,nan
691,nan
692,nan
693,nan
694,nan
695,nan
696,nan
697,nan
698,Precision BioSciences
699,Regenxbio
700,nan
701,nan
702,nan
703,nan
704,nan
705,nan
706,nan
707,nan
708,nan
709,nan
710,nan
711,nan
712,Intellia Therapeutics
713,nan
714,nan
715,nan
716,nan
717,nan
718,nan
719,nan
720,nan
721,nan
722,nan
723,nan
724,nan
725,Editas
726,nan
727,nan
728,nan
729,nan
730,Genethon
731,Genethon
732,Genethon
733,nan
734,nan
735,nan
736,nan
737,nan
738,nan
739,nan
740,nan
741,nan
742,nan
743,nan
744,nan
745,nan
746,nan
747,nan
748,nan
749,nan
750,Pfizer
751,Precision BioSciences
752,nan
753,nan
754,nan
755,Regenxbio
756,nan
757,nan
758,nan
759,nan
760,Ultragenyx Pharmaceutical
761,nan
762,nan
763,nan
764,nan
765,Voyager Therapeutics
766,nan
767,nan
768,nan
769,nan
770,Voyager Therapeutics
771,Precision BioSciences
772,nan
773,Precision BioSciences
774,nan
775,Precision BioSciences
776,UniQure
777,nan
778,nan
779,nan
780,nan
781,nan
782,nan
783,nan
784,nan
785,nan
786,nan
787,nan
788,nan
789,nan
790,nan
791,nan
792,nan
793,nan
794,nan
795,nan
796,Takara Bio
797,nan
798,nan
799,nan
800,nan
801,nan
802,nan
803,nan
804,nan
805,nan
806,nan
807,nan
808,nan
809,nan
810,nan
811,nan
812,nan
813,nan
814,nan
815,nan
816,nan
817,nan
818,nan
819,nan
820,nan
821,nan
822,nan
823,nan
824,nan
825,nan
826,nan
827,nan
828,nan
829,nan
830,nan
831,nan
832,nan
833,nan
834,nan
835,nan
836,nan
837,nan
838,nan
839,nan
840,nan
841,AveXis
842,nan
843,nan
844,nan
845,nan
846,nan
847,nan
848,nan
849,nan
850,Precision BioSciences
851,Editas
852,nan
853,nan
854,Editas
855,nan
856,nan
857,Precision BioSciences
858,nan
859,nan
860,nan
861,Precision BioSciences
862,nan
863,nan
864,nan
865,nan
866,Precision BioSciences
867,nan
868,nan
869,nan
870,nan
871,Intellia Therapeutics
872,nan
873,nan
874,nan
875,nan
876,nan
877,nan
878,nan
879,nan
880,nan
881,nan
882,nan
883,nan
884,nan
885,nan
886,nan
887,nan
888,nan
889,nan
890,nan
891,nan
892,nan
893,nan
894,nan
895,nan
896,nan
897,nan
898,nan
899,nan
900,nan
901,nan
902,nan
903,nan
904,nan
905,nan
906,nan
907,nan
908,nan
909,nan
910,Precision BioSciences
911,nan
912,nan
913,nan
914,nan
915,nan
916,nan
917,nan
918,nan
919,nan
920,nan
921,CRISPR Therapeutics
922,nan
923,nan
924,nan
925,nan
926,nan
927,nan
928,nan
929,nan
930,nan
931,nan
932,nan
933,nan
934,UniQure
935,UniQure
936,nan
937,nan
938,nan
939,nan
940,nan
941,Sangamo Therapeutics
942,nan
943,nan
944,nan
945,nan
946,nan
947,Amicus Therapeutics
948,nan
949,nan
950,nan
951,nan
952,nan
953,nan
954,nan
955,nan
956,nan
957,UniQure
958,nan
959,nan
960,nan
961,UniQure
962,nan
963,nan
964,UniQure
965,nan
966,nan
967,nan
968,nan
969,nan
970,nan
971,nan
972,nan
973,Precision BioSciences
974,nan
975,nan
976,nan
977,nan
978,nan
979,Takara Bio
980,nan
981,nan
982,Asklepios Biopharmaceutical
983,nan
984,nan
985,Adverum Biotechnologies
986,nan
987,nan
988,nan
989,nan
990,nan
991,nan
992,nan
993,nan
994,AveXis
995,Ultragenyx Pharmaceutical
996,Voyager Therapeutics
997,nan
998,nan
999,nan
1000,nan
1001,nan
1002,nan
1003,nan
1004,nan
1005,nan
1006,nan
1007,nan
1008,nan
1009,nan
1010,nan
1011,PTC Therapeutics
1012,nan
1013,nan
1014,Editas
1015,nan
1016,nan
1017,nan
1018,nan
1019,nan
1020,nan
1021,nan
1022,nan
1023,nan
1024,nan
1025,nan
1026,CRISPR Therapeutics
1027,nan
1028,nan
1029,nan
1030,nan
1031,nan
1032,nan
1033,Pfizer
1034,nan
1035,nan
1036,nan
1037,nan
1038,PTC Therapeutics
1039,nan
1040,nan
1041,nan
1042,nan
1043,nan
1044,nan
1045,nan
1046,nan
1047,nan
1048,nan
1049,nan
1050,Prevail Therapeutics
1051,nan
1052,UniQure
1053,nan
1054,nan
1055,"Novartis, AveXis"
1056,nan
1057,Editas
1058,nan
1059,nan
1060,nan
1061,nan
1062,nan
1063,nan
1064,Precision BioSciences
1065,nan
1066,nan
1067,nan
1068,nan
1069,nan
1070,Genethon
1071,nan
1072,nan
1073,Amicus Therapeutics
1074,nan
1075,nan
1076,nan
1077,nan
1078,nan
1079,nan
1080,nan
1081,nan
1082,nan
1083,nan
1084,UniQure
1085,Novartis
1086,nan
1087,Biogen
1088,nan
1089,nan
1090,nan
1091,nan
1092,nan
1093,nan
1094,nan
1095,nan
1096,nan
1097,nan
1098,nan
1099,nan
1100,nan
1101,nan
1102,Voyager Therapeutics
1103,nan
1104,nan
1105,nan
1106,nan
1107,nan
1108,nan
1109,nan
1110,nan
1111,nan
1112,nan
1113,Voyager Therapeutics
1114,Encoded Therapeutics
1115,nan
1116,nan
1117,nan
1118,nan
1119,Regenxbio
1120,nan
1121,nan
1122,Ultragenyx Pharmaceutical
1123,nan
1124,nan
1125,AskBio
1126,nan
1127,nan
1128,nan
1129,Regenxbio
1130,nan
1131,nan
1132,nan
1133,nan
1134,nan
1135,nan
1136,nan
1137,nan
1138,nan
1139,nan
1140,nan
1141,nan
1142,nan
1143,nan
1144,nan
1145,Editas
1146,CRISPR Therapeutics
1147,nan
1148,nan
1149,nan
1150,nan
1151,nan
1152,nan
1153,nan
1154,Precision BioSciences
1155,nan
1156,nan
1157,nan
1158,nan
1159,nan
1160,nan
1161,nan
1162,nan
1163,nan
1164,Intellia Therapeutics
1165,nan
1166,nan
1167,nan
1168,nan
1169,nan
1170,nan
1171,nan
1172,nan
1173,nan
1174,nan
1175,nan
1176,nan
1177,nan
1178,nan
1179,nan
1180,nan
1181,nan
1182,nan
1183,nan
1184,Precision BioSciences
1185,nan
1186,nan
1187,nan
1188,CRISPR Therapeutics
1189,"Precision BioSciences, Sangamo Therapeutics"
1190,nan
1191,nan
1192,nan
1193,nan
1194,CRISPR Therapeutics
1195,nan
1196,nan
1197,nan
1198,nan
1199,nan
1200,nan
1201,nan
1202,nan
1203,Precision BioSciences
1204,nan
1205,nan
1206,nan
1207,nan
1208,nan
1209,nan
1210,nan
1211,nan
1212,nan
1213,nan
1214,Takara Bio
1215,nan
1216,nan
1217,nan
1218,Pfizer
1219,nan
1220,Pfizer
1221,nan
1222,nan
1223,UniQure
1224,nan
1225,"Precision BioSciences, Takara Bio"
1226,nan
1227,nan
1228,nan
1229,nan
1230,nan
1231,nan
1232,nan
1233,nan
1234,nan
1235,nan
1236,nan
1237,Sarepta Therapeutics
1238,nan
1239,nan
1240,nan
1241,nan
1242,nan
1243,nan
1244,nan
1245,nan
1246,nan
1247,nan
1248,nan
1249,nan
1250,nan
1251,Biogen
1252,Celavie Bioscences
1253,nan
1254,nan
1255,nan
1256,nan
1257,nan
1258,nan
1259,nan
1260,nan
1261,nan
1262,nan
1263,nan
1264,nan
1265,nan
1266,nan
1267,nan
1268,UniQure
1269,nan
1270,nan
1271,Precision BioSciences
1272,Precision BioSciences
1273,nan
1274,nan
1275,nan
1276,Voyager Therapeutics
1277,nan
1278,nan
1279,nan
1280,nan
1281,nan
1282,Takara Bio
1283,nan
1284,nan
1285,nan
1286,nan
1287,nan
1288,nan
1289,nan
1290,nan
1291,nan
1292,nan
1293,nan
1294,nan
1295,nan
1296,nan
1297,nan
1298,nan
1299,nan
1300,Genethon
1301,nan
1302,nan
1303,nan
1304,nan
1305,nan
1306,nan
1307,nan
1308,nan
1309,UniQure
1310,nan
1311,nan
1312,nan
1313,Precision BioSciences
1314,nan
1315,nan
1316,nan
1317,nan
1318,nan
1319,Precision BioSciences
1320,nan
1321,nan
1322,Precision BioSciences
1323,nan
1324,nan
1325,Biogen
1326,nan
1327,nan
1328,nan
1329,nan
1330,nan
1331,nan
1332,nan
1333,UniQure
1334,nan
1335,nan
1336,nan
1337,nan
1338,nan
1339,nan
1340,nan
1341,nan
1342,nan
1343,Voyager Therapeutics
1344,nan
1345,Regenxbio
1346,UniQure
1347,nan
1348,nan
1349,nan
1350,Precision BioSciences
1351,Voyager Therapeutics
1352,nan
1353,nan
1354,nan
1355,nan
1356,nan
1357,nan
1358,nan
1359,nan
1360,nan
1361,nan
1362,nan
1363,nan
1364,nan
1365,nan
1366,nan
1367,nan
1368,nan
1369,nan
1370,nan
1371,nan
1372,nan
1373,nan
1374,nan
1375,nan
1376,nan
1377,nan
1378,nan
1379,nan
1380,nan
1381,Pfizer
1382,nan
1383,nan
1384,Precision BioSciences
1385,nan
1386,Precision BioSciences
1387,Audentes Therapeutics
1388,nan
1389,Novartis
1390,nan
1391,nan
1392,nan
1393,nan
1394,nan
1395,nan
1396,nan
1397,Novartis
1398,nan
1399,nan
1400,nan
1401,nan
1402,nan
1403,nan
1404,nan
1405,nan
1406,nan
1407,Sangamo Therapeutics
1408,nan
1409,nan
1410,nan
1411,nan
1412,nan
1413,"Sarepta Therapeutics, AveXis, Vertex Pharmaceuticals Incorporated"
1414,nan
1415,nan
1416,nan
1417,nan
1418,nan
1419,nan
1420,nan
1421,nan
1422,nan
1423,nan
1424,PTC Therapeutics
1425,Biogen
1426,nan
1427,nan
1428,nan
1429,nan
1430,nan
1431,nan
1432,nan
1433,nan
1434,nan
1435,nan
1436,nan
1437,nan
1438,nan
1439,nan
1440,nan
1441,nan
1442,nan
1443,nan
1444,nan
1445,nan
1446,nan
1447,nan
1448,nan
1449,nan
1450,nan
1451,nan
1452,"Novartis, AveXis, Astellas Pharma Inc, Audentes Therapeutics, Solid Biosciences"
1453,Sarepta Therapeutics
1454,"Asklepios Biopharmaceutical, AskBio"
1455,nan
1456,nan
1457,nan
1458,Pfizer
1459,nan
1460,nan
1461,nan
1462,nan
1463,Pfizer
1464,Sangamo Therapeutics
1465,nan
1466,nan
1467,nan
1468,nan
1469,nan
1470,nan
1471,nan
1472,nan
1473,nan
1474,Takara Bio
1475,nan
1476,nan
1477,nan
1478,Genethon
1479,nan
1480,nan
1481,nan
1482,nan
1483,nan
1484,nan
1485,nan
1486,nan
1487,nan
1488,nan
1489,nan
1490,Sarepta Therapeutics
1491,CRISPR Therapeutics
1492,nan
1493,Biogen
1494,"Voyager Therapeutics, StrideBio"
1495,Intellia Therapeutics
1496,nan
1497,Amicus Therapeutics
1498,nan
1499,nan
1500,nan
1501,Novartis
1502,nan
1503,Novartis
1504,Sarepta Therapeutics
1505,nan
1506,nan
1507,nan
1508,nan
1509,nan
1510,nan
1511,nan
1512,nan
1513,nan
1514,"Pfizer, AskBio"
1515,nan
1516,nan
1517,nan
1518,nan
1519,nan
1520,nan
1521,Sarepta Therapeutics
1522,nan
1523,nan
1524,nan
1525,nan
1526,nan
1527,nan
1528,nan
1529,nan
1530,Novartis
1531,nan
1532,nan
1533,nan
1534,nan
1535,nan
1536,nan
1537,nan
1538,nan
1539,nan
1540,nan
1541,nan
1542,nan
1543,nan
1544,nan
1545,nan
1546,PTC Therapeutics
1547,nan
